image_id,Young
182654.jpg,-1
182655.jpg,-1
182657.jpg,-1
182662.jpg,-1
182665.jpg,-1
182666.jpg,-1
182669.jpg,-1
182671.jpg,-1
182672.jpg,-1
182677.jpg,-1
182681.jpg,-1
182685.jpg,-1
182689.jpg,-1
182691.jpg,-1
182693.jpg,-1
182703.jpg,-1
182704.jpg,-1
182705.jpg,-1
182707.jpg,-1
182712.jpg,-1
182714.jpg,-1
182720.jpg,-1
182723.jpg,-1
182724.jpg,-1
182726.jpg,-1
182727.jpg,-1
182730.jpg,-1
182735.jpg,-1
182740.jpg,-1
182756.jpg,-1
182759.jpg,-1
182762.jpg,-1
182771.jpg,-1
182776.jpg,-1
182781.jpg,-1
182782.jpg,-1
182783.jpg,-1
182786.jpg,-1
182800.jpg,-1
182801.jpg,-1
182802.jpg,-1
182806.jpg,-1
182811.jpg,-1
182813.jpg,-1
182816.jpg,-1
182820.jpg,-1
182822.jpg,-1
182829.jpg,-1
182831.jpg,-1
182841.jpg,-1
182848.jpg,-1
182859.jpg,-1
182862.jpg,-1
182863.jpg,-1
182864.jpg,-1
182865.jpg,-1
182871.jpg,-1
182885.jpg,-1
182886.jpg,-1
182895.jpg,-1
182896.jpg,-1
182908.jpg,-1
182913.jpg,-1
182914.jpg,-1
182917.jpg,-1
182918.jpg,-1
182932.jpg,-1
182939.jpg,-1
182944.jpg,-1
182954.jpg,-1
182956.jpg,-1
182967.jpg,-1
182968.jpg,-1
182969.jpg,-1
182971.jpg,-1
182972.jpg,-1
182975.jpg,-1
182977.jpg,-1
182979.jpg,-1
182986.jpg,-1
182988.jpg,-1
182996.jpg,-1
183003.jpg,-1
183014.jpg,-1
183015.jpg,-1
183016.jpg,-1
183018.jpg,-1
183025.jpg,-1
183027.jpg,-1
183029.jpg,-1
183030.jpg,-1
183036.jpg,-1
183039.jpg,-1
183041.jpg,-1
183042.jpg,-1
183044.jpg,-1
183045.jpg,-1
183048.jpg,-1
183049.jpg,-1
183053.jpg,-1
183056.jpg,-1
183059.jpg,-1
183067.jpg,-1
183074.jpg,-1
183075.jpg,-1
183076.jpg,-1
183077.jpg,-1
183078.jpg,-1
183079.jpg,-1
183083.jpg,-1
183084.jpg,-1
183090.jpg,-1
183091.jpg,-1
183099.jpg,-1
183110.jpg,-1
183111.jpg,-1
183114.jpg,-1
183117.jpg,-1
183123.jpg,-1
183125.jpg,-1
183130.jpg,-1
183133.jpg,-1
183141.jpg,-1
183144.jpg,-1
183145.jpg,-1
183146.jpg,-1
183148.jpg,-1
183149.jpg,-1
183155.jpg,-1
183156.jpg,-1
183158.jpg,-1
183159.jpg,-1
183161.jpg,-1
183176.jpg,-1
183182.jpg,-1
183189.jpg,-1
183195.jpg,-1
183198.jpg,-1
183200.jpg,-1
183212.jpg,-1
183213.jpg,-1
183218.jpg,-1
183225.jpg,-1
183228.jpg,-1
183231.jpg,-1
183242.jpg,-1
183246.jpg,-1
183248.jpg,-1
183251.jpg,-1
183253.jpg,-1
183260.jpg,-1
183263.jpg,-1
183268.jpg,-1
183269.jpg,-1
183273.jpg,-1
183277.jpg,-1
183279.jpg,-1
183284.jpg,-1
183290.jpg,-1
183294.jpg,-1
183303.jpg,-1
183311.jpg,-1
183312.jpg,-1
183316.jpg,-1
183338.jpg,-1
183340.jpg,-1
183343.jpg,-1
183344.jpg,-1
183351.jpg,-1
183358.jpg,-1
183360.jpg,-1
183361.jpg,-1
183364.jpg,-1
183370.jpg,-1
183371.jpg,-1
183372.jpg,-1
183373.jpg,-1
183382.jpg,-1
183386.jpg,-1
183393.jpg,-1
183394.jpg,-1
183400.jpg,-1
183403.jpg,-1
183409.jpg,-1
183420.jpg,-1
183424.jpg,-1
183428.jpg,-1
183430.jpg,-1
183431.jpg,-1
183432.jpg,-1
183438.jpg,-1
183447.jpg,-1
183453.jpg,-1
183455.jpg,-1
183458.jpg,-1
183460.jpg,-1
183466.jpg,-1
183468.jpg,-1
183473.jpg,-1
183474.jpg,-1
183481.jpg,-1
183485.jpg,-1
183494.jpg,-1
183495.jpg,-1
183497.jpg,-1
183500.jpg,-1
183506.jpg,-1
183512.jpg,-1
183515.jpg,-1
183519.jpg,-1
183522.jpg,-1
183528.jpg,-1
183529.jpg,-1
183533.jpg,-1
183534.jpg,-1
183541.jpg,-1
183543.jpg,-1
183545.jpg,-1
183551.jpg,-1
183559.jpg,-1
183562.jpg,-1
183566.jpg,-1
183567.jpg,-1
183569.jpg,-1
183578.jpg,-1
183585.jpg,-1
183587.jpg,-1
183589.jpg,-1
183594.jpg,-1
183595.jpg,-1
183598.jpg,-1
183599.jpg,-1
183603.jpg,-1
183611.jpg,-1
183616.jpg,-1
183621.jpg,-1
183627.jpg,-1
183634.jpg,-1
183638.jpg,-1
183643.jpg,-1
183644.jpg,-1
183656.jpg,-1
183675.jpg,-1
183686.jpg,-1
183687.jpg,-1
183694.jpg,-1
183698.jpg,-1
183702.jpg,-1
183709.jpg,-1
183710.jpg,-1
183711.jpg,-1
183714.jpg,-1
183724.jpg,-1
183730.jpg,-1
183738.jpg,-1
183741.jpg,-1
183746.jpg,-1
183748.jpg,-1
183751.jpg,-1
183760.jpg,-1
183761.jpg,-1
183765.jpg,-1
183768.jpg,-1
183769.jpg,-1
183772.jpg,-1
183773.jpg,-1
183776.jpg,-1
183789.jpg,-1
183794.jpg,-1
183796.jpg,-1
183801.jpg,-1
183808.jpg,-1
183816.jpg,-1
183829.jpg,-1
183830.jpg,-1
183834.jpg,-1
183835.jpg,-1
183837.jpg,-1
183841.jpg,-1
183843.jpg,-1
183844.jpg,-1
183845.jpg,-1
183850.jpg,-1
183854.jpg,-1
183856.jpg,-1
183865.jpg,-1
183873.jpg,-1
183877.jpg,-1
183880.jpg,-1
183882.jpg,-1
183883.jpg,-1
183885.jpg,-1
183888.jpg,-1
183895.jpg,-1
183897.jpg,-1
183909.jpg,-1
183911.jpg,-1
183912.jpg,-1
183914.jpg,-1
183916.jpg,-1
183917.jpg,-1
183920.jpg,-1
183923.jpg,-1
183924.jpg,-1
183933.jpg,-1
183943.jpg,-1
183946.jpg,-1
183949.jpg,-1
183951.jpg,-1
183956.jpg,-1
183957.jpg,-1
183961.jpg,-1
183976.jpg,-1
183992.jpg,-1
183995.jpg,-1
183996.jpg,-1
184000.jpg,-1
184002.jpg,-1
184011.jpg,-1
184019.jpg,-1
184021.jpg,-1
184032.jpg,-1
184041.jpg,-1
184045.jpg,-1
184047.jpg,-1
184051.jpg,-1
184061.jpg,-1
184063.jpg,-1
184065.jpg,-1
184066.jpg,-1
184071.jpg,-1
184073.jpg,-1
184075.jpg,-1
184079.jpg,-1
184082.jpg,-1
184096.jpg,-1
184097.jpg,-1
184100.jpg,-1
184122.jpg,-1
184124.jpg,-1
184125.jpg,-1
184126.jpg,-1
184129.jpg,-1
184134.jpg,-1
184136.jpg,-1
184138.jpg,-1
184139.jpg,-1
184141.jpg,-1
184143.jpg,-1
184151.jpg,-1
184156.jpg,-1
184157.jpg,-1
184160.jpg,-1
184162.jpg,-1
184164.jpg,-1
184165.jpg,-1
184166.jpg,-1
184173.jpg,-1
184175.jpg,-1
184182.jpg,-1
184193.jpg,-1
184196.jpg,-1
184200.jpg,-1
184233.jpg,-1
184234.jpg,-1
184235.jpg,-1
184238.jpg,-1
184242.jpg,-1
184246.jpg,-1
184257.jpg,-1
184261.jpg,-1
184264.jpg,-1
184268.jpg,-1
184269.jpg,-1
184277.jpg,-1
184280.jpg,-1
184285.jpg,-1
184289.jpg,-1
184294.jpg,-1
184297.jpg,-1
184298.jpg,-1
184301.jpg,-1
184310.jpg,-1
184315.jpg,-1
184316.jpg,-1
184318.jpg,-1
184321.jpg,-1
184322.jpg,-1
184327.jpg,-1
184330.jpg,-1
184335.jpg,-1
184340.jpg,-1
184350.jpg,-1
184352.jpg,-1
184355.jpg,-1
184356.jpg,-1
184368.jpg,-1
184370.jpg,-1
184373.jpg,-1
184375.jpg,-1
184377.jpg,-1
184378.jpg,-1
184380.jpg,-1
184383.jpg,-1
184389.jpg,-1
184391.jpg,-1
184396.jpg,-1
184398.jpg,-1
184402.jpg,-1
184404.jpg,-1
184406.jpg,-1
184408.jpg,-1
184418.jpg,-1
184419.jpg,-1
184424.jpg,-1
184429.jpg,-1
184430.jpg,-1
184431.jpg,-1
184432.jpg,-1
184435.jpg,-1
184436.jpg,-1
184441.jpg,-1
184444.jpg,-1
184446.jpg,-1
184447.jpg,-1
184448.jpg,-1
184450.jpg,-1
184455.jpg,-1
184456.jpg,-1
184465.jpg,-1
184468.jpg,-1
184474.jpg,-1
184480.jpg,-1
184481.jpg,-1
184483.jpg,-1
184490.jpg,-1
184491.jpg,-1
184492.jpg,-1
184493.jpg,-1
184506.jpg,-1
184510.jpg,-1
184512.jpg,-1
184517.jpg,-1
184518.jpg,-1
184522.jpg,-1
184528.jpg,-1
184531.jpg,-1
184541.jpg,-1
184547.jpg,-1
184549.jpg,-1
184551.jpg,-1
184557.jpg,-1
184558.jpg,-1
184559.jpg,-1
184561.jpg,-1
184565.jpg,-1
184569.jpg,-1
184573.jpg,-1
184587.jpg,-1
184595.jpg,-1
184598.jpg,-1
184599.jpg,-1
184603.jpg,-1
184605.jpg,-1
184607.jpg,-1
184611.jpg,-1
184612.jpg,-1
184621.jpg,-1
184624.jpg,-1
184628.jpg,-1
184629.jpg,-1
184632.jpg,-1
184633.jpg,-1
184636.jpg,-1
184638.jpg,-1
184640.jpg,-1
184642.jpg,-1
184643.jpg,-1
184645.jpg,-1
184656.jpg,-1
184669.jpg,-1
184670.jpg,-1
184671.jpg,-1
184684.jpg,-1
184687.jpg,-1
184694.jpg,-1
184698.jpg,-1
184700.jpg,-1
184707.jpg,-1
184709.jpg,-1
184713.jpg,-1
184716.jpg,-1
184717.jpg,-1
184718.jpg,-1
184722.jpg,-1
184727.jpg,-1
184735.jpg,-1
184736.jpg,-1
184741.jpg,-1
184749.jpg,-1
184750.jpg,-1
184753.jpg,-1
184758.jpg,-1
184765.jpg,-1
184766.jpg,-1
184767.jpg,-1
184771.jpg,-1
184775.jpg,-1
184779.jpg,-1
184782.jpg,-1
184785.jpg,-1
184794.jpg,-1
184802.jpg,-1
184803.jpg,-1
184806.jpg,-1
184808.jpg,-1
184809.jpg,-1
184810.jpg,-1
184813.jpg,-1
184818.jpg,-1
184825.jpg,-1
184827.jpg,-1
184829.jpg,-1
184833.jpg,-1
184839.jpg,-1
184842.jpg,-1
184854.jpg,-1
184857.jpg,-1
184859.jpg,-1
184860.jpg,-1
184862.jpg,-1
184870.jpg,-1
184874.jpg,-1
184880.jpg,-1
184881.jpg,-1
184883.jpg,-1
184888.jpg,-1
184889.jpg,-1
184890.jpg,-1
184892.jpg,-1
184896.jpg,-1
184897.jpg,-1
184899.jpg,-1
184905.jpg,-1
184909.jpg,-1
184913.jpg,-1
184915.jpg,-1
184917.jpg,-1
184920.jpg,-1
184921.jpg,-1
184922.jpg,-1
184930.jpg,-1
184935.jpg,-1
184943.jpg,-1
184944.jpg,-1
184947.jpg,-1
184948.jpg,-1
184949.jpg,-1
184952.jpg,-1
184957.jpg,-1
184958.jpg,-1
184966.jpg,-1
184968.jpg,-1
184980.jpg,-1
184981.jpg,-1
184982.jpg,-1
184983.jpg,-1
184987.jpg,-1
184988.jpg,-1
184992.jpg,-1
185000.jpg,-1
185005.jpg,-1
185007.jpg,-1
185015.jpg,-1
185017.jpg,-1
185018.jpg,-1
185021.jpg,-1
185023.jpg,-1
185028.jpg,-1
185034.jpg,-1
185037.jpg,-1
185040.jpg,-1
185041.jpg,-1
185059.jpg,-1
185061.jpg,-1
185063.jpg,-1
185066.jpg,-1
185070.jpg,-1
185071.jpg,-1
185075.jpg,-1
185078.jpg,-1
185080.jpg,-1
185082.jpg,-1
185093.jpg,-1
185100.jpg,-1
185103.jpg,-1
185112.jpg,-1
185116.jpg,-1
185117.jpg,-1
185118.jpg,-1
185126.jpg,-1
185128.jpg,-1
185129.jpg,-1
185137.jpg,-1
185138.jpg,-1
185146.jpg,-1
185148.jpg,-1
185151.jpg,-1
185153.jpg,-1
185161.jpg,-1
185162.jpg,-1
185166.jpg,-1
185167.jpg,-1
185168.jpg,-1
185169.jpg,-1
185170.jpg,-1
185177.jpg,-1
185180.jpg,-1
185181.jpg,-1
185188.jpg,-1
185190.jpg,-1
185193.jpg,-1
185194.jpg,-1
185195.jpg,-1
185200.jpg,-1
185202.jpg,-1
185210.jpg,-1
185213.jpg,-1
185223.jpg,-1
185228.jpg,-1
185229.jpg,-1
185236.jpg,-1
185242.jpg,-1
185246.jpg,-1
185248.jpg,-1
185250.jpg,-1
185253.jpg,-1
185261.jpg,-1
185265.jpg,-1
185276.jpg,-1
185277.jpg,-1
185282.jpg,-1
185288.jpg,-1
185291.jpg,-1
185293.jpg,-1
185297.jpg,-1
185298.jpg,-1
185302.jpg,-1
185304.jpg,-1
185306.jpg,-1
185307.jpg,-1
185312.jpg,-1
185314.jpg,-1
185317.jpg,-1
185320.jpg,-1
185321.jpg,-1
185327.jpg,-1
185328.jpg,-1
185331.jpg,-1
185332.jpg,-1
185333.jpg,-1
185335.jpg,-1
185337.jpg,-1
185342.jpg,-1
185347.jpg,-1
185349.jpg,-1
185350.jpg,-1
185351.jpg,-1
185354.jpg,-1
185366.jpg,-1
185374.jpg,-1
185377.jpg,-1
185384.jpg,-1
185390.jpg,-1
185398.jpg,-1
185402.jpg,-1
185416.jpg,-1
185419.jpg,-1
185423.jpg,-1
185425.jpg,-1
185429.jpg,-1
185431.jpg,-1
185433.jpg,-1
185440.jpg,-1
185447.jpg,-1
185452.jpg,-1
185466.jpg,-1
185467.jpg,-1
185476.jpg,-1
185480.jpg,-1
185487.jpg,-1
185489.jpg,-1
185490.jpg,-1
185494.jpg,-1
185498.jpg,-1
185503.jpg,-1
185504.jpg,-1
185510.jpg,-1
185515.jpg,-1
185516.jpg,-1
185518.jpg,-1
185521.jpg,-1
185523.jpg,-1
185529.jpg,-1
185537.jpg,-1
185542.jpg,-1
185547.jpg,-1
185549.jpg,-1
185553.jpg,-1
185554.jpg,-1
185556.jpg,-1
185563.jpg,-1
185564.jpg,-1
185565.jpg,-1
185567.jpg,-1
185568.jpg,-1
185576.jpg,-1
185581.jpg,-1
185582.jpg,-1
185590.jpg,-1
185595.jpg,-1
185596.jpg,-1
185600.jpg,-1
185605.jpg,-1
185606.jpg,-1
185607.jpg,-1
185609.jpg,-1
185614.jpg,-1
185615.jpg,-1
185620.jpg,-1
185622.jpg,-1
185630.jpg,-1
185637.jpg,-1
185649.jpg,-1
185652.jpg,-1
185656.jpg,-1
185657.jpg,-1
185658.jpg,-1
185659.jpg,-1
185669.jpg,-1
185680.jpg,-1
185682.jpg,-1
185683.jpg,-1
185685.jpg,-1
185687.jpg,-1
185691.jpg,-1
185692.jpg,-1
185693.jpg,-1
185694.jpg,-1
185701.jpg,-1
185702.jpg,-1
185705.jpg,-1
185707.jpg,-1
185710.jpg,-1
185712.jpg,-1
185715.jpg,-1
185716.jpg,-1
185718.jpg,-1
185719.jpg,-1
185727.jpg,-1
185729.jpg,-1
185730.jpg,-1
185734.jpg,-1
185739.jpg,-1
185741.jpg,-1
185753.jpg,-1
185754.jpg,-1
185758.jpg,-1
185766.jpg,-1
185775.jpg,-1
185777.jpg,-1
185782.jpg,-1
185783.jpg,-1
185784.jpg,-1
185785.jpg,-1
185790.jpg,-1
185792.jpg,-1
185793.jpg,-1
185795.jpg,-1
185797.jpg,-1
185800.jpg,-1
185809.jpg,-1
185812.jpg,-1
185815.jpg,-1
185816.jpg,-1
185819.jpg,-1
185824.jpg,-1
185825.jpg,-1
185827.jpg,-1
185831.jpg,-1
185833.jpg,-1
185836.jpg,-1
185838.jpg,-1
185840.jpg,-1
185847.jpg,-1
185849.jpg,-1
185866.jpg,-1
185873.jpg,-1
185874.jpg,-1
185878.jpg,-1
185879.jpg,-1
185891.jpg,-1
185895.jpg,-1
185899.jpg,-1
185903.jpg,-1
185906.jpg,-1
185910.jpg,-1
185912.jpg,-1
185913.jpg,-1
185921.jpg,-1
185924.jpg,-1
185925.jpg,-1
185926.jpg,-1
185927.jpg,-1
185934.jpg,-1
185936.jpg,-1
185939.jpg,-1
185940.jpg,-1
185944.jpg,-1
185945.jpg,-1
185950.jpg,-1
185954.jpg,-1
185958.jpg,-1
185961.jpg,-1
185962.jpg,-1
185965.jpg,-1
185972.jpg,-1
185973.jpg,-1
185983.jpg,-1
185984.jpg,-1
185987.jpg,-1
185990.jpg,-1
185992.jpg,-1
186006.jpg,-1
186007.jpg,-1
186010.jpg,-1
186016.jpg,-1
186017.jpg,-1
186019.jpg,-1
186020.jpg,-1
186021.jpg,-1
186024.jpg,-1
186029.jpg,-1
186035.jpg,-1
186036.jpg,-1
186038.jpg,-1
186040.jpg,-1
186042.jpg,-1
186044.jpg,-1
186046.jpg,-1
186048.jpg,-1
186050.jpg,-1
186052.jpg,-1
186053.jpg,-1
186056.jpg,-1
186057.jpg,-1
186059.jpg,-1
186062.jpg,-1
186066.jpg,-1
186068.jpg,-1
186073.jpg,-1
186079.jpg,-1
186087.jpg,-1
186095.jpg,-1
186099.jpg,-1
186101.jpg,-1
186104.jpg,-1
186105.jpg,-1
186107.jpg,-1
186108.jpg,-1
186117.jpg,-1
186121.jpg,-1
186123.jpg,-1
186130.jpg,-1
186131.jpg,-1
186136.jpg,-1
186139.jpg,-1
186145.jpg,-1
186148.jpg,-1
186154.jpg,-1
186159.jpg,-1
186161.jpg,-1
186162.jpg,-1
186166.jpg,-1
186181.jpg,-1
186183.jpg,-1
186190.jpg,-1
186198.jpg,-1
186199.jpg,-1
186205.jpg,-1
186206.jpg,-1
186208.jpg,-1
186209.jpg,-1
186210.jpg,-1
186211.jpg,-1
186213.jpg,-1
186219.jpg,-1
186223.jpg,-1
186233.jpg,-1
186242.jpg,-1
186244.jpg,-1
186247.jpg,-1
186261.jpg,-1
186270.jpg,-1
186272.jpg,-1
186276.jpg,-1
186278.jpg,-1
186283.jpg,-1
186284.jpg,-1
186291.jpg,-1
186295.jpg,-1
186296.jpg,-1
186297.jpg,-1
186299.jpg,-1
186300.jpg,-1
186317.jpg,-1
186322.jpg,-1
186323.jpg,-1
186333.jpg,-1
186337.jpg,-1
186339.jpg,-1
186345.jpg,-1
186350.jpg,-1
186352.jpg,-1
186353.jpg,-1
186354.jpg,-1
186355.jpg,-1
186357.jpg,-1
186358.jpg,-1
186363.jpg,-1
186367.jpg,-1
186372.jpg,-1
186376.jpg,-1
186378.jpg,-1
186381.jpg,-1
186385.jpg,-1
186386.jpg,-1
186388.jpg,-1
186389.jpg,-1
186399.jpg,-1
186400.jpg,-1
186401.jpg,-1
186402.jpg,-1
186405.jpg,-1
186409.jpg,-1
186414.jpg,-1
186430.jpg,-1
186432.jpg,-1
186437.jpg,-1
186438.jpg,-1
186440.jpg,-1
186460.jpg,-1
186461.jpg,-1
186473.jpg,-1
186477.jpg,-1
186484.jpg,-1
186485.jpg,-1
186488.jpg,-1
186492.jpg,-1
186493.jpg,-1
186495.jpg,-1
186498.jpg,-1
186506.jpg,-1
186509.jpg,-1
186526.jpg,-1
186529.jpg,-1
186536.jpg,-1
186538.jpg,-1
186540.jpg,-1
186550.jpg,-1
186558.jpg,-1
186559.jpg,-1
186561.jpg,-1
186565.jpg,-1
186568.jpg,-1
186577.jpg,-1
186579.jpg,-1
186582.jpg,-1
186584.jpg,-1
186587.jpg,-1
186588.jpg,-1
186589.jpg,-1
186592.jpg,-1
186599.jpg,-1
186605.jpg,-1
186610.jpg,-1
186611.jpg,-1
186616.jpg,-1
186619.jpg,-1
186621.jpg,-1
186624.jpg,-1
186632.jpg,-1
186634.jpg,-1
186636.jpg,-1
186647.jpg,-1
186648.jpg,-1
186649.jpg,-1
186654.jpg,-1
186658.jpg,-1
186660.jpg,-1
186663.jpg,-1
186667.jpg,-1
186669.jpg,-1
186670.jpg,-1
186673.jpg,-1
186676.jpg,-1
186678.jpg,-1
186687.jpg,-1
186688.jpg,-1
186693.jpg,-1
186694.jpg,-1
186699.jpg,-1
186701.jpg,-1
186706.jpg,-1
186709.jpg,-1
186710.jpg,-1
186715.jpg,-1
186716.jpg,-1
186723.jpg,-1
186725.jpg,-1
186731.jpg,-1
186733.jpg,-1
186740.jpg,-1
186742.jpg,-1
186746.jpg,-1
186747.jpg,-1
186748.jpg,-1
186750.jpg,-1
186757.jpg,-1
186761.jpg,-1
186764.jpg,-1
186765.jpg,-1
186771.jpg,-1
186779.jpg,-1
186781.jpg,-1
186783.jpg,-1
186788.jpg,-1
186792.jpg,-1
186797.jpg,-1
186807.jpg,-1
186813.jpg,-1
186814.jpg,-1
186815.jpg,-1
186817.jpg,-1
186820.jpg,-1
186821.jpg,-1
186835.jpg,-1
186838.jpg,-1
186840.jpg,-1
186842.jpg,-1
186852.jpg,-1
186854.jpg,-1
186860.jpg,-1
186864.jpg,-1
186866.jpg,-1
186867.jpg,-1
186868.jpg,-1
186870.jpg,-1
186873.jpg,-1
186874.jpg,-1
186877.jpg,-1
186879.jpg,-1
186893.jpg,-1
186894.jpg,-1
186895.jpg,-1
186896.jpg,-1
186901.jpg,-1
186902.jpg,-1
186918.jpg,-1
186923.jpg,-1
186930.jpg,-1
186939.jpg,-1
186942.jpg,-1
186947.jpg,-1
186948.jpg,-1
186950.jpg,-1
186951.jpg,-1
186952.jpg,-1
186953.jpg,-1
186959.jpg,-1
186964.jpg,-1
186969.jpg,-1
186973.jpg,-1
186974.jpg,-1
186979.jpg,-1
186980.jpg,-1
186984.jpg,-1
186991.jpg,-1
186992.jpg,-1
186994.jpg,-1
186997.jpg,-1
186998.jpg,-1
187003.jpg,-1
187005.jpg,-1
187006.jpg,-1
187008.jpg,-1
187013.jpg,-1
187018.jpg,-1
187022.jpg,-1
187026.jpg,-1
187031.jpg,-1
187036.jpg,-1
187040.jpg,-1
187044.jpg,-1
187045.jpg,-1
187050.jpg,-1
187053.jpg,-1
187059.jpg,-1
187063.jpg,-1
187066.jpg,-1
187073.jpg,-1
187076.jpg,-1
187085.jpg,-1
187089.jpg,-1
187091.jpg,-1
187098.jpg,-1
187100.jpg,-1
187103.jpg,-1
187114.jpg,-1
187120.jpg,-1
187121.jpg,-1
187122.jpg,-1
187127.jpg,-1
187132.jpg,-1
187135.jpg,-1
187137.jpg,-1
187139.jpg,-1
187143.jpg,-1
187148.jpg,-1
187149.jpg,-1
187154.jpg,-1
187156.jpg,-1
187159.jpg,-1
187162.jpg,-1
187163.jpg,-1
187165.jpg,-1
187167.jpg,-1
187170.jpg,-1
187172.jpg,-1
187180.jpg,-1
187181.jpg,-1
187183.jpg,-1
187185.jpg,-1
187188.jpg,-1
187194.jpg,-1
187195.jpg,-1
187198.jpg,-1
187199.jpg,-1
187204.jpg,-1
187209.jpg,-1
187215.jpg,-1
187217.jpg,-1
187222.jpg,-1
187224.jpg,-1
187225.jpg,-1
187230.jpg,-1
187234.jpg,-1
187238.jpg,-1
187240.jpg,-1
187253.jpg,-1
187269.jpg,-1
187278.jpg,-1
187297.jpg,-1
187298.jpg,-1
187302.jpg,-1
187303.jpg,-1
187305.jpg,-1
187309.jpg,-1
187312.jpg,-1
187315.jpg,-1
187326.jpg,-1
187327.jpg,-1
187328.jpg,-1
187331.jpg,-1
187333.jpg,-1
187334.jpg,-1
187336.jpg,-1
187340.jpg,-1
187343.jpg,-1
187351.jpg,-1
187353.jpg,-1
187354.jpg,-1
187360.jpg,-1
187368.jpg,-1
187370.jpg,-1
187376.jpg,-1
187379.jpg,-1
187380.jpg,-1
187396.jpg,-1
187403.jpg,-1
187406.jpg,-1
187407.jpg,-1
187408.jpg,-1
187422.jpg,-1
187431.jpg,-1
187460.jpg,-1
187462.jpg,-1
187471.jpg,-1
187478.jpg,-1
187490.jpg,-1
187491.jpg,-1
187492.jpg,-1
187493.jpg,-1
187498.jpg,-1
187499.jpg,-1
187503.jpg,-1
187508.jpg,-1
187512.jpg,-1
187516.jpg,-1
187521.jpg,-1
187523.jpg,-1
187525.jpg,-1
187539.jpg,-1
187545.jpg,-1
187546.jpg,-1
187554.jpg,-1
187555.jpg,-1
187556.jpg,-1
187565.jpg,-1
187566.jpg,-1
187569.jpg,-1
187575.jpg,-1
187589.jpg,-1
187596.jpg,-1
187606.jpg,-1
187610.jpg,-1
187624.jpg,-1
187628.jpg,-1
187634.jpg,-1
187638.jpg,-1
187640.jpg,-1
187641.jpg,-1
187642.jpg,-1
187644.jpg,-1
187651.jpg,-1
187654.jpg,-1
187660.jpg,-1
187670.jpg,-1
187679.jpg,-1
187682.jpg,-1
187686.jpg,-1
187690.jpg,-1
187692.jpg,-1
187698.jpg,-1
187707.jpg,-1
187715.jpg,-1
187727.jpg,-1
187728.jpg,-1
187733.jpg,-1
187735.jpg,-1
187736.jpg,-1
187737.jpg,-1
187740.jpg,-1
187748.jpg,-1
187749.jpg,-1
187762.jpg,-1
187770.jpg,-1
187771.jpg,-1
187773.jpg,-1
187784.jpg,-1
187790.jpg,-1
187791.jpg,-1
187793.jpg,-1
187795.jpg,-1
187796.jpg,-1
187801.jpg,-1
187806.jpg,-1
187811.jpg,-1
187812.jpg,-1
187816.jpg,-1
187817.jpg,-1
187824.jpg,-1
187828.jpg,-1
187830.jpg,-1
187839.jpg,-1
187840.jpg,-1
187841.jpg,-1
187843.jpg,-1
187848.jpg,-1
187850.jpg,-1
187861.jpg,-1
187863.jpg,-1
187864.jpg,-1
187872.jpg,-1
187873.jpg,-1
187874.jpg,-1
187899.jpg,-1
187909.jpg,-1
187910.jpg,-1
187915.jpg,-1
187917.jpg,-1
187919.jpg,-1
187925.jpg,-1
187927.jpg,-1
187939.jpg,-1
187941.jpg,-1
187950.jpg,-1
187958.jpg,-1
187970.jpg,-1
187973.jpg,-1
187981.jpg,-1
187985.jpg,-1
187988.jpg,-1
187991.jpg,-1
187992.jpg,-1
187994.jpg,-1
187996.jpg,-1
188000.jpg,-1
188007.jpg,-1
188010.jpg,-1
188011.jpg,-1
188015.jpg,-1
188016.jpg,-1
188023.jpg,-1
188025.jpg,-1
188026.jpg,-1
188031.jpg,-1
188037.jpg,-1
188042.jpg,-1
188051.jpg,-1
188053.jpg,-1
188054.jpg,-1
188057.jpg,-1
188074.jpg,-1
188079.jpg,-1
188092.jpg,-1
188097.jpg,-1
188111.jpg,-1
188121.jpg,-1
188124.jpg,-1
188127.jpg,-1
188134.jpg,-1
188140.jpg,-1
188148.jpg,-1
188153.jpg,-1
188161.jpg,-1
188162.jpg,-1
188164.jpg,-1
188165.jpg,-1
188166.jpg,-1
188169.jpg,-1
188175.jpg,-1
188176.jpg,-1
188181.jpg,-1
188182.jpg,-1
188192.jpg,-1
188193.jpg,-1
188195.jpg,-1
188200.jpg,-1
188202.jpg,-1
188204.jpg,-1
188205.jpg,-1
188207.jpg,-1
188211.jpg,-1
188212.jpg,-1
188224.jpg,-1
188225.jpg,-1
188228.jpg,-1
188233.jpg,-1
188241.jpg,-1
188246.jpg,-1
188247.jpg,-1
188249.jpg,-1
188250.jpg,-1
188269.jpg,-1
188275.jpg,-1
188278.jpg,-1
188285.jpg,-1
188288.jpg,-1
188289.jpg,-1
188297.jpg,-1
188304.jpg,-1
188307.jpg,-1
188308.jpg,-1
188309.jpg,-1
188312.jpg,-1
188317.jpg,-1
188329.jpg,-1
188330.jpg,-1
188335.jpg,-1
188343.jpg,-1
188344.jpg,-1
188346.jpg,-1
188350.jpg,-1
188351.jpg,-1
188353.jpg,-1
188358.jpg,-1
188364.jpg,-1
188370.jpg,-1
188372.jpg,-1
188375.jpg,-1
188382.jpg,-1
188384.jpg,-1
188388.jpg,-1
188390.jpg,-1
188398.jpg,-1
188400.jpg,-1
188402.jpg,-1
188403.jpg,-1
188404.jpg,-1
188414.jpg,-1
188417.jpg,-1
188432.jpg,-1
188446.jpg,-1
188449.jpg,-1
188453.jpg,-1
188454.jpg,-1
188456.jpg,-1
188469.jpg,-1
188472.jpg,-1
188474.jpg,-1
188475.jpg,-1
188484.jpg,-1
188487.jpg,-1
188492.jpg,-1
188494.jpg,-1
188495.jpg,-1
188501.jpg,-1
188514.jpg,-1
188516.jpg,-1
188517.jpg,-1
188518.jpg,-1
188519.jpg,-1
188521.jpg,-1
188523.jpg,-1
188527.jpg,-1
188535.jpg,-1
188538.jpg,-1
188543.jpg,-1
188553.jpg,-1
188555.jpg,-1
188561.jpg,-1
188562.jpg,-1
188565.jpg,-1
188569.jpg,-1
188583.jpg,-1
188586.jpg,-1
188589.jpg,-1
188593.jpg,-1
188596.jpg,-1
188599.jpg,-1
188600.jpg,-1
188601.jpg,-1
188606.jpg,-1
188615.jpg,-1
188616.jpg,-1
188619.jpg,-1
188627.jpg,-1
188634.jpg,-1
188635.jpg,-1
188640.jpg,-1
188641.jpg,-1
188644.jpg,-1
188651.jpg,-1
188654.jpg,-1
188655.jpg,-1
188661.jpg,-1
188671.jpg,-1
188673.jpg,-1
188675.jpg,-1
188677.jpg,-1
188678.jpg,-1
188682.jpg,-1
188684.jpg,-1
188686.jpg,-1
188689.jpg,-1
188692.jpg,-1
188695.jpg,-1
188699.jpg,-1
188702.jpg,-1
188708.jpg,-1
188716.jpg,-1
188717.jpg,-1
188720.jpg,-1
188724.jpg,-1
188728.jpg,-1
188730.jpg,-1
188731.jpg,-1
188733.jpg,-1
188735.jpg,-1
188737.jpg,-1
188740.jpg,-1
188741.jpg,-1
188745.jpg,-1
188755.jpg,-1
188756.jpg,-1
188768.jpg,-1
188769.jpg,-1
188776.jpg,-1
188786.jpg,-1
188788.jpg,-1
188793.jpg,-1
188801.jpg,-1
188803.jpg,-1
188809.jpg,-1
188810.jpg,-1
188811.jpg,-1
188812.jpg,-1
188823.jpg,-1
188825.jpg,-1
188832.jpg,-1
188836.jpg,-1
188840.jpg,-1
188841.jpg,-1
188843.jpg,-1
188846.jpg,-1
188853.jpg,-1
188856.jpg,-1
188862.jpg,-1
188863.jpg,-1
188869.jpg,-1
188878.jpg,-1
188880.jpg,-1
188884.jpg,-1
188888.jpg,-1
188889.jpg,-1
188891.jpg,-1
188896.jpg,-1
188898.jpg,-1
188901.jpg,-1
188904.jpg,-1
188920.jpg,-1
188923.jpg,-1
188926.jpg,-1
188928.jpg,-1
188929.jpg,-1
188931.jpg,-1
188934.jpg,-1
188935.jpg,-1
188940.jpg,-1
188949.jpg,-1
188953.jpg,-1
188955.jpg,-1
188958.jpg,-1
188970.jpg,-1
188974.jpg,-1
188975.jpg,-1
188980.jpg,-1
188984.jpg,-1
188988.jpg,-1
188991.jpg,-1
188994.jpg,-1
188996.jpg,-1
189006.jpg,-1
189010.jpg,-1
189012.jpg,-1
189013.jpg,-1
189014.jpg,-1
189022.jpg,-1
189027.jpg,-1
189029.jpg,-1
189035.jpg,-1
189037.jpg,-1
189042.jpg,-1
189043.jpg,-1
189045.jpg,-1
189047.jpg,-1
189054.jpg,-1
189062.jpg,-1
189065.jpg,-1
189071.jpg,-1
189072.jpg,-1
189073.jpg,-1
189074.jpg,-1
189081.jpg,-1
189093.jpg,-1
189094.jpg,-1
189103.jpg,-1
189109.jpg,-1
189110.jpg,-1
189114.jpg,-1
189117.jpg,-1
189119.jpg,-1
189120.jpg,-1
189127.jpg,-1
189129.jpg,-1
189130.jpg,-1
189137.jpg,-1
189142.jpg,-1
189145.jpg,-1
189146.jpg,-1
189150.jpg,-1
189152.jpg,-1
189157.jpg,-1
189160.jpg,-1
189164.jpg,-1
189165.jpg,-1
189166.jpg,-1
189181.jpg,-1
189184.jpg,-1
189186.jpg,-1
189194.jpg,-1
189195.jpg,-1
189197.jpg,-1
189199.jpg,-1
189203.jpg,-1
189205.jpg,-1
189207.jpg,-1
189209.jpg,-1
189219.jpg,-1
189221.jpg,-1
189223.jpg,-1
189229.jpg,-1
189231.jpg,-1
189232.jpg,-1
189233.jpg,-1
189234.jpg,-1
189235.jpg,-1
189239.jpg,-1
189241.jpg,-1
189242.jpg,-1
189243.jpg,-1
189244.jpg,-1
189245.jpg,-1
189246.jpg,-1
189247.jpg,-1
189248.jpg,-1
189249.jpg,-1
189254.jpg,-1
189256.jpg,-1
189259.jpg,-1
189260.jpg,-1
189269.jpg,-1
189270.jpg,-1
189271.jpg,-1
189274.jpg,-1
189275.jpg,-1
189282.jpg,-1
189283.jpg,-1
189285.jpg,-1
189286.jpg,-1
189288.jpg,-1
189306.jpg,-1
189312.jpg,-1
189313.jpg,-1
189316.jpg,-1
189319.jpg,-1
189326.jpg,-1
189327.jpg,-1
189330.jpg,-1
189331.jpg,-1
189336.jpg,-1
189337.jpg,-1
189341.jpg,-1
189344.jpg,-1
189346.jpg,-1
189347.jpg,-1
189348.jpg,-1
189353.jpg,-1
189356.jpg,-1
189357.jpg,-1
189358.jpg,-1
189361.jpg,-1
189364.jpg,-1
189366.jpg,-1
189368.jpg,-1
189369.jpg,-1
189376.jpg,-1
189380.jpg,-1
189382.jpg,-1
189384.jpg,-1
189387.jpg,-1
189390.jpg,-1
189393.jpg,-1
189395.jpg,-1
189396.jpg,-1
189405.jpg,-1
189407.jpg,-1
189413.jpg,-1
189416.jpg,-1
189419.jpg,-1
189421.jpg,-1
189424.jpg,-1
189427.jpg,-1
189428.jpg,-1
189429.jpg,-1
189435.jpg,-1
189437.jpg,-1
189445.jpg,-1
189447.jpg,-1
189452.jpg,-1
189454.jpg,-1
189455.jpg,-1
189459.jpg,-1
189461.jpg,-1
189463.jpg,-1
189464.jpg,-1
189467.jpg,-1
189472.jpg,-1
189479.jpg,-1
189486.jpg,-1
189492.jpg,-1
189498.jpg,-1
189499.jpg,-1
189501.jpg,-1
189502.jpg,-1
189503.jpg,-1
189510.jpg,-1
189519.jpg,-1
189532.jpg,-1
189535.jpg,-1
189536.jpg,-1
189538.jpg,-1
189541.jpg,-1
189542.jpg,-1
189548.jpg,-1
189552.jpg,-1
189553.jpg,-1
189558.jpg,-1
189565.jpg,-1
189569.jpg,-1
189572.jpg,-1
189577.jpg,-1
189579.jpg,-1
189581.jpg,-1
189583.jpg,-1
189586.jpg,-1
189591.jpg,-1
189592.jpg,-1
189594.jpg,-1
189597.jpg,-1
189598.jpg,-1
189601.jpg,-1
189607.jpg,-1
189612.jpg,-1
189614.jpg,-1
189615.jpg,-1
189621.jpg,-1
189635.jpg,-1
189640.jpg,-1
189642.jpg,-1
189649.jpg,-1
189657.jpg,-1
189667.jpg,-1
189668.jpg,-1
189678.jpg,-1
189679.jpg,-1
189681.jpg,-1
189686.jpg,-1
189687.jpg,-1
189688.jpg,-1
189689.jpg,-1
189690.jpg,-1
189691.jpg,-1
189692.jpg,-1
189693.jpg,-1
189695.jpg,-1
189699.jpg,-1
189705.jpg,-1
189714.jpg,-1
189720.jpg,-1
189728.jpg,-1
189731.jpg,-1
189735.jpg,-1
189736.jpg,-1
189741.jpg,-1
189742.jpg,-1
189745.jpg,-1
189750.jpg,-1
189752.jpg,-1
189755.jpg,-1
189758.jpg,-1
189762.jpg,-1
189764.jpg,-1
189765.jpg,-1
189768.jpg,-1
189770.jpg,-1
189776.jpg,-1
189779.jpg,-1
189780.jpg,-1
189782.jpg,-1
189785.jpg,-1
189792.jpg,-1
189800.jpg,-1
189806.jpg,-1
189823.jpg,-1
189824.jpg,-1
189844.jpg,-1
189849.jpg,-1
189854.jpg,-1
189855.jpg,-1
189860.jpg,-1
189863.jpg,-1
189864.jpg,-1
189865.jpg,-1
189871.jpg,-1
189874.jpg,-1
189878.jpg,-1
189880.jpg,-1
189881.jpg,-1
189884.jpg,-1
189885.jpg,-1
189888.jpg,-1
189903.jpg,-1
189910.jpg,-1
189911.jpg,-1
189912.jpg,-1
189913.jpg,-1
189917.jpg,-1
189919.jpg,-1
189921.jpg,-1
189925.jpg,-1
189926.jpg,-1
189928.jpg,-1
189929.jpg,-1
189933.jpg,-1
189940.jpg,-1
189941.jpg,-1
189945.jpg,-1
189950.jpg,-1
189951.jpg,-1
189954.jpg,-1
189957.jpg,-1
189958.jpg,-1
189966.jpg,-1
189977.jpg,-1
189981.jpg,-1
189984.jpg,-1
189987.jpg,-1
189988.jpg,-1
189991.jpg,-1
189998.jpg,-1
190015.jpg,-1
190016.jpg,-1
190025.jpg,-1
190028.jpg,-1
190031.jpg,-1
190037.jpg,-1
190043.jpg,-1
190045.jpg,-1
190046.jpg,-1
190057.jpg,-1
190059.jpg,-1
190063.jpg,-1
190064.jpg,-1
190067.jpg,-1
190069.jpg,-1
190075.jpg,-1
190078.jpg,-1
190081.jpg,-1
190087.jpg,-1
190088.jpg,-1
190091.jpg,-1
190094.jpg,-1
190096.jpg,-1
190100.jpg,-1
190103.jpg,-1
190104.jpg,-1
190124.jpg,-1
190127.jpg,-1
190139.jpg,-1
190141.jpg,-1
190142.jpg,-1
190149.jpg,-1
190152.jpg,-1
190156.jpg,-1
190160.jpg,-1
190163.jpg,-1
190167.jpg,-1
190187.jpg,-1
190193.jpg,-1
190194.jpg,-1
190200.jpg,-1
190201.jpg,-1
190205.jpg,-1
190213.jpg,-1
190218.jpg,-1
190219.jpg,-1
190228.jpg,-1
190232.jpg,-1
190244.jpg,-1
190249.jpg,-1
190250.jpg,-1
190258.jpg,-1
190259.jpg,-1
190263.jpg,-1
190265.jpg,-1
190266.jpg,-1
190271.jpg,-1
190277.jpg,-1
190279.jpg,-1
190282.jpg,-1
190287.jpg,-1
190289.jpg,-1
190293.jpg,-1
190294.jpg,-1
190300.jpg,-1
190307.jpg,-1
190317.jpg,-1
190321.jpg,-1
190322.jpg,-1
190344.jpg,-1
190349.jpg,-1
190352.jpg,-1
190353.jpg,-1
190367.jpg,-1
190370.jpg,-1
190371.jpg,-1
190372.jpg,-1
190373.jpg,-1
190378.jpg,-1
190385.jpg,-1
190387.jpg,-1
190391.jpg,-1
190399.jpg,-1
190400.jpg,-1
190416.jpg,-1
190417.jpg,-1
190426.jpg,-1
190430.jpg,-1
190444.jpg,-1
190449.jpg,-1
190450.jpg,-1
190452.jpg,-1
190453.jpg,-1
190454.jpg,-1
190470.jpg,-1
190475.jpg,-1
190476.jpg,-1
190478.jpg,-1
190483.jpg,-1
190485.jpg,-1
190488.jpg,-1
190491.jpg,-1
190493.jpg,-1
190499.jpg,-1
190503.jpg,-1
190506.jpg,-1
190508.jpg,-1
190514.jpg,-1
190516.jpg,-1
190517.jpg,-1
190529.jpg,-1
190531.jpg,-1
190539.jpg,-1
190541.jpg,-1
190550.jpg,-1
190551.jpg,-1
190556.jpg,-1
190557.jpg,-1
190563.jpg,-1
190564.jpg,-1
190567.jpg,-1
190569.jpg,-1
190571.jpg,-1
190579.jpg,-1
190580.jpg,-1
190584.jpg,-1
190592.jpg,-1
190593.jpg,-1
190597.jpg,-1
190603.jpg,-1
190604.jpg,-1
190612.jpg,-1
190616.jpg,-1
190622.jpg,-1
190623.jpg,-1
190631.jpg,-1
190633.jpg,-1
190642.jpg,-1
190649.jpg,-1
190653.jpg,-1
190654.jpg,-1
190658.jpg,-1
190665.jpg,-1
190670.jpg,-1
190682.jpg,-1
190685.jpg,-1
190686.jpg,-1
190696.jpg,-1
190698.jpg,-1
190700.jpg,-1
190701.jpg,-1
190702.jpg,-1
190704.jpg,-1
190711.jpg,-1
190717.jpg,-1
190725.jpg,-1
190731.jpg,-1
190732.jpg,-1
190737.jpg,-1
190739.jpg,-1
190742.jpg,-1
190746.jpg,-1
190748.jpg,-1
190749.jpg,-1
190750.jpg,-1
190751.jpg,-1
190753.jpg,-1
190761.jpg,-1
190762.jpg,-1
190774.jpg,-1
190776.jpg,-1
190777.jpg,-1
190778.jpg,-1
190781.jpg,-1
190782.jpg,-1
190785.jpg,-1
190787.jpg,-1
190792.jpg,-1
190793.jpg,-1
190802.jpg,-1
190804.jpg,-1
190805.jpg,-1
190811.jpg,-1
190812.jpg,-1
190815.jpg,-1
190818.jpg,-1
190824.jpg,-1
190828.jpg,-1
190841.jpg,-1
190847.jpg,-1
190854.jpg,-1
190855.jpg,-1
190861.jpg,-1
190869.jpg,-1
190871.jpg,-1
190873.jpg,-1
190874.jpg,-1
190876.jpg,-1
190877.jpg,-1
190879.jpg,-1
190890.jpg,-1
190896.jpg,-1
190897.jpg,-1
190899.jpg,-1
190900.jpg,-1
190909.jpg,-1
190912.jpg,-1
190913.jpg,-1
190917.jpg,-1
190921.jpg,-1
190931.jpg,-1
190933.jpg,-1
190936.jpg,-1
190937.jpg,-1
190940.jpg,-1
190942.jpg,-1
190951.jpg,-1
190961.jpg,-1
190968.jpg,-1
190972.jpg,-1
190982.jpg,-1
190988.jpg,-1
191005.jpg,-1
191008.jpg,-1
191010.jpg,-1
191011.jpg,-1
191017.jpg,-1
191024.jpg,-1
191025.jpg,-1
191026.jpg,-1
191029.jpg,-1
191034.jpg,-1
191038.jpg,-1
191050.jpg,-1
191053.jpg,-1
191056.jpg,-1
191064.jpg,-1
191065.jpg,-1
191066.jpg,-1
191071.jpg,-1
191076.jpg,-1
191077.jpg,-1
191082.jpg,-1
191084.jpg,-1
191087.jpg,-1
191091.jpg,-1
191100.jpg,-1
191101.jpg,-1
191103.jpg,-1
191109.jpg,-1
191111.jpg,-1
191114.jpg,-1
191115.jpg,-1
191118.jpg,-1
191123.jpg,-1
191124.jpg,-1
191127.jpg,-1
191128.jpg,-1
191129.jpg,-1
191131.jpg,-1
191139.jpg,-1
191141.jpg,-1
191142.jpg,-1
191145.jpg,-1
191149.jpg,-1
191154.jpg,-1
191155.jpg,-1
191160.jpg,-1
191162.jpg,-1
191164.jpg,-1
191166.jpg,-1
191167.jpg,-1
191171.jpg,-1
191176.jpg,-1
191188.jpg,-1
191190.jpg,-1
191191.jpg,-1
191200.jpg,-1
191202.jpg,-1
191207.jpg,-1
191214.jpg,-1
191215.jpg,-1
191216.jpg,-1
191219.jpg,-1
191220.jpg,-1
191228.jpg,-1
191236.jpg,-1
191237.jpg,-1
191238.jpg,-1
191241.jpg,-1
191243.jpg,-1
191247.jpg,-1
191248.jpg,-1
191249.jpg,-1
191250.jpg,-1
191258.jpg,-1
191264.jpg,-1
191270.jpg,-1
191271.jpg,-1
191273.jpg,-1
191277.jpg,-1
191279.jpg,-1
191280.jpg,-1
191281.jpg,-1
191289.jpg,-1
191293.jpg,-1
191300.jpg,-1
191307.jpg,-1
191308.jpg,-1
191311.jpg,-1
191312.jpg,-1
191314.jpg,-1
191325.jpg,-1
191326.jpg,-1
191335.jpg,-1
191338.jpg,-1
191340.jpg,-1
191346.jpg,-1
191351.jpg,-1
191352.jpg,-1
191365.jpg,-1
191366.jpg,-1
191377.jpg,-1
191382.jpg,-1
191389.jpg,-1
191394.jpg,-1
191396.jpg,-1
191399.jpg,-1
191402.jpg,-1
191404.jpg,-1
191405.jpg,-1
191407.jpg,-1
191408.jpg,-1
191411.jpg,-1
191415.jpg,-1
191418.jpg,-1
191419.jpg,-1
191421.jpg,-1
191427.jpg,-1
191435.jpg,-1
191439.jpg,-1
191440.jpg,-1
191445.jpg,-1
191471.jpg,-1
191472.jpg,-1
191476.jpg,-1
191478.jpg,-1
191486.jpg,-1
191489.jpg,-1
191496.jpg,-1
191498.jpg,-1
191500.jpg,-1
191506.jpg,-1
191519.jpg,-1
191526.jpg,-1
191531.jpg,-1
191534.jpg,-1
191535.jpg,-1
191537.jpg,-1
191538.jpg,-1
191539.jpg,-1
191549.jpg,-1
191552.jpg,-1
191554.jpg,-1
191555.jpg,-1
191560.jpg,-1
191563.jpg,-1
191567.jpg,-1
191568.jpg,-1
191569.jpg,-1
191575.jpg,-1
191576.jpg,-1
191581.jpg,-1
191583.jpg,-1
191586.jpg,-1
191590.jpg,-1
191592.jpg,-1
191607.jpg,-1
191611.jpg,-1
191612.jpg,-1
191613.jpg,-1
191615.jpg,-1
191623.jpg,-1
191624.jpg,-1
191627.jpg,-1
191631.jpg,-1
191634.jpg,-1
191642.jpg,-1
191646.jpg,-1
191648.jpg,-1
191655.jpg,-1
191658.jpg,-1
191660.jpg,-1
191669.jpg,-1
191670.jpg,-1
191671.jpg,-1
191679.jpg,-1
191682.jpg,-1
191688.jpg,-1
191690.jpg,-1
191695.jpg,-1
191698.jpg,-1
191699.jpg,-1
191700.jpg,-1
191705.jpg,-1
191706.jpg,-1
191711.jpg,-1
191720.jpg,-1
191722.jpg,-1
191730.jpg,-1
191731.jpg,-1
191735.jpg,-1
191736.jpg,-1
191738.jpg,-1
191741.jpg,-1
191744.jpg,-1
191746.jpg,-1
191747.jpg,-1
191749.jpg,-1
191751.jpg,-1
191752.jpg,-1
191753.jpg,-1
191755.jpg,-1
191759.jpg,-1
191771.jpg,-1
191775.jpg,-1
191776.jpg,-1
191785.jpg,-1
191791.jpg,-1
191793.jpg,-1
191796.jpg,-1
191807.jpg,-1
191809.jpg,-1
191810.jpg,-1
191818.jpg,-1
191821.jpg,-1
191824.jpg,-1
191825.jpg,-1
191830.jpg,-1
191831.jpg,-1
191838.jpg,-1
191839.jpg,-1
191842.jpg,-1
191843.jpg,-1
191853.jpg,-1
191854.jpg,-1
191868.jpg,-1
191872.jpg,-1
191876.jpg,-1
191891.jpg,-1
191897.jpg,-1
191900.jpg,-1
191904.jpg,-1
191906.jpg,-1
191910.jpg,-1
191914.jpg,-1
191915.jpg,-1
191919.jpg,-1
191924.jpg,-1
191925.jpg,-1
191931.jpg,-1
191933.jpg,-1
191934.jpg,-1
191935.jpg,-1
191936.jpg,-1
191940.jpg,-1
191943.jpg,-1
191946.jpg,-1
191951.jpg,-1
191953.jpg,-1
191954.jpg,-1
191961.jpg,-1
191965.jpg,-1
191984.jpg,-1
191987.jpg,-1
192000.jpg,-1
192001.jpg,-1
192003.jpg,-1
192004.jpg,-1
192006.jpg,-1
192012.jpg,-1
192015.jpg,-1
192024.jpg,-1
192025.jpg,-1
192026.jpg,-1
192028.jpg,-1
192029.jpg,-1
192030.jpg,-1
192034.jpg,-1
192038.jpg,-1
192044.jpg,-1
192048.jpg,-1
192054.jpg,-1
192060.jpg,-1
192077.jpg,-1
192087.jpg,-1
192088.jpg,-1
192092.jpg,-1
192094.jpg,-1
192096.jpg,-1
192098.jpg,-1
192104.jpg,-1
192105.jpg,-1
192107.jpg,-1
192113.jpg,-1
192115.jpg,-1
192122.jpg,-1
192125.jpg,-1
192128.jpg,-1
192135.jpg,-1
192136.jpg,-1
192154.jpg,-1
192155.jpg,-1
192157.jpg,-1
192162.jpg,-1
192170.jpg,-1
192173.jpg,-1
192174.jpg,-1
192175.jpg,-1
192177.jpg,-1
192179.jpg,-1
192187.jpg,-1
192189.jpg,-1
192203.jpg,-1
192206.jpg,-1
192208.jpg,-1
192212.jpg,-1
192225.jpg,-1
192228.jpg,-1
192231.jpg,-1
192234.jpg,-1
192235.jpg,-1
192243.jpg,-1
192247.jpg,-1
192248.jpg,-1
192249.jpg,-1
192251.jpg,-1
192266.jpg,-1
192282.jpg,-1
192283.jpg,-1
192284.jpg,-1
192293.jpg,-1
192297.jpg,-1
192299.jpg,-1
192304.jpg,-1
192308.jpg,-1
192309.jpg,-1
192310.jpg,-1
192313.jpg,-1
192320.jpg,-1
192329.jpg,-1
192330.jpg,-1
192332.jpg,-1
192333.jpg,-1
192334.jpg,-1
192346.jpg,-1
192349.jpg,-1
192356.jpg,-1
192369.jpg,-1
192373.jpg,-1
192376.jpg,-1
192380.jpg,-1
192381.jpg,-1
192382.jpg,-1
192385.jpg,-1
192394.jpg,-1
192396.jpg,-1
192398.jpg,-1
192400.jpg,-1
192411.jpg,-1
192413.jpg,-1
192417.jpg,-1
192421.jpg,-1
192423.jpg,-1
192427.jpg,-1
192429.jpg,-1
192433.jpg,-1
192434.jpg,-1
192437.jpg,-1
192438.jpg,-1
192443.jpg,-1
192447.jpg,-1
192448.jpg,-1
192451.jpg,-1
192453.jpg,-1
192456.jpg,-1
192457.jpg,-1
192458.jpg,-1
192466.jpg,-1
192468.jpg,-1
192481.jpg,-1
192483.jpg,-1
192488.jpg,-1
192494.jpg,-1
192496.jpg,-1
192499.jpg,-1
192500.jpg,-1
192508.jpg,-1
192509.jpg,-1
192511.jpg,-1
192513.jpg,-1
192516.jpg,-1
192524.jpg,-1
192531.jpg,-1
192533.jpg,-1
192548.jpg,-1
192551.jpg,-1
192557.jpg,-1
192561.jpg,-1
192564.jpg,-1
192570.jpg,-1
192573.jpg,-1
192574.jpg,-1
192579.jpg,-1
192580.jpg,-1
192583.jpg,-1
192586.jpg,-1
192593.jpg,-1
192613.jpg,-1
192623.jpg,-1
192637.jpg,-1
192645.jpg,-1
192652.jpg,-1
192655.jpg,-1
192656.jpg,-1
192662.jpg,-1
192670.jpg,-1
192676.jpg,-1
192680.jpg,-1
192682.jpg,-1
192683.jpg,-1
192690.jpg,-1
192696.jpg,-1
192698.jpg,-1
192703.jpg,-1
192706.jpg,-1
192709.jpg,-1
192711.jpg,-1
192715.jpg,-1
192717.jpg,-1
192724.jpg,-1
192728.jpg,-1
192729.jpg,-1
192736.jpg,-1
192737.jpg,-1
192750.jpg,-1
192755.jpg,-1
192759.jpg,-1
192761.jpg,-1
192769.jpg,-1
192773.jpg,-1
192776.jpg,-1
192777.jpg,-1
192778.jpg,-1
192781.jpg,-1
192783.jpg,-1
192786.jpg,-1
192790.jpg,-1
192800.jpg,-1
192805.jpg,-1
192808.jpg,-1
192815.jpg,-1
192818.jpg,-1
192820.jpg,-1
192822.jpg,-1
192823.jpg,-1
192827.jpg,-1
192835.jpg,-1
192843.jpg,-1
192845.jpg,-1
192847.jpg,-1
192850.jpg,-1
192851.jpg,-1
192856.jpg,-1
192864.jpg,-1
192879.jpg,-1
192880.jpg,-1
192881.jpg,-1
192893.jpg,-1
192904.jpg,-1
192905.jpg,-1
192907.jpg,-1
192915.jpg,-1
192918.jpg,-1
192920.jpg,-1
192925.jpg,-1
192926.jpg,-1
192928.jpg,-1
192929.jpg,-1
192933.jpg,-1
192935.jpg,-1
192940.jpg,-1
192942.jpg,-1
192947.jpg,-1
192948.jpg,-1
192951.jpg,-1
192952.jpg,-1
192958.jpg,-1
192959.jpg,-1
192967.jpg,-1
192970.jpg,-1
192979.jpg,-1
192987.jpg,-1
192991.jpg,-1
192994.jpg,-1
193008.jpg,-1
193016.jpg,-1
193019.jpg,-1
193020.jpg,-1
193023.jpg,-1
193024.jpg,-1
193025.jpg,-1
193029.jpg,-1
193030.jpg,-1
193036.jpg,-1
193038.jpg,-1
193045.jpg,-1
193046.jpg,-1
193047.jpg,-1
193049.jpg,-1
193050.jpg,-1
193051.jpg,-1
193057.jpg,-1
193060.jpg,-1
193061.jpg,-1
193064.jpg,-1
193066.jpg,-1
193070.jpg,-1
193076.jpg,-1
193088.jpg,-1
193090.jpg,-1
193094.jpg,-1
193100.jpg,-1
193109.jpg,-1
193110.jpg,-1
193120.jpg,-1
193121.jpg,-1
193125.jpg,-1
193126.jpg,-1
193132.jpg,-1
193133.jpg,-1
193149.jpg,-1
193162.jpg,-1
193163.jpg,-1
193165.jpg,-1
193167.jpg,-1
193176.jpg,-1
193178.jpg,-1
193182.jpg,-1
193186.jpg,-1
193188.jpg,-1
193190.jpg,-1
193191.jpg,-1
193194.jpg,-1
193203.jpg,-1
193212.jpg,-1
193217.jpg,-1
193220.jpg,-1
193221.jpg,-1
193233.jpg,-1
193234.jpg,-1
193239.jpg,-1
193242.jpg,-1
193251.jpg,-1
193252.jpg,-1
193253.jpg,-1
193257.jpg,-1
193260.jpg,-1
193262.jpg,-1
193265.jpg,-1
193269.jpg,-1
193272.jpg,-1
193275.jpg,-1
193282.jpg,-1
193286.jpg,-1
193288.jpg,-1
193305.jpg,-1
193306.jpg,-1
193308.jpg,-1
193318.jpg,-1
193319.jpg,-1
193321.jpg,-1
193323.jpg,-1
193324.jpg,-1
193330.jpg,-1
193333.jpg,-1
193334.jpg,-1
193337.jpg,-1
193341.jpg,-1
193347.jpg,-1
193353.jpg,-1
193355.jpg,-1
193368.jpg,-1
193369.jpg,-1
193372.jpg,-1
193374.jpg,-1
193376.jpg,-1
193391.jpg,-1
193394.jpg,-1
193397.jpg,-1
193403.jpg,-1
193404.jpg,-1
193411.jpg,-1
193414.jpg,-1
193429.jpg,-1
193434.jpg,-1
193439.jpg,-1
193440.jpg,-1
193443.jpg,-1
193447.jpg,-1
193451.jpg,-1
193452.jpg,-1
193453.jpg,-1
193455.jpg,-1
193469.jpg,-1
193470.jpg,-1
193476.jpg,-1
193478.jpg,-1
193479.jpg,-1
193484.jpg,-1
193490.jpg,-1
193498.jpg,-1
193500.jpg,-1
193502.jpg,-1
193503.jpg,-1
193504.jpg,-1
193508.jpg,-1
193509.jpg,-1
193512.jpg,-1
193516.jpg,-1
193518.jpg,-1
193520.jpg,-1
193521.jpg,-1
193524.jpg,-1
193529.jpg,-1
193532.jpg,-1
193536.jpg,-1
193542.jpg,-1
193544.jpg,-1
193547.jpg,-1
193552.jpg,-1
193556.jpg,-1
193557.jpg,-1
193568.jpg,-1
193569.jpg,-1
193573.jpg,-1
193575.jpg,-1
193576.jpg,-1
193577.jpg,-1
193579.jpg,-1
193580.jpg,-1
193587.jpg,-1
193601.jpg,-1
193616.jpg,-1
193626.jpg,-1
193631.jpg,-1
193632.jpg,-1
193633.jpg,-1
193638.jpg,-1
193641.jpg,-1
193645.jpg,-1
193648.jpg,-1
193652.jpg,-1
193660.jpg,-1
193664.jpg,-1
193665.jpg,-1
193667.jpg,-1
193671.jpg,-1
193673.jpg,-1
193675.jpg,-1
193685.jpg,-1
193686.jpg,-1
193691.jpg,-1
193696.jpg,-1
193697.jpg,-1
193707.jpg,-1
193709.jpg,-1
193714.jpg,-1
193716.jpg,-1
193719.jpg,-1
193721.jpg,-1
193728.jpg,-1
193732.jpg,-1
193735.jpg,-1
193739.jpg,-1
193740.jpg,-1
193748.jpg,-1
193751.jpg,-1
193754.jpg,-1
193759.jpg,-1
193765.jpg,-1
193766.jpg,-1
193767.jpg,-1
193772.jpg,-1
193776.jpg,-1
193782.jpg,-1
193784.jpg,-1
193787.jpg,-1
193793.jpg,-1
193797.jpg,-1
193798.jpg,-1
193805.jpg,-1
193808.jpg,-1
193809.jpg,-1
193810.jpg,-1
193815.jpg,-1
193817.jpg,-1
193829.jpg,-1
193833.jpg,-1
193838.jpg,-1
193842.jpg,-1
193843.jpg,-1
193848.jpg,-1
193849.jpg,-1
193859.jpg,-1
193860.jpg,-1
193864.jpg,-1
193867.jpg,-1
193868.jpg,-1
193871.jpg,-1
193876.jpg,-1
193880.jpg,-1
193885.jpg,-1
193886.jpg,-1
193887.jpg,-1
193890.jpg,-1
193892.jpg,-1
193900.jpg,-1
193902.jpg,-1
193904.jpg,-1
193905.jpg,-1
193906.jpg,-1
193908.jpg,-1
193909.jpg,-1
193910.jpg,-1
193916.jpg,-1
193919.jpg,-1
193924.jpg,-1
193925.jpg,-1
193926.jpg,-1
193934.jpg,-1
193935.jpg,-1
193938.jpg,-1
193939.jpg,-1
193945.jpg,-1
193950.jpg,-1
193957.jpg,-1
193965.jpg,-1
193986.jpg,-1
193988.jpg,-1
193989.jpg,-1
193995.jpg,-1
194005.jpg,-1
194006.jpg,-1
194014.jpg,-1
194016.jpg,-1
194023.jpg,-1
194028.jpg,-1
194042.jpg,-1
194043.jpg,-1
194048.jpg,-1
194052.jpg,-1
194055.jpg,-1
194062.jpg,-1
194065.jpg,-1
194079.jpg,-1
194082.jpg,-1
194086.jpg,-1
194095.jpg,-1
194099.jpg,-1
194100.jpg,-1
194109.jpg,-1
194112.jpg,-1
194113.jpg,-1
194114.jpg,-1
194115.jpg,-1
194122.jpg,-1
194125.jpg,-1
194126.jpg,-1
194132.jpg,-1
194136.jpg,-1
194139.jpg,-1
194140.jpg,-1
194145.jpg,-1
194147.jpg,-1
194149.jpg,-1
194150.jpg,-1
194151.jpg,-1
194158.jpg,-1
194162.jpg,-1
194164.jpg,-1
194165.jpg,-1
194172.jpg,-1
194173.jpg,-1
194181.jpg,-1
194188.jpg,-1
194191.jpg,-1
194195.jpg,-1
194196.jpg,-1
194197.jpg,-1
194198.jpg,-1
194200.jpg,-1
194203.jpg,-1
194211.jpg,-1
194212.jpg,-1
194223.jpg,-1
194231.jpg,-1
194237.jpg,-1
194238.jpg,-1
194248.jpg,-1
194251.jpg,-1
194252.jpg,-1
194254.jpg,-1
194256.jpg,-1
194257.jpg,-1
194265.jpg,-1
194269.jpg,-1
194273.jpg,-1
194278.jpg,-1
194285.jpg,-1
194296.jpg,-1
194303.jpg,-1
194304.jpg,-1
194306.jpg,-1
194310.jpg,-1
194311.jpg,-1
194312.jpg,-1
194320.jpg,-1
194326.jpg,-1
194328.jpg,-1
194333.jpg,-1
194342.jpg,-1
194346.jpg,-1
194347.jpg,-1
194350.jpg,-1
194354.jpg,-1
194356.jpg,-1
194357.jpg,-1
194364.jpg,-1
194375.jpg,-1
194378.jpg,-1
194379.jpg,-1
194380.jpg,-1
194384.jpg,-1
194385.jpg,-1
194387.jpg,-1
194393.jpg,-1
194397.jpg,-1
194399.jpg,-1
194412.jpg,-1
194413.jpg,-1
194422.jpg,-1
194428.jpg,-1
194429.jpg,-1
194431.jpg,-1
194433.jpg,-1
194436.jpg,-1
194437.jpg,-1
194443.jpg,-1
194453.jpg,-1
194455.jpg,-1
194456.jpg,-1
194462.jpg,-1
194467.jpg,-1
194471.jpg,-1
194476.jpg,-1
194477.jpg,-1
194480.jpg,-1
194482.jpg,-1
194487.jpg,-1
194490.jpg,-1
194496.jpg,-1
194502.jpg,-1
194503.jpg,-1
194512.jpg,-1
194514.jpg,-1
194518.jpg,-1
194519.jpg,-1
194522.jpg,-1
194524.jpg,-1
194525.jpg,-1
194529.jpg,-1
194536.jpg,-1
194541.jpg,-1
194545.jpg,-1
194546.jpg,-1
194548.jpg,-1
194554.jpg,-1
194555.jpg,-1
194560.jpg,-1
194565.jpg,-1
194570.jpg,-1
194572.jpg,-1
194573.jpg,-1
194574.jpg,-1
194581.jpg,-1
194583.jpg,-1
194584.jpg,-1
194591.jpg,-1
194594.jpg,-1
194595.jpg,-1
194602.jpg,-1
194604.jpg,-1
194607.jpg,-1
194610.jpg,-1
194619.jpg,-1
194621.jpg,-1
194622.jpg,-1
194624.jpg,-1
194626.jpg,-1
194627.jpg,-1
194629.jpg,-1
194640.jpg,-1
194641.jpg,-1
194644.jpg,-1
194653.jpg,-1
194656.jpg,-1
194664.jpg,-1
194665.jpg,-1
194667.jpg,-1
194671.jpg,-1
194675.jpg,-1
194676.jpg,-1
194677.jpg,-1
194679.jpg,-1
194682.jpg,-1
194688.jpg,-1
194689.jpg,-1
194697.jpg,-1
194700.jpg,-1
194706.jpg,-1
194708.jpg,-1
194710.jpg,-1
194718.jpg,-1
194720.jpg,-1
194724.jpg,-1
194725.jpg,-1
194728.jpg,-1
194729.jpg,-1
194730.jpg,-1
194734.jpg,-1
194735.jpg,-1
194737.jpg,-1
194743.jpg,-1
194748.jpg,-1
194749.jpg,-1
194750.jpg,-1
194753.jpg,-1
194755.jpg,-1
194756.jpg,-1
194757.jpg,-1
194758.jpg,-1
194765.jpg,-1
194767.jpg,-1
194777.jpg,-1
194786.jpg,-1
194792.jpg,-1
194793.jpg,-1
194795.jpg,-1
194811.jpg,-1
194821.jpg,-1
194830.jpg,-1
194833.jpg,-1
194835.jpg,-1
194851.jpg,-1
194854.jpg,-1
194859.jpg,-1
194862.jpg,-1
194863.jpg,-1
194865.jpg,-1
194868.jpg,-1
194869.jpg,-1
194872.jpg,-1
194873.jpg,-1
194876.jpg,-1
194885.jpg,-1
194886.jpg,-1
194892.jpg,-1
194903.jpg,-1
194904.jpg,-1
194906.jpg,-1
194911.jpg,-1
194913.jpg,-1
194914.jpg,-1
194915.jpg,-1
194920.jpg,-1
194925.jpg,-1
194932.jpg,-1
194935.jpg,-1
194936.jpg,-1
194939.jpg,-1
194945.jpg,-1
194949.jpg,-1
194952.jpg,-1
194954.jpg,-1
194955.jpg,-1
194956.jpg,-1
194963.jpg,-1
194970.jpg,-1
194974.jpg,-1
194976.jpg,-1
194977.jpg,-1
194983.jpg,-1
194985.jpg,-1
194986.jpg,-1
194988.jpg,-1
194989.jpg,-1
194994.jpg,-1
194995.jpg,-1
194997.jpg,-1
195000.jpg,-1
195002.jpg,-1
195010.jpg,-1
195031.jpg,-1
195033.jpg,-1
195035.jpg,-1
195037.jpg,-1
195038.jpg,-1
195043.jpg,-1
195048.jpg,-1
195049.jpg,-1
195056.jpg,-1
195063.jpg,-1
195064.jpg,-1
195071.jpg,-1
195075.jpg,-1
195079.jpg,-1
195082.jpg,-1
195090.jpg,-1
195096.jpg,-1
195107.jpg,-1
195108.jpg,-1
195116.jpg,-1
195119.jpg,-1
195120.jpg,-1
195122.jpg,-1
195131.jpg,-1
195133.jpg,-1
195136.jpg,-1
195137.jpg,-1
195138.jpg,-1
195139.jpg,-1
195142.jpg,-1
195148.jpg,-1
195149.jpg,-1
195167.jpg,-1
195169.jpg,-1
195170.jpg,-1
195178.jpg,-1
195186.jpg,-1
195190.jpg,-1
195200.jpg,-1
195203.jpg,-1
195207.jpg,-1
195208.jpg,-1
195209.jpg,-1
195210.jpg,-1
195217.jpg,-1
195218.jpg,-1
195219.jpg,-1
195220.jpg,-1
195221.jpg,-1
195227.jpg,-1
195228.jpg,-1
195236.jpg,-1
195239.jpg,-1
195248.jpg,-1
195255.jpg,-1
195256.jpg,-1
195259.jpg,-1
195260.jpg,-1
195262.jpg,-1
195265.jpg,-1
195270.jpg,-1
195271.jpg,-1
195277.jpg,-1
195278.jpg,-1
195280.jpg,-1
195285.jpg,-1
195286.jpg,-1
195287.jpg,-1
195289.jpg,-1
195305.jpg,-1
195309.jpg,-1
195315.jpg,-1
195317.jpg,-1
195318.jpg,-1
195320.jpg,-1
195321.jpg,-1
195329.jpg,-1
195335.jpg,-1
195340.jpg,-1
195342.jpg,-1
195352.jpg,-1
195356.jpg,-1
195359.jpg,-1
195360.jpg,-1
195361.jpg,-1
195366.jpg,-1
195367.jpg,-1
195369.jpg,-1
195373.jpg,-1
195374.jpg,-1
195377.jpg,-1
195383.jpg,-1
195386.jpg,-1
195391.jpg,-1
195396.jpg,-1
195398.jpg,-1
195400.jpg,-1
195410.jpg,-1
195413.jpg,-1
195419.jpg,-1
195421.jpg,-1
195422.jpg,-1
195423.jpg,-1
195435.jpg,-1
195439.jpg,-1
195448.jpg,-1
195452.jpg,-1
195456.jpg,-1
195457.jpg,-1
195461.jpg,-1
195462.jpg,-1
195467.jpg,-1
195468.jpg,-1
195469.jpg,-1
195475.jpg,-1
195478.jpg,-1
195483.jpg,-1
195485.jpg,-1
195487.jpg,-1
195492.jpg,-1
195494.jpg,-1
195496.jpg,-1
195501.jpg,-1
195508.jpg,-1
195509.jpg,-1
195515.jpg,-1
195516.jpg,-1
195524.jpg,-1
195525.jpg,-1
195528.jpg,-1
195530.jpg,-1
195533.jpg,-1
195534.jpg,-1
195537.jpg,-1
195539.jpg,-1
195546.jpg,-1
195560.jpg,-1
195566.jpg,-1
195569.jpg,-1
195571.jpg,-1
195573.jpg,-1
195579.jpg,-1
195580.jpg,-1
195581.jpg,-1
195591.jpg,-1
195596.jpg,-1
195598.jpg,-1
195601.jpg,-1
195608.jpg,-1
195610.jpg,-1
195613.jpg,-1
195615.jpg,-1
195616.jpg,-1
195625.jpg,-1
195633.jpg,-1
195637.jpg,-1
195639.jpg,-1
195641.jpg,-1
195642.jpg,-1
195649.jpg,-1
195651.jpg,-1
195655.jpg,-1
195660.jpg,-1
195661.jpg,-1
195664.jpg,-1
195674.jpg,-1
195675.jpg,-1
195676.jpg,-1
195682.jpg,-1
195694.jpg,-1
195717.jpg,-1
195733.jpg,-1
195736.jpg,-1
195737.jpg,-1
195739.jpg,-1
195743.jpg,-1
195746.jpg,-1
195749.jpg,-1
195755.jpg,-1
195760.jpg,-1
195761.jpg,-1
195769.jpg,-1
195777.jpg,-1
195780.jpg,-1
195787.jpg,-1
195789.jpg,-1
195791.jpg,-1
195795.jpg,-1
195796.jpg,-1
195799.jpg,-1
195811.jpg,-1
195812.jpg,-1
195813.jpg,-1
195815.jpg,-1
195816.jpg,-1
195831.jpg,-1
195833.jpg,-1
195837.jpg,-1
195843.jpg,-1
195845.jpg,-1
195847.jpg,-1
195855.jpg,-1
195859.jpg,-1
195860.jpg,-1
195863.jpg,-1
195868.jpg,-1
195869.jpg,-1
195870.jpg,-1
195871.jpg,-1
195879.jpg,-1
195890.jpg,-1
195893.jpg,-1
195895.jpg,-1
195901.jpg,-1
195910.jpg,-1
195928.jpg,-1
195932.jpg,-1
195935.jpg,-1
195936.jpg,-1
195937.jpg,-1
195939.jpg,-1
195941.jpg,-1
195946.jpg,-1
195973.jpg,-1
195974.jpg,-1
195980.jpg,-1
195994.jpg,-1
195995.jpg,-1
195996.jpg,-1
195997.jpg,-1
195998.jpg,-1
196005.jpg,-1
196010.jpg,-1
196011.jpg,-1
196012.jpg,-1
196020.jpg,-1
196023.jpg,-1
196029.jpg,-1
196037.jpg,-1
196039.jpg,-1
196047.jpg,-1
196050.jpg,-1
196055.jpg,-1
196062.jpg,-1
196063.jpg,-1
196068.jpg,-1
196071.jpg,-1
196075.jpg,-1
196084.jpg,-1
196093.jpg,-1
196103.jpg,-1
196107.jpg,-1
196109.jpg,-1
196114.jpg,-1
196128.jpg,-1
196136.jpg,-1
196142.jpg,-1
196145.jpg,-1
196147.jpg,-1
196150.jpg,-1
196152.jpg,-1
196155.jpg,-1
196156.jpg,-1
196159.jpg,-1
196162.jpg,-1
196165.jpg,-1
196167.jpg,-1
196170.jpg,-1
196172.jpg,-1
196175.jpg,-1
196177.jpg,-1
196183.jpg,-1
196187.jpg,-1
196194.jpg,-1
196200.jpg,-1
196203.jpg,-1
196204.jpg,-1
196212.jpg,-1
196219.jpg,-1
196221.jpg,-1
196235.jpg,-1
196244.jpg,-1
196247.jpg,-1
196248.jpg,-1
196251.jpg,-1
196252.jpg,-1
196253.jpg,-1
196254.jpg,-1
196256.jpg,-1
196257.jpg,-1
196275.jpg,-1
196277.jpg,-1
196280.jpg,-1
196283.jpg,-1
196288.jpg,-1
196291.jpg,-1
196300.jpg,-1
196304.jpg,-1
196308.jpg,-1
196311.jpg,-1
196322.jpg,-1
196324.jpg,-1
196329.jpg,-1
196340.jpg,-1
196348.jpg,-1
196349.jpg,-1
196351.jpg,-1
196355.jpg,-1
196357.jpg,-1
196362.jpg,-1
196370.jpg,-1
196371.jpg,-1
196373.jpg,-1
196375.jpg,-1
196378.jpg,-1
196392.jpg,-1
196405.jpg,-1
196407.jpg,-1
196409.jpg,-1
196414.jpg,-1
196426.jpg,-1
196431.jpg,-1
196433.jpg,-1
196435.jpg,-1
196441.jpg,-1
196448.jpg,-1
196450.jpg,-1
196451.jpg,-1
196465.jpg,-1
196466.jpg,-1
196471.jpg,-1
196473.jpg,-1
196475.jpg,-1
196480.jpg,-1
196485.jpg,-1
196487.jpg,-1
196497.jpg,-1
196499.jpg,-1
196501.jpg,-1
196508.jpg,-1
196514.jpg,-1
196516.jpg,-1
196521.jpg,-1
196524.jpg,-1
196525.jpg,-1
196526.jpg,-1
196529.jpg,-1
196533.jpg,-1
196534.jpg,-1
196541.jpg,-1
196543.jpg,-1
196544.jpg,-1
196545.jpg,-1
196548.jpg,-1
196559.jpg,-1
196565.jpg,-1
196571.jpg,-1
196576.jpg,-1
196583.jpg,-1
196585.jpg,-1
196587.jpg,-1
196588.jpg,-1
196589.jpg,-1
196594.jpg,-1
196599.jpg,-1
196601.jpg,-1
196603.jpg,-1
196608.jpg,-1
196609.jpg,-1
196612.jpg,-1
196615.jpg,-1
196621.jpg,-1
196625.jpg,-1
196632.jpg,-1
196633.jpg,-1
196634.jpg,-1
196636.jpg,-1
196641.jpg,-1
196643.jpg,-1
196649.jpg,-1
196651.jpg,-1
196652.jpg,-1
196657.jpg,-1
196659.jpg,-1
196661.jpg,-1
196666.jpg,-1
196675.jpg,-1
196684.jpg,-1
196685.jpg,-1
196687.jpg,-1
196696.jpg,-1
196699.jpg,-1
196702.jpg,-1
196717.jpg,-1
196718.jpg,-1
196719.jpg,-1
196720.jpg,-1
196721.jpg,-1
196726.jpg,-1
196728.jpg,-1
196731.jpg,-1
196744.jpg,-1
196745.jpg,-1
196747.jpg,-1
196751.jpg,-1
196753.jpg,-1
196755.jpg,-1
196758.jpg,-1
196770.jpg,-1
196774.jpg,-1
196775.jpg,-1
196778.jpg,-1
196780.jpg,-1
196781.jpg,-1
196783.jpg,-1
196786.jpg,-1
196790.jpg,-1
196796.jpg,-1
196797.jpg,-1
196801.jpg,-1
196802.jpg,-1
196803.jpg,-1
196804.jpg,-1
196805.jpg,-1
196810.jpg,-1
196811.jpg,-1
196812.jpg,-1
196816.jpg,-1
196828.jpg,-1
196831.jpg,-1
196834.jpg,-1
196841.jpg,-1
196847.jpg,-1
196854.jpg,-1
196859.jpg,-1
196863.jpg,-1
196871.jpg,-1
196873.jpg,-1
196874.jpg,-1
196877.jpg,-1
196880.jpg,-1
196884.jpg,-1
196890.jpg,-1
196893.jpg,-1
196895.jpg,-1
196901.jpg,-1
196904.jpg,-1
196905.jpg,-1
196912.jpg,-1
196917.jpg,-1
196921.jpg,-1
196929.jpg,-1
196931.jpg,-1
196933.jpg,-1
196934.jpg,-1
196937.jpg,-1
196944.jpg,-1
196946.jpg,-1
196956.jpg,-1
196960.jpg,-1
196965.jpg,-1
196966.jpg,-1
196968.jpg,-1
196969.jpg,-1
196984.jpg,-1
196990.jpg,-1
196994.jpg,-1
196999.jpg,-1
197016.jpg,-1
197019.jpg,-1
197020.jpg,-1
197024.jpg,-1
197032.jpg,-1
197033.jpg,-1
197035.jpg,-1
197040.jpg,-1
197041.jpg,-1
197043.jpg,-1
197048.jpg,-1
197053.jpg,-1
197054.jpg,-1
197058.jpg,-1
197061.jpg,-1
197064.jpg,-1
197066.jpg,-1
197070.jpg,-1
197079.jpg,-1
197080.jpg,-1
197085.jpg,-1
197090.jpg,-1
197096.jpg,-1
197099.jpg,-1
197101.jpg,-1
197106.jpg,-1
197108.jpg,-1
197109.jpg,-1
197110.jpg,-1
197114.jpg,-1
197115.jpg,-1
197116.jpg,-1
197118.jpg,-1
197131.jpg,-1
197133.jpg,-1
197135.jpg,-1
197137.jpg,-1
197139.jpg,-1
197141.jpg,-1
197151.jpg,-1
197154.jpg,-1
197155.jpg,-1
197156.jpg,-1
197158.jpg,-1
197166.jpg,-1
197171.jpg,-1
197174.jpg,-1
197176.jpg,-1
197178.jpg,-1
197180.jpg,-1
197182.jpg,-1
197189.jpg,-1
197192.jpg,-1
197196.jpg,-1
197198.jpg,-1
197200.jpg,-1
197204.jpg,-1
197209.jpg,-1
197210.jpg,-1
197213.jpg,-1
197215.jpg,-1
197222.jpg,-1
197227.jpg,-1
197228.jpg,-1
197230.jpg,-1
197231.jpg,-1
197238.jpg,-1
197239.jpg,-1
197252.jpg,-1
197254.jpg,-1
197255.jpg,-1
197256.jpg,-1
197263.jpg,-1
197275.jpg,-1
197276.jpg,-1
197279.jpg,-1
197286.jpg,-1
197290.jpg,-1
197291.jpg,-1
197297.jpg,-1
197300.jpg,-1
197307.jpg,-1
197313.jpg,-1
197317.jpg,-1
197325.jpg,-1
197326.jpg,-1
197330.jpg,-1
197332.jpg,-1
197336.jpg,-1
197340.jpg,-1
197345.jpg,-1
197346.jpg,-1
197348.jpg,-1
197349.jpg,-1
197351.jpg,-1
197352.jpg,-1
197361.jpg,-1
197373.jpg,-1
197374.jpg,-1
197379.jpg,-1
197380.jpg,-1
197381.jpg,-1
197382.jpg,-1
197384.jpg,-1
197393.jpg,-1
197394.jpg,-1
197397.jpg,-1
197402.jpg,-1
197403.jpg,-1
197404.jpg,-1
197414.jpg,-1
197426.jpg,-1
197428.jpg,-1
197429.jpg,-1
197431.jpg,-1
197432.jpg,-1
197440.jpg,-1
197452.jpg,-1
197454.jpg,-1
197460.jpg,-1
197465.jpg,-1
197476.jpg,-1
197479.jpg,-1
197482.jpg,-1
197483.jpg,-1
197487.jpg,-1
197489.jpg,-1
197493.jpg,-1
197496.jpg,-1
197503.jpg,-1
197504.jpg,-1
197507.jpg,-1
197508.jpg,-1
197511.jpg,-1
197513.jpg,-1
197525.jpg,-1
197530.jpg,-1
197538.jpg,-1
197539.jpg,-1
197541.jpg,-1
197545.jpg,-1
197550.jpg,-1
197552.jpg,-1
197553.jpg,-1
197554.jpg,-1
197555.jpg,-1
197558.jpg,-1
197559.jpg,-1
197567.jpg,-1
197570.jpg,-1
197584.jpg,-1
197587.jpg,-1
197592.jpg,-1
197595.jpg,-1
197596.jpg,-1
197603.jpg,-1
197605.jpg,-1
197611.jpg,-1
197616.jpg,-1
197619.jpg,-1
197621.jpg,-1
197623.jpg,-1
197636.jpg,-1
197639.jpg,-1
197649.jpg,-1
197653.jpg,-1
197655.jpg,-1
197657.jpg,-1
197661.jpg,-1
197663.jpg,-1
197665.jpg,-1
197666.jpg,-1
197676.jpg,-1
197686.jpg,-1
197690.jpg,-1
197691.jpg,-1
197694.jpg,-1
197700.jpg,-1
197702.jpg,-1
197703.jpg,-1
197711.jpg,-1
197713.jpg,-1
197715.jpg,-1
197716.jpg,-1
197735.jpg,-1
197738.jpg,-1
197740.jpg,-1
197741.jpg,-1
197750.jpg,-1
197760.jpg,-1
197764.jpg,-1
197768.jpg,-1
197774.jpg,-1
197779.jpg,-1
197783.jpg,-1
197784.jpg,-1
197787.jpg,-1
197788.jpg,-1
197789.jpg,-1
197792.jpg,-1
197796.jpg,-1
197799.jpg,-1
197802.jpg,-1
197806.jpg,-1
197812.jpg,-1
197814.jpg,-1
197817.jpg,-1
197822.jpg,-1
197824.jpg,-1
197832.jpg,-1
197835.jpg,-1
197841.jpg,-1
197843.jpg,-1
197845.jpg,-1
197855.jpg,-1
197857.jpg,-1
197864.jpg,-1
197866.jpg,-1
197873.jpg,-1
197878.jpg,-1
197883.jpg,-1
197886.jpg,-1
197888.jpg,-1
197889.jpg,-1
197898.jpg,-1
197902.jpg,-1
197904.jpg,-1
197907.jpg,-1
197909.jpg,-1
197913.jpg,-1
197916.jpg,-1
197918.jpg,-1
197922.jpg,-1
197927.jpg,-1
197934.jpg,-1
197937.jpg,-1
197940.jpg,-1
197942.jpg,-1
197949.jpg,-1
197952.jpg,-1
197955.jpg,-1
197964.jpg,-1
197979.jpg,-1
197984.jpg,-1
197987.jpg,-1
197988.jpg,-1
197991.jpg,-1
197995.jpg,-1
197998.jpg,-1
198000.jpg,-1
198002.jpg,-1
198009.jpg,-1
198022.jpg,-1
198027.jpg,-1
198033.jpg,-1
198034.jpg,-1
198040.jpg,-1
198045.jpg,-1
198047.jpg,-1
198052.jpg,-1
198058.jpg,-1
198059.jpg,-1
198060.jpg,-1
198061.jpg,-1
198064.jpg,-1
198078.jpg,-1
198079.jpg,-1
198089.jpg,-1
198094.jpg,-1
198096.jpg,-1
198097.jpg,-1
198100.jpg,-1
198106.jpg,-1
198111.jpg,-1
198112.jpg,-1
198113.jpg,-1
198120.jpg,-1
198122.jpg,-1
198125.jpg,-1
198126.jpg,-1
198128.jpg,-1
198129.jpg,-1
198131.jpg,-1
198142.jpg,-1
198143.jpg,-1
198147.jpg,-1
198149.jpg,-1
198156.jpg,-1
198157.jpg,-1
198161.jpg,-1
198164.jpg,-1
198171.jpg,-1
198179.jpg,-1
198194.jpg,-1
198197.jpg,-1
198198.jpg,-1
198199.jpg,-1
198201.jpg,-1
198206.jpg,-1
198207.jpg,-1
198209.jpg,-1
198211.jpg,-1
198219.jpg,-1
198220.jpg,-1
198222.jpg,-1
198223.jpg,-1
198226.jpg,-1
198233.jpg,-1
198243.jpg,-1
198255.jpg,-1
198271.jpg,-1
198272.jpg,-1
198275.jpg,-1
198281.jpg,-1
198286.jpg,-1
198288.jpg,-1
198294.jpg,-1
198295.jpg,-1
198298.jpg,-1
198307.jpg,-1
198308.jpg,-1
198315.jpg,-1
198323.jpg,-1
198327.jpg,-1
198334.jpg,-1
198335.jpg,-1
198338.jpg,-1
198345.jpg,-1
198351.jpg,-1
198353.jpg,-1
198355.jpg,-1
198358.jpg,-1
198361.jpg,-1
198363.jpg,-1
198366.jpg,-1
198367.jpg,-1
198369.jpg,-1
198370.jpg,-1
198372.jpg,-1
198377.jpg,-1
198378.jpg,-1
198381.jpg,-1
198384.jpg,-1
198387.jpg,-1
198388.jpg,-1
198389.jpg,-1
198394.jpg,-1
198397.jpg,-1
198399.jpg,-1
198401.jpg,-1
198408.jpg,-1
198411.jpg,-1
198419.jpg,-1
198420.jpg,-1
198422.jpg,-1
198426.jpg,-1
198434.jpg,-1
198435.jpg,-1
198440.jpg,-1
198446.jpg,-1
198454.jpg,-1
198457.jpg,-1
198469.jpg,-1
198477.jpg,-1
198479.jpg,-1
198480.jpg,-1
198493.jpg,-1
198495.jpg,-1
198499.jpg,-1
198500.jpg,-1
198504.jpg,-1
198505.jpg,-1
198510.jpg,-1
198513.jpg,-1
198518.jpg,-1
198520.jpg,-1
198524.jpg,-1
198525.jpg,-1
198529.jpg,-1
198530.jpg,-1
198545.jpg,-1
198546.jpg,-1
198548.jpg,-1
198551.jpg,-1
198552.jpg,-1
198556.jpg,-1
198557.jpg,-1
198558.jpg,-1
198562.jpg,-1
198564.jpg,-1
198572.jpg,-1
198577.jpg,-1
198580.jpg,-1
198582.jpg,-1
198589.jpg,-1
198590.jpg,-1
198594.jpg,-1
198602.jpg,-1
198604.jpg,-1
198605.jpg,-1
198618.jpg,-1
198619.jpg,-1
198620.jpg,-1
198622.jpg,-1
198625.jpg,-1
198628.jpg,-1
198630.jpg,-1
198631.jpg,-1
198636.jpg,-1
198637.jpg,-1
198639.jpg,-1
198640.jpg,-1
198645.jpg,-1
198649.jpg,-1
198657.jpg,-1
198663.jpg,-1
198665.jpg,-1
198668.jpg,-1
198670.jpg,-1
198674.jpg,-1
198679.jpg,-1
198694.jpg,-1
198696.jpg,-1
198698.jpg,-1
198712.jpg,-1
198719.jpg,-1
198729.jpg,-1
198731.jpg,-1
198733.jpg,-1
198734.jpg,-1
198740.jpg,-1
198750.jpg,-1
198751.jpg,-1
198753.jpg,-1
198754.jpg,-1
198758.jpg,-1
198763.jpg,-1
198765.jpg,-1
198766.jpg,-1
198777.jpg,-1
198778.jpg,-1
198780.jpg,-1
198782.jpg,-1
198783.jpg,-1
198785.jpg,-1
198787.jpg,-1
198789.jpg,-1
198795.jpg,-1
198797.jpg,-1
198801.jpg,-1
198807.jpg,-1
198813.jpg,-1
198814.jpg,-1
198816.jpg,-1
198822.jpg,-1
198823.jpg,-1
198824.jpg,-1
198825.jpg,-1
198831.jpg,-1
198836.jpg,-1
198842.jpg,-1
198843.jpg,-1
198844.jpg,-1
198845.jpg,-1
198846.jpg,-1
198862.jpg,-1
198876.jpg,-1
198887.jpg,-1
198889.jpg,-1
198896.jpg,-1
198898.jpg,-1
198900.jpg,-1
198908.jpg,-1
198911.jpg,-1
198913.jpg,-1
198914.jpg,-1
198915.jpg,-1
198918.jpg,-1
198920.jpg,-1
198921.jpg,-1
198922.jpg,-1
198927.jpg,-1
198928.jpg,-1
198933.jpg,-1
198934.jpg,-1
198938.jpg,-1
198942.jpg,-1
198945.jpg,-1
198947.jpg,-1
198948.jpg,-1
198949.jpg,-1
198950.jpg,-1
198952.jpg,-1
198954.jpg,-1
198957.jpg,-1
198965.jpg,-1
198971.jpg,-1
198982.jpg,-1
198988.jpg,-1
198989.jpg,-1
198990.jpg,-1
198993.jpg,-1
198996.jpg,-1
199001.jpg,-1
199003.jpg,-1
199010.jpg,-1
199017.jpg,-1
199018.jpg,-1
199026.jpg,-1
199029.jpg,-1
199032.jpg,-1
199036.jpg,-1
199037.jpg,-1
199040.jpg,-1
199042.jpg,-1
199043.jpg,-1
199048.jpg,-1
199049.jpg,-1
199054.jpg,-1
199055.jpg,-1
199061.jpg,-1
199062.jpg,-1
199069.jpg,-1
199072.jpg,-1
199073.jpg,-1
199076.jpg,-1
199092.jpg,-1
199098.jpg,-1
199101.jpg,-1
199103.jpg,-1
199104.jpg,-1
199105.jpg,-1
199106.jpg,-1
199108.jpg,-1
199112.jpg,-1
199116.jpg,-1
199120.jpg,-1
199123.jpg,-1
199126.jpg,-1
199129.jpg,-1
199132.jpg,-1
199134.jpg,-1
199144.jpg,-1
199149.jpg,-1
199151.jpg,-1
199165.jpg,-1
199174.jpg,-1
199175.jpg,-1
199176.jpg,-1
199177.jpg,-1
199181.jpg,-1
199188.jpg,-1
199191.jpg,-1
199194.jpg,-1
199197.jpg,-1
199202.jpg,-1
199204.jpg,-1
199205.jpg,-1
199209.jpg,-1
199213.jpg,-1
199215.jpg,-1
199216.jpg,-1
199224.jpg,-1
199228.jpg,-1
199231.jpg,-1
199244.jpg,-1
199255.jpg,-1
199257.jpg,-1
199265.jpg,-1
199270.jpg,-1
199273.jpg,-1
199275.jpg,-1
199280.jpg,-1
199282.jpg,-1
199287.jpg,-1
199289.jpg,-1
199301.jpg,-1
199302.jpg,-1
199303.jpg,-1
199311.jpg,-1
199312.jpg,-1
199317.jpg,-1
199318.jpg,-1
199334.jpg,-1
199354.jpg,-1
199364.jpg,-1
199365.jpg,-1
199366.jpg,-1
199368.jpg,-1
199370.jpg,-1
199371.jpg,-1
199380.jpg,-1
199384.jpg,-1
199385.jpg,-1
199389.jpg,-1
199390.jpg,-1
199392.jpg,-1
199394.jpg,-1
199396.jpg,-1
199398.jpg,-1
199400.jpg,-1
199402.jpg,-1
199408.jpg,-1
199416.jpg,-1
199426.jpg,-1
199428.jpg,-1
199433.jpg,-1
199447.jpg,-1
199459.jpg,-1
199461.jpg,-1
199464.jpg,-1
199465.jpg,-1
199471.jpg,-1
199473.jpg,-1
199482.jpg,-1
199488.jpg,-1
199489.jpg,-1
199497.jpg,-1
199500.jpg,-1
199504.jpg,-1
199510.jpg,-1
199512.jpg,-1
199514.jpg,-1
199516.jpg,-1
199522.jpg,-1
199523.jpg,-1
199531.jpg,-1
199533.jpg,-1
199534.jpg,-1
199542.jpg,-1
199546.jpg,-1
199555.jpg,-1
199561.jpg,-1
199566.jpg,-1
199568.jpg,-1
199569.jpg,-1
199575.jpg,-1
199584.jpg,-1
199587.jpg,-1
199588.jpg,-1
199592.jpg,-1
199593.jpg,-1
199594.jpg,-1
199596.jpg,-1
199597.jpg,-1
199602.jpg,-1
199608.jpg,-1
199609.jpg,-1
199612.jpg,-1
199613.jpg,-1
199620.jpg,-1
199626.jpg,-1
199633.jpg,-1
199641.jpg,-1
199657.jpg,-1
199658.jpg,-1
199661.jpg,-1
199663.jpg,-1
199665.jpg,-1
199666.jpg,-1
199667.jpg,-1
199670.jpg,-1
199703.jpg,-1
199705.jpg,-1
199713.jpg,-1
199714.jpg,-1
199718.jpg,-1
199719.jpg,-1
199724.jpg,-1
199726.jpg,-1
199731.jpg,-1
199734.jpg,-1
199739.jpg,-1
199742.jpg,-1
199745.jpg,-1
199746.jpg,-1
199747.jpg,-1
199759.jpg,-1
199763.jpg,-1
199771.jpg,-1
199774.jpg,-1
199781.jpg,-1
199786.jpg,-1
199794.jpg,-1
199802.jpg,-1
199807.jpg,-1
199810.jpg,-1
199819.jpg,-1
199823.jpg,-1
199831.jpg,-1
199834.jpg,-1
199837.jpg,-1
199840.jpg,-1
199844.jpg,-1
199845.jpg,-1
199847.jpg,-1
199848.jpg,-1
199852.jpg,-1
199853.jpg,-1
199854.jpg,-1
199856.jpg,-1
199861.jpg,-1
199862.jpg,-1
199863.jpg,-1
199864.jpg,-1
199867.jpg,-1
199872.jpg,-1
199878.jpg,-1
199881.jpg,-1
199882.jpg,-1
199887.jpg,-1
199889.jpg,-1
199893.jpg,-1
199899.jpg,-1
199900.jpg,-1
199905.jpg,-1
199913.jpg,-1
199914.jpg,-1
199915.jpg,-1
199917.jpg,-1
199919.jpg,-1
199921.jpg,-1
199924.jpg,-1
199928.jpg,-1
199932.jpg,-1
199935.jpg,-1
199947.jpg,-1
199955.jpg,-1
199963.jpg,-1
199972.jpg,-1
199975.jpg,-1
199976.jpg,-1
199984.jpg,-1
199986.jpg,-1
199988.jpg,-1
199990.jpg,-1
199991.jpg,-1
199992.jpg,-1
199993.jpg,-1
199994.jpg,-1
200013.jpg,-1
200015.jpg,-1
200037.jpg,-1
200044.jpg,-1
200047.jpg,-1
200051.jpg,-1
200078.jpg,-1
200103.jpg,-1
200104.jpg,-1
200108.jpg,-1
200111.jpg,-1
200113.jpg,-1
200114.jpg,-1
200115.jpg,-1
200131.jpg,-1
200132.jpg,-1
200135.jpg,-1
200144.jpg,-1
200149.jpg,-1
200155.jpg,-1
200168.jpg,-1
200173.jpg,-1
200174.jpg,-1
200175.jpg,-1
200177.jpg,-1
200178.jpg,-1
200179.jpg,-1
200182.jpg,-1
200184.jpg,-1
200185.jpg,-1
200189.jpg,-1
200194.jpg,-1
200207.jpg,-1
200208.jpg,-1
200209.jpg,-1
200210.jpg,-1
200212.jpg,-1
200214.jpg,-1
200215.jpg,-1
200220.jpg,-1
200222.jpg,-1
200225.jpg,-1
200231.jpg,-1
200242.jpg,-1
200243.jpg,-1
200244.jpg,-1
200245.jpg,-1
200246.jpg,-1
200249.jpg,-1
200260.jpg,-1
200271.jpg,-1
200272.jpg,-1
200278.jpg,-1
200281.jpg,-1
200283.jpg,-1
200287.jpg,-1
200290.jpg,-1
200291.jpg,-1
200296.jpg,-1
200308.jpg,-1
200310.jpg,-1
200314.jpg,-1
200317.jpg,-1
200323.jpg,-1
200328.jpg,-1
200329.jpg,-1
200331.jpg,-1
200336.jpg,-1
200346.jpg,-1
200347.jpg,-1
200355.jpg,-1
200357.jpg,-1
200368.jpg,-1
200373.jpg,-1
200374.jpg,-1
200378.jpg,-1
200384.jpg,-1
200387.jpg,-1
200393.jpg,-1
200395.jpg,-1
200396.jpg,-1
200400.jpg,-1
200402.jpg,-1
200403.jpg,-1
200404.jpg,-1
200408.jpg,-1
200414.jpg,-1
200416.jpg,-1
200423.jpg,-1
200431.jpg,-1
200433.jpg,-1
200434.jpg,-1
200436.jpg,-1
200437.jpg,-1
200441.jpg,-1
200445.jpg,-1
200449.jpg,-1
200451.jpg,-1
200455.jpg,-1
200458.jpg,-1
200459.jpg,-1
200472.jpg,-1
200473.jpg,-1
200478.jpg,-1
200480.jpg,-1
200484.jpg,-1
200496.jpg,-1
200504.jpg,-1
200506.jpg,-1
200510.jpg,-1
200516.jpg,-1
200530.jpg,-1
200534.jpg,-1
200541.jpg,-1
200543.jpg,-1
200545.jpg,-1
200547.jpg,-1
200551.jpg,-1
200552.jpg,-1
200555.jpg,-1
200560.jpg,-1
200562.jpg,-1
200568.jpg,-1
200570.jpg,-1
200576.jpg,-1
200582.jpg,-1
200586.jpg,-1
200595.jpg,-1
200597.jpg,-1
200598.jpg,-1
200606.jpg,-1
200607.jpg,-1
200609.jpg,-1
200624.jpg,-1
200625.jpg,-1
200626.jpg,-1
200636.jpg,-1
200639.jpg,-1
200644.jpg,-1
200649.jpg,-1
200655.jpg,-1
200658.jpg,-1
200666.jpg,-1
200667.jpg,-1
200668.jpg,-1
200669.jpg,-1
200678.jpg,-1
200687.jpg,-1
200693.jpg,-1
200696.jpg,-1
200704.jpg,-1
200706.jpg,-1
200710.jpg,-1
200714.jpg,-1
200718.jpg,-1
200721.jpg,-1
200722.jpg,-1
200723.jpg,-1
200724.jpg,-1
200726.jpg,-1
200727.jpg,-1
200729.jpg,-1
200730.jpg,-1
200736.jpg,-1
200741.jpg,-1
200743.jpg,-1
200747.jpg,-1
200751.jpg,-1
200766.jpg,-1
200767.jpg,-1
200777.jpg,-1
200779.jpg,-1
200783.jpg,-1
200786.jpg,-1
200787.jpg,-1
200792.jpg,-1
200796.jpg,-1
200799.jpg,-1
200802.jpg,-1
200803.jpg,-1
200808.jpg,-1
200809.jpg,-1
200812.jpg,-1
200817.jpg,-1
200822.jpg,-1
200824.jpg,-1
200831.jpg,-1
200832.jpg,-1
200837.jpg,-1
200839.jpg,-1
200866.jpg,-1
200867.jpg,-1
200869.jpg,-1
200871.jpg,-1
200875.jpg,-1
200880.jpg,-1
200881.jpg,-1
200887.jpg,-1
200889.jpg,-1
200893.jpg,-1
200895.jpg,-1
200898.jpg,-1
200901.jpg,-1
200922.jpg,-1
200924.jpg,-1
200929.jpg,-1
200932.jpg,-1
200933.jpg,-1
200942.jpg,-1
200944.jpg,-1
200949.jpg,-1
200954.jpg,-1
200963.jpg,-1
200964.jpg,-1
200969.jpg,-1
200980.jpg,-1
200982.jpg,-1
200983.jpg,-1
200992.jpg,-1
200995.jpg,-1
201003.jpg,-1
201007.jpg,-1
201010.jpg,-1
201011.jpg,-1
201016.jpg,-1
201030.jpg,-1
201035.jpg,-1
201038.jpg,-1
201039.jpg,-1
201040.jpg,-1
201041.jpg,-1
201046.jpg,-1
201047.jpg,-1
201051.jpg,-1
201052.jpg,-1
201055.jpg,-1
201058.jpg,-1
201060.jpg,-1
201062.jpg,-1
201066.jpg,-1
201067.jpg,-1
201072.jpg,-1
201073.jpg,-1
201077.jpg,-1
201078.jpg,-1
201082.jpg,-1
201086.jpg,-1
201087.jpg,-1
201094.jpg,-1
201096.jpg,-1
201097.jpg,-1
201099.jpg,-1
201102.jpg,-1
201103.jpg,-1
201107.jpg,-1
201108.jpg,-1
201113.jpg,-1
201114.jpg,-1
201119.jpg,-1
201139.jpg,-1
201142.jpg,-1
201145.jpg,-1
201148.jpg,-1
201149.jpg,-1
201168.jpg,-1
201170.jpg,-1
201173.jpg,-1
201174.jpg,-1
201176.jpg,-1
201180.jpg,-1
201186.jpg,-1
201192.jpg,-1
201193.jpg,-1
201199.jpg,-1
201202.jpg,-1
201206.jpg,-1
201207.jpg,-1
201215.jpg,-1
201216.jpg,-1
201217.jpg,-1
201219.jpg,-1
201221.jpg,-1
201223.jpg,-1
201226.jpg,-1
201227.jpg,-1
201233.jpg,-1
201238.jpg,-1
201239.jpg,-1
201245.jpg,-1
201255.jpg,-1
201257.jpg,-1
201258.jpg,-1
201259.jpg,-1
201266.jpg,-1
201269.jpg,-1
201270.jpg,-1
201271.jpg,-1
201274.jpg,-1
201275.jpg,-1
201277.jpg,-1
201278.jpg,-1
201288.jpg,-1
201290.jpg,-1
201294.jpg,-1
201296.jpg,-1
201299.jpg,-1
201307.jpg,-1
201311.jpg,-1
201312.jpg,-1
201314.jpg,-1
201317.jpg,-1
201318.jpg,-1
201321.jpg,-1
201323.jpg,-1
201326.jpg,-1
201329.jpg,-1
201333.jpg,-1
201335.jpg,-1
201341.jpg,-1
201343.jpg,-1
201344.jpg,-1
201346.jpg,-1
201354.jpg,-1
201356.jpg,-1
201369.jpg,-1
201373.jpg,-1
201380.jpg,-1
201383.jpg,-1
201385.jpg,-1
201386.jpg,-1
201389.jpg,-1
201400.jpg,-1
201405.jpg,-1
201412.jpg,-1
201413.jpg,-1
201415.jpg,-1
201416.jpg,-1
201422.jpg,-1
201425.jpg,-1
201435.jpg,-1
201436.jpg,-1
201442.jpg,-1
201448.jpg,-1
201449.jpg,-1
201459.jpg,-1
201467.jpg,-1
201468.jpg,-1
201476.jpg,-1
201480.jpg,-1
201484.jpg,-1
201489.jpg,-1
201492.jpg,-1
201498.jpg,-1
201507.jpg,-1
201511.jpg,-1
201512.jpg,-1
201513.jpg,-1
201518.jpg,-1
201520.jpg,-1
201523.jpg,-1
201540.jpg,-1
201542.jpg,-1
201549.jpg,-1
201551.jpg,-1
201554.jpg,-1
201556.jpg,-1
201563.jpg,-1
201570.jpg,-1
201572.jpg,-1
201577.jpg,-1
201587.jpg,-1
201589.jpg,-1
201593.jpg,-1
201599.jpg,-1
201600.jpg,-1
201602.jpg,-1
201612.jpg,-1
201613.jpg,-1
201614.jpg,-1
201618.jpg,-1
201623.jpg,-1
201628.jpg,-1
201631.jpg,-1
201638.jpg,-1
201648.jpg,-1
201649.jpg,-1
201656.jpg,-1
201665.jpg,-1
201666.jpg,-1
201667.jpg,-1
201671.jpg,-1
201672.jpg,-1
201676.jpg,-1
201683.jpg,-1
201687.jpg,-1
201693.jpg,-1
201695.jpg,-1
201700.jpg,-1
201705.jpg,-1
201707.jpg,-1
201713.jpg,-1
201714.jpg,-1
201719.jpg,-1
201720.jpg,-1
201724.jpg,-1
201738.jpg,-1
201739.jpg,-1
201744.jpg,-1
201749.jpg,-1
201751.jpg,-1
201755.jpg,-1
201757.jpg,-1
201768.jpg,-1
201775.jpg,-1
201777.jpg,-1
201778.jpg,-1
201779.jpg,-1
201785.jpg,-1
201786.jpg,-1
201788.jpg,-1
201789.jpg,-1
201803.jpg,-1
201812.jpg,-1
201816.jpg,-1
201819.jpg,-1
201820.jpg,-1
201826.jpg,-1
201828.jpg,-1
201830.jpg,-1
201831.jpg,-1
201835.jpg,-1
201838.jpg,-1
201844.jpg,-1
201849.jpg,-1
201851.jpg,-1
201852.jpg,-1
201853.jpg,-1
201860.jpg,-1
201864.jpg,-1
201865.jpg,-1
201867.jpg,-1
201871.jpg,-1
201873.jpg,-1
201876.jpg,-1
201882.jpg,-1
201884.jpg,-1
201888.jpg,-1
201892.jpg,-1
201896.jpg,-1
201903.jpg,-1
201907.jpg,-1
201910.jpg,-1
201911.jpg,-1
201912.jpg,-1
201917.jpg,-1
201918.jpg,-1
201924.jpg,-1
201927.jpg,-1
201928.jpg,-1
201931.jpg,-1
201934.jpg,-1
201943.jpg,-1
201946.jpg,-1
201950.jpg,-1
201959.jpg,-1
201962.jpg,-1
201969.jpg,-1
201973.jpg,-1
201976.jpg,-1
201981.jpg,-1
201983.jpg,-1
201984.jpg,-1
202001.jpg,-1
202004.jpg,-1
202005.jpg,-1
202006.jpg,-1
202011.jpg,-1
202014.jpg,-1
202018.jpg,-1
202021.jpg,-1
202022.jpg,-1
202024.jpg,-1
202026.jpg,-1
202031.jpg,-1
202032.jpg,-1
202033.jpg,-1
202040.jpg,-1
202047.jpg,-1
202054.jpg,-1
202056.jpg,-1
202060.jpg,-1
202067.jpg,-1
202076.jpg,-1
202083.jpg,-1
202084.jpg,-1
202089.jpg,-1
202092.jpg,-1
202093.jpg,-1
202094.jpg,-1
202100.jpg,-1
202106.jpg,-1
202108.jpg,-1
202114.jpg,-1
202116.jpg,-1
202118.jpg,-1
202121.jpg,-1
202125.jpg,-1
202126.jpg,-1
202130.jpg,-1
202131.jpg,-1
202133.jpg,-1
202146.jpg,-1
202154.jpg,-1
202157.jpg,-1
202161.jpg,-1
202166.jpg,-1
202171.jpg,-1
202181.jpg,-1
202189.jpg,-1
202204.jpg,-1
202205.jpg,-1
202208.jpg,-1
202210.jpg,-1
202211.jpg,-1
202215.jpg,-1
202222.jpg,-1
202225.jpg,-1
202229.jpg,-1
202230.jpg,-1
202242.jpg,-1
202243.jpg,-1
202244.jpg,-1
202247.jpg,-1
202260.jpg,-1
202266.jpg,-1
202267.jpg,-1
202270.jpg,-1
202277.jpg,-1
202294.jpg,-1
202297.jpg,-1
202298.jpg,-1
202300.jpg,-1
202312.jpg,-1
202321.jpg,-1
202324.jpg,-1
202329.jpg,-1
202330.jpg,-1
202331.jpg,-1
202334.jpg,-1
202336.jpg,-1
202339.jpg,-1
202341.jpg,-1
202352.jpg,-1
202359.jpg,-1
202364.jpg,-1
202366.jpg,-1
202367.jpg,-1
202370.jpg,-1
202371.jpg,-1
202375.jpg,-1
202376.jpg,-1
202377.jpg,-1
202381.jpg,-1
202384.jpg,-1
202400.jpg,-1
202408.jpg,-1
202412.jpg,-1
202414.jpg,-1
202426.jpg,-1
202427.jpg,-1
202441.jpg,-1
202445.jpg,-1
202449.jpg,-1
202453.jpg,-1
202457.jpg,-1
202461.jpg,-1
202466.jpg,-1
202468.jpg,-1
202479.jpg,-1
202490.jpg,-1
202504.jpg,-1
202514.jpg,-1
202517.jpg,-1
202524.jpg,-1
202525.jpg,-1
202526.jpg,-1
202527.jpg,-1
202529.jpg,-1
202535.jpg,-1
202538.jpg,-1
202547.jpg,-1
202548.jpg,-1
202552.jpg,-1
202555.jpg,-1
202557.jpg,-1
202559.jpg,-1
202560.jpg,-1
202561.jpg,-1
202565.jpg,-1
202568.jpg,-1
202573.jpg,-1
202581.jpg,-1
202586.jpg,-1
202590.jpg,-1
