image_id,Young
162772.jpg,-1
162778.jpg,-1
162782.jpg,-1
162785.jpg,-1
162786.jpg,-1
162789.jpg,-1
162796.jpg,-1
162797.jpg,-1
162798.jpg,-1
162806.jpg,-1
162807.jpg,-1
162808.jpg,-1
162811.jpg,-1
162813.jpg,-1
162820.jpg,-1
162823.jpg,-1
162827.jpg,-1
162840.jpg,-1
162848.jpg,-1
162849.jpg,-1
162850.jpg,-1
162851.jpg,-1
162860.jpg,-1
162863.jpg,-1
162865.jpg,-1
162867.jpg,-1
162876.jpg,-1
162877.jpg,-1
162882.jpg,-1
162883.jpg,-1
162884.jpg,-1
162885.jpg,-1
162889.jpg,-1
162892.jpg,-1
162895.jpg,-1
162896.jpg,-1
162897.jpg,-1
162899.jpg,-1
162909.jpg,-1
162910.jpg,-1
162916.jpg,-1
162918.jpg,-1
162926.jpg,-1
162934.jpg,-1
162935.jpg,-1
162938.jpg,-1
162940.jpg,-1
162942.jpg,-1
162943.jpg,-1
162945.jpg,-1
162954.jpg,-1
162958.jpg,-1
162961.jpg,-1
162969.jpg,-1
162973.jpg,-1
162975.jpg,-1
162994.jpg,-1
163007.jpg,-1
163008.jpg,-1
163012.jpg,-1
163020.jpg,-1
163026.jpg,-1
163028.jpg,-1
163032.jpg,-1
163034.jpg,-1
163040.jpg,-1
163044.jpg,-1
163069.jpg,-1
163072.jpg,-1
163081.jpg,-1
163085.jpg,-1
163090.jpg,-1
163096.jpg,-1
163097.jpg,-1
163099.jpg,-1
163102.jpg,-1
163119.jpg,-1
163130.jpg,-1
163134.jpg,-1
163144.jpg,-1
163145.jpg,-1
163146.jpg,-1
163147.jpg,-1
163149.jpg,-1
163151.jpg,-1
163152.jpg,-1
163157.jpg,-1
163160.jpg,-1
163165.jpg,-1
163166.jpg,-1
163169.jpg,-1
163170.jpg,-1
163173.jpg,-1
163174.jpg,-1
163182.jpg,-1
163184.jpg,-1
163187.jpg,-1
163196.jpg,-1
163202.jpg,-1
163203.jpg,-1
163209.jpg,-1
163214.jpg,-1
163218.jpg,-1
163219.jpg,-1
163220.jpg,-1
163224.jpg,-1
163225.jpg,-1
163226.jpg,-1
163227.jpg,-1
163232.jpg,-1
163242.jpg,-1
163248.jpg,-1
163259.jpg,-1
163260.jpg,-1
163261.jpg,-1
163264.jpg,-1
163265.jpg,-1
163266.jpg,-1
163286.jpg,-1
163287.jpg,-1
163292.jpg,-1
163293.jpg,-1
163299.jpg,-1
163303.jpg,-1
163304.jpg,-1
163305.jpg,-1
163306.jpg,-1
163310.jpg,-1
163313.jpg,-1
163314.jpg,-1
163320.jpg,-1
163322.jpg,-1
163323.jpg,-1
163324.jpg,-1
163326.jpg,-1
163330.jpg,-1
163334.jpg,-1
163337.jpg,-1
163338.jpg,-1
163341.jpg,-1
163347.jpg,-1
163351.jpg,-1
163352.jpg,-1
163355.jpg,-1
163356.jpg,-1
163358.jpg,-1
163362.jpg,-1
163367.jpg,-1
163371.jpg,-1
163373.jpg,-1
163379.jpg,-1
163385.jpg,-1
163388.jpg,-1
163394.jpg,-1
163395.jpg,-1
163396.jpg,-1
163397.jpg,-1
163402.jpg,-1
163404.jpg,-1
163405.jpg,-1
163406.jpg,-1
163410.jpg,-1
163413.jpg,-1
163419.jpg,-1
163425.jpg,-1
163427.jpg,-1
163431.jpg,-1
163435.jpg,-1
163436.jpg,-1
163439.jpg,-1
163442.jpg,-1
163449.jpg,-1
163451.jpg,-1
163453.jpg,-1
163458.jpg,-1
163462.jpg,-1
163474.jpg,-1
163476.jpg,-1
163477.jpg,-1
163479.jpg,-1
163480.jpg,-1
163482.jpg,-1
163487.jpg,-1
163490.jpg,-1
163491.jpg,-1
163495.jpg,-1
163501.jpg,-1
163507.jpg,-1
163515.jpg,-1
163521.jpg,-1
163522.jpg,-1
163528.jpg,-1
163531.jpg,-1
163538.jpg,-1
163544.jpg,-1
163550.jpg,-1
163551.jpg,-1
163563.jpg,-1
163565.jpg,-1
163567.jpg,-1
163571.jpg,-1
163572.jpg,-1
163580.jpg,-1
163582.jpg,-1
163585.jpg,-1
163592.jpg,-1
163596.jpg,-1
163599.jpg,-1
163609.jpg,-1
163613.jpg,-1
163619.jpg,-1
163620.jpg,-1
163629.jpg,-1
163636.jpg,-1
163638.jpg,-1
163639.jpg,-1
163649.jpg,-1
163657.jpg,-1
163666.jpg,-1
163670.jpg,-1
163671.jpg,-1
163673.jpg,-1
163675.jpg,-1
163677.jpg,-1
163680.jpg,-1
163682.jpg,-1
163697.jpg,-1
163698.jpg,-1
163700.jpg,-1
163701.jpg,-1
163702.jpg,-1
163703.jpg,-1
163708.jpg,-1
163724.jpg,-1
163726.jpg,-1
163727.jpg,-1
163731.jpg,-1
163742.jpg,-1
163743.jpg,-1
163746.jpg,-1
163749.jpg,-1
163754.jpg,-1
163756.jpg,-1
163757.jpg,-1
163758.jpg,-1
163759.jpg,-1
163762.jpg,-1
163766.jpg,-1
163767.jpg,-1
163770.jpg,-1
163771.jpg,-1
163777.jpg,-1
163778.jpg,-1
163779.jpg,-1
163784.jpg,-1
163792.jpg,-1
163794.jpg,-1
163795.jpg,-1
163798.jpg,-1
163800.jpg,-1
163801.jpg,-1
163805.jpg,-1
163811.jpg,-1
163812.jpg,-1
163813.jpg,-1
163814.jpg,-1
163818.jpg,-1
163820.jpg,-1
163821.jpg,-1
163827.jpg,-1
163839.jpg,-1
163843.jpg,-1
163851.jpg,-1
163852.jpg,-1
163853.jpg,-1
163858.jpg,-1
163861.jpg,-1
163865.jpg,-1
163866.jpg,-1
163872.jpg,-1
163877.jpg,-1
163879.jpg,-1
163880.jpg,-1
163888.jpg,-1
163905.jpg,-1
163906.jpg,-1
163908.jpg,-1
163909.jpg,-1
163914.jpg,-1
163918.jpg,-1
163921.jpg,-1
163926.jpg,-1
163928.jpg,-1
163934.jpg,-1
163946.jpg,-1
163947.jpg,-1
163951.jpg,-1
163952.jpg,-1
163961.jpg,-1
163964.jpg,-1
163966.jpg,-1
163970.jpg,-1
163971.jpg,-1
163972.jpg,-1
163978.jpg,-1
163979.jpg,-1
163980.jpg,-1
163983.jpg,-1
163985.jpg,-1
163986.jpg,-1
163987.jpg,-1
163989.jpg,-1
163992.jpg,-1
163993.jpg,-1
163995.jpg,-1
164000.jpg,-1
164009.jpg,-1
164011.jpg,-1
164019.jpg,-1
164021.jpg,-1
164022.jpg,-1
164023.jpg,-1
164024.jpg,-1
164026.jpg,-1
164029.jpg,-1
164038.jpg,-1
164040.jpg,-1
164041.jpg,-1
164042.jpg,-1
164045.jpg,-1
164047.jpg,-1
164048.jpg,-1
164051.jpg,-1
164054.jpg,-1
164055.jpg,-1
164059.jpg,-1
164060.jpg,-1
164061.jpg,-1
164062.jpg,-1
164065.jpg,-1
164070.jpg,-1
164072.jpg,-1
164077.jpg,-1
164080.jpg,-1
164084.jpg,-1
164087.jpg,-1
164088.jpg,-1
164091.jpg,-1
164098.jpg,-1
164100.jpg,-1
164103.jpg,-1
164106.jpg,-1
164107.jpg,-1
164110.jpg,-1
164115.jpg,-1
164117.jpg,-1
164129.jpg,-1
164134.jpg,-1
164135.jpg,-1
164143.jpg,-1
164144.jpg,-1
164147.jpg,-1
164149.jpg,-1
164150.jpg,-1
164153.jpg,-1
164156.jpg,-1
164164.jpg,-1
164165.jpg,-1
164172.jpg,-1
164177.jpg,-1
164186.jpg,-1
164191.jpg,-1
164195.jpg,-1
164206.jpg,-1
164208.jpg,-1
164211.jpg,-1
164214.jpg,-1
164216.jpg,-1
164219.jpg,-1
164220.jpg,-1
164231.jpg,-1
164233.jpg,-1
164236.jpg,-1
164237.jpg,-1
164240.jpg,-1
164246.jpg,-1
164248.jpg,-1
164254.jpg,-1
164259.jpg,-1
164260.jpg,-1
164269.jpg,-1
164270.jpg,-1
164273.jpg,-1
164277.jpg,-1
164279.jpg,-1
164282.jpg,-1
164284.jpg,-1
164287.jpg,-1
164294.jpg,-1
164298.jpg,-1
164306.jpg,-1
164309.jpg,-1
164312.jpg,-1
164314.jpg,-1
164315.jpg,-1
164319.jpg,-1
164320.jpg,-1
164321.jpg,-1
164326.jpg,-1
164331.jpg,-1
164332.jpg,-1
164337.jpg,-1
164341.jpg,-1
164344.jpg,-1
164350.jpg,-1
164351.jpg,-1
164365.jpg,-1
164366.jpg,-1
164369.jpg,-1
164373.jpg,-1
164374.jpg,-1
164380.jpg,-1
164392.jpg,-1
164397.jpg,-1
164399.jpg,-1
164401.jpg,-1
164404.jpg,-1
164412.jpg,-1
164423.jpg,-1
164424.jpg,-1
164434.jpg,-1
164439.jpg,-1
164442.jpg,-1
164447.jpg,-1
164454.jpg,-1
164462.jpg,-1
164473.jpg,-1
164474.jpg,-1
164475.jpg,-1
164476.jpg,-1
164483.jpg,-1
164492.jpg,-1
164498.jpg,-1
164504.jpg,-1
164512.jpg,-1
164514.jpg,-1
164517.jpg,-1
164555.jpg,-1
164557.jpg,-1
164562.jpg,-1
164563.jpg,-1
164567.jpg,-1
164570.jpg,-1
164572.jpg,-1
164573.jpg,-1
164575.jpg,-1
164579.jpg,-1
164580.jpg,-1
164586.jpg,-1
164589.jpg,-1
164592.jpg,-1
164595.jpg,-1
164596.jpg,-1
164602.jpg,-1
164603.jpg,-1
164605.jpg,-1
164615.jpg,-1
164616.jpg,-1
164621.jpg,-1
164625.jpg,-1
164630.jpg,-1
164640.jpg,-1
164641.jpg,-1
164645.jpg,-1
164648.jpg,-1
164653.jpg,-1
164662.jpg,-1
164668.jpg,-1
164671.jpg,-1
164672.jpg,-1
164674.jpg,-1
164679.jpg,-1
164682.jpg,-1
164683.jpg,-1
164685.jpg,-1
164692.jpg,-1
164693.jpg,-1
164698.jpg,-1
164700.jpg,-1
164716.jpg,-1
164725.jpg,-1
164731.jpg,-1
164732.jpg,-1
164735.jpg,-1
164738.jpg,-1
164741.jpg,-1
164746.jpg,-1
164748.jpg,-1
164754.jpg,-1
164755.jpg,-1
164760.jpg,-1
164766.jpg,-1
164768.jpg,-1
164769.jpg,-1
164773.jpg,-1
164776.jpg,-1
164779.jpg,-1
164782.jpg,-1
164786.jpg,-1
164799.jpg,-1
164805.jpg,-1
164810.jpg,-1
164812.jpg,-1
164813.jpg,-1
164821.jpg,-1
164825.jpg,-1
164828.jpg,-1
164833.jpg,-1
164842.jpg,-1
164849.jpg,-1
164850.jpg,-1
164856.jpg,-1
164861.jpg,-1
164863.jpg,-1
164867.jpg,-1
164868.jpg,-1
164870.jpg,-1
164874.jpg,-1
164875.jpg,-1
164876.jpg,-1
164883.jpg,-1
164900.jpg,-1
164901.jpg,-1
164903.jpg,-1
164904.jpg,-1
164905.jpg,-1
164906.jpg,-1
164908.jpg,-1
164913.jpg,-1
164920.jpg,-1
164925.jpg,-1
164928.jpg,-1
164929.jpg,-1
164930.jpg,-1
164937.jpg,-1
164939.jpg,-1
164941.jpg,-1
164944.jpg,-1
164948.jpg,-1
164950.jpg,-1
164951.jpg,-1
164954.jpg,-1
164955.jpg,-1
164956.jpg,-1
164959.jpg,-1
164965.jpg,-1
164966.jpg,-1
164973.jpg,-1
164974.jpg,-1
164979.jpg,-1
164983.jpg,-1
164984.jpg,-1
164986.jpg,-1
164987.jpg,-1
164989.jpg,-1
164990.jpg,-1
164991.jpg,-1
164992.jpg,-1
165000.jpg,-1
165002.jpg,-1
165005.jpg,-1
165006.jpg,-1
165007.jpg,-1
165008.jpg,-1
165016.jpg,-1
165024.jpg,-1
165029.jpg,-1
165039.jpg,-1
165042.jpg,-1
165043.jpg,-1
165050.jpg,-1
165051.jpg,-1
165052.jpg,-1
165061.jpg,-1
165065.jpg,-1
165066.jpg,-1
165072.jpg,-1
165074.jpg,-1
165079.jpg,-1
165080.jpg,-1
165081.jpg,-1
165082.jpg,-1
165088.jpg,-1
165100.jpg,-1
165101.jpg,-1
165111.jpg,-1
165118.jpg,-1
165119.jpg,-1
165124.jpg,-1
165127.jpg,-1
165130.jpg,-1
165131.jpg,-1
165134.jpg,-1
165138.jpg,-1
165139.jpg,-1
165143.jpg,-1
165144.jpg,-1
165145.jpg,-1
165146.jpg,-1
165149.jpg,-1
165151.jpg,-1
165153.jpg,-1
165157.jpg,-1
165160.jpg,-1
165162.jpg,-1
165163.jpg,-1
165166.jpg,-1
165172.jpg,-1
165177.jpg,-1
165178.jpg,-1
165180.jpg,-1
165182.jpg,-1
165183.jpg,-1
165190.jpg,-1
165191.jpg,-1
165192.jpg,-1
165193.jpg,-1
165194.jpg,-1
165205.jpg,-1
165207.jpg,-1
165209.jpg,-1
165214.jpg,-1
165216.jpg,-1
165218.jpg,-1
165220.jpg,-1
165224.jpg,-1
165226.jpg,-1
165227.jpg,-1
165231.jpg,-1
165233.jpg,-1
165234.jpg,-1
165235.jpg,-1
165237.jpg,-1
165239.jpg,-1
165251.jpg,-1
165252.jpg,-1
165253.jpg,-1
165259.jpg,-1
165262.jpg,-1
165265.jpg,-1
165267.jpg,-1
165270.jpg,-1
165272.jpg,-1
165273.jpg,-1
165275.jpg,-1
165284.jpg,-1
165286.jpg,-1
165289.jpg,-1
165290.jpg,-1
165291.jpg,-1
165300.jpg,-1
165308.jpg,-1
165312.jpg,-1
165317.jpg,-1
165318.jpg,-1
165329.jpg,-1
165332.jpg,-1
165334.jpg,-1
165337.jpg,-1
165338.jpg,-1
165346.jpg,-1
165347.jpg,-1
165353.jpg,-1
165361.jpg,-1
165365.jpg,-1
165366.jpg,-1
165368.jpg,-1
165370.jpg,-1
165375.jpg,-1
165387.jpg,-1
165391.jpg,-1
165393.jpg,-1
165405.jpg,-1
165406.jpg,-1
165412.jpg,-1
165417.jpg,-1
165427.jpg,-1
165437.jpg,-1
165439.jpg,-1
165442.jpg,-1
165444.jpg,-1
165445.jpg,-1
165446.jpg,-1
165447.jpg,-1
165451.jpg,-1
165452.jpg,-1
165453.jpg,-1
165455.jpg,-1
165460.jpg,-1
165463.jpg,-1
165464.jpg,-1
165467.jpg,-1
165470.jpg,-1
165471.jpg,-1
165472.jpg,-1
165477.jpg,-1
165478.jpg,-1
165479.jpg,-1
165484.jpg,-1
165492.jpg,-1
165493.jpg,-1
165495.jpg,-1
165502.jpg,-1
165503.jpg,-1
165507.jpg,-1
165509.jpg,-1
165511.jpg,-1
165512.jpg,-1
165513.jpg,-1
165516.jpg,-1
165521.jpg,-1
165525.jpg,-1
165528.jpg,-1
165534.jpg,-1
165554.jpg,-1
165555.jpg,-1
165557.jpg,-1
165559.jpg,-1
165582.jpg,-1
165589.jpg,-1
165592.jpg,-1
165600.jpg,-1
165607.jpg,-1
165617.jpg,-1
165620.jpg,-1
165623.jpg,-1
165624.jpg,-1
165625.jpg,-1
165626.jpg,-1
165627.jpg,-1
165631.jpg,-1
165635.jpg,-1
165639.jpg,-1
165640.jpg,-1
165649.jpg,-1
165650.jpg,-1
165652.jpg,-1
165667.jpg,-1
165669.jpg,-1
165674.jpg,-1
165675.jpg,-1
165678.jpg,-1
165684.jpg,-1
165687.jpg,-1
165692.jpg,-1
165704.jpg,-1
165710.jpg,-1
165718.jpg,-1
165720.jpg,-1
165721.jpg,-1
165725.jpg,-1
165727.jpg,-1
165732.jpg,-1
165735.jpg,-1
165736.jpg,-1
165741.jpg,-1
165750.jpg,-1
165752.jpg,-1
165761.jpg,-1
165765.jpg,-1
165771.jpg,-1
165773.jpg,-1
165775.jpg,-1
165780.jpg,-1
165784.jpg,-1
165786.jpg,-1
165790.jpg,-1
165791.jpg,-1
165797.jpg,-1
165800.jpg,-1
165801.jpg,-1
165802.jpg,-1
165804.jpg,-1
165805.jpg,-1
165815.jpg,-1
165816.jpg,-1
165817.jpg,-1
165819.jpg,-1
165820.jpg,-1
165825.jpg,-1
165826.jpg,-1
165827.jpg,-1
165828.jpg,-1
165836.jpg,-1
165837.jpg,-1
165841.jpg,-1
165846.jpg,-1
165862.jpg,-1
165867.jpg,-1
165871.jpg,-1
165873.jpg,-1
165877.jpg,-1
165881.jpg,-1
165886.jpg,-1
165887.jpg,-1
165890.jpg,-1
165891.jpg,-1
165898.jpg,-1
165899.jpg,-1
165902.jpg,-1
165907.jpg,-1
165912.jpg,-1
165916.jpg,-1
165921.jpg,-1
165926.jpg,-1
165947.jpg,-1
165951.jpg,-1
165953.jpg,-1
165957.jpg,-1
165959.jpg,-1
165960.jpg,-1
165961.jpg,-1
165962.jpg,-1
165964.jpg,-1
165965.jpg,-1
165969.jpg,-1
165970.jpg,-1
165973.jpg,-1
165979.jpg,-1
165981.jpg,-1
165984.jpg,-1
165987.jpg,-1
165990.jpg,-1
165996.jpg,-1
165998.jpg,-1
166000.jpg,-1
166003.jpg,-1
166011.jpg,-1
166018.jpg,-1
166020.jpg,-1
166025.jpg,-1
166028.jpg,-1
166029.jpg,-1
166036.jpg,-1
166048.jpg,-1
166049.jpg,-1
166050.jpg,-1
166052.jpg,-1
166057.jpg,-1
166061.jpg,-1
166068.jpg,-1
166071.jpg,-1
166081.jpg,-1
166084.jpg,-1
166087.jpg,-1
166089.jpg,-1
166094.jpg,-1
166098.jpg,-1
166099.jpg,-1
166104.jpg,-1
166106.jpg,-1
166110.jpg,-1
166111.jpg,-1
166112.jpg,-1
166116.jpg,-1
166117.jpg,-1
166123.jpg,-1
166125.jpg,-1
166127.jpg,-1
166140.jpg,-1
166146.jpg,-1
166148.jpg,-1
166152.jpg,-1
166153.jpg,-1
166154.jpg,-1
166157.jpg,-1
166164.jpg,-1
166166.jpg,-1
166168.jpg,-1
166170.jpg,-1
166172.jpg,-1
166174.jpg,-1
166175.jpg,-1
166178.jpg,-1
166181.jpg,-1
166184.jpg,-1
166187.jpg,-1
166192.jpg,-1
166197.jpg,-1
166200.jpg,-1
166203.jpg,-1
166205.jpg,-1
166211.jpg,-1
166218.jpg,-1
166223.jpg,-1
166233.jpg,-1
166234.jpg,-1
166239.jpg,-1
166244.jpg,-1
166245.jpg,-1
166249.jpg,-1
166251.jpg,-1
166256.jpg,-1
166257.jpg,-1
166266.jpg,-1
166267.jpg,-1
166270.jpg,-1
166277.jpg,-1
166280.jpg,-1
166285.jpg,-1
166289.jpg,-1
166292.jpg,-1
166307.jpg,-1
166308.jpg,-1
166310.jpg,-1
166317.jpg,-1
166320.jpg,-1
166324.jpg,-1
166325.jpg,-1
166329.jpg,-1
166334.jpg,-1
166337.jpg,-1
166339.jpg,-1
166342.jpg,-1
166345.jpg,-1
166348.jpg,-1
166351.jpg,-1
166352.jpg,-1
166375.jpg,-1
166379.jpg,-1
166380.jpg,-1
166384.jpg,-1
166388.jpg,-1
166391.jpg,-1
166394.jpg,-1
166399.jpg,-1
166405.jpg,-1
166407.jpg,-1
166409.jpg,-1
166410.jpg,-1
166411.jpg,-1
166414.jpg,-1
166416.jpg,-1
166417.jpg,-1
166418.jpg,-1
166419.jpg,-1
166423.jpg,-1
166426.jpg,-1
166431.jpg,-1
166434.jpg,-1
166439.jpg,-1
166445.jpg,-1
166452.jpg,-1
166459.jpg,-1
166460.jpg,-1
166461.jpg,-1
166463.jpg,-1
166465.jpg,-1
166477.jpg,-1
166481.jpg,-1
166485.jpg,-1
166491.jpg,-1
166493.jpg,-1
166495.jpg,-1
166498.jpg,-1
166500.jpg,-1
166503.jpg,-1
166508.jpg,-1
166509.jpg,-1
166510.jpg,-1
166521.jpg,-1
166525.jpg,-1
166533.jpg,-1
166535.jpg,-1
166537.jpg,-1
166539.jpg,-1
166540.jpg,-1
166541.jpg,-1
166547.jpg,-1
166550.jpg,-1
166551.jpg,-1
166562.jpg,-1
166564.jpg,-1
166568.jpg,-1
166578.jpg,-1
166589.jpg,-1
166591.jpg,-1
166594.jpg,-1
166597.jpg,-1
166618.jpg,-1
166620.jpg,-1
166622.jpg,-1
166626.jpg,-1
166631.jpg,-1
166632.jpg,-1
166643.jpg,-1
166644.jpg,-1
166646.jpg,-1
166658.jpg,-1
166661.jpg,-1
166663.jpg,-1
166664.jpg,-1
166666.jpg,-1
166672.jpg,-1
166684.jpg,-1
166688.jpg,-1
166692.jpg,-1
166695.jpg,-1
166696.jpg,-1
166698.jpg,-1
166701.jpg,-1
166702.jpg,-1
166713.jpg,-1
166716.jpg,-1
166717.jpg,-1
166719.jpg,-1
166721.jpg,-1
166724.jpg,-1
166728.jpg,-1
166729.jpg,-1
166731.jpg,-1
166733.jpg,-1
166734.jpg,-1
166743.jpg,-1
166754.jpg,-1
166764.jpg,-1
166768.jpg,-1
166770.jpg,-1
166774.jpg,-1
166776.jpg,-1
166780.jpg,-1
166789.jpg,-1
166792.jpg,-1
166796.jpg,-1
166799.jpg,-1
166805.jpg,-1
166806.jpg,-1
166808.jpg,-1
166810.jpg,-1
166811.jpg,-1
166816.jpg,-1
166823.jpg,-1
166825.jpg,-1
166827.jpg,-1
166830.jpg,-1
166833.jpg,-1
166834.jpg,-1
166848.jpg,-1
166849.jpg,-1
166858.jpg,-1
166859.jpg,-1
166861.jpg,-1
166863.jpg,-1
166864.jpg,-1
166873.jpg,-1
166876.jpg,-1
166893.jpg,-1
166895.jpg,-1
166896.jpg,-1
166901.jpg,-1
166903.jpg,-1
166906.jpg,-1
166908.jpg,-1
166909.jpg,-1
166913.jpg,-1
166921.jpg,-1
166922.jpg,-1
166937.jpg,-1
166940.jpg,-1
166945.jpg,-1
166951.jpg,-1
166953.jpg,-1
166954.jpg,-1
166955.jpg,-1
166956.jpg,-1
166963.jpg,-1
166970.jpg,-1
166972.jpg,-1
166976.jpg,-1
166980.jpg,-1
166982.jpg,-1
166986.jpg,-1
166993.jpg,-1
166994.jpg,-1
166997.jpg,-1
167005.jpg,-1
167008.jpg,-1
167010.jpg,-1
167013.jpg,-1
167014.jpg,-1
167022.jpg,-1
167036.jpg,-1
167038.jpg,-1
167043.jpg,-1
167044.jpg,-1
167046.jpg,-1
167047.jpg,-1
167055.jpg,-1
167063.jpg,-1
167064.jpg,-1
167065.jpg,-1
167077.jpg,-1
167078.jpg,-1
167081.jpg,-1
167083.jpg,-1
167085.jpg,-1
167086.jpg,-1
167099.jpg,-1
167101.jpg,-1
167104.jpg,-1
167119.jpg,-1
167125.jpg,-1
167126.jpg,-1
167132.jpg,-1
167142.jpg,-1
167146.jpg,-1
167153.jpg,-1
167154.jpg,-1
167156.jpg,-1
167157.jpg,-1
167165.jpg,-1
167171.jpg,-1
167179.jpg,-1
167184.jpg,-1
167185.jpg,-1
167191.jpg,-1
167192.jpg,-1
167194.jpg,-1
167198.jpg,-1
167200.jpg,-1
167204.jpg,-1
167214.jpg,-1
167216.jpg,-1
167225.jpg,-1
167228.jpg,-1
167236.jpg,-1
167239.jpg,-1
167241.jpg,-1
167244.jpg,-1
167250.jpg,-1
167255.jpg,-1
167259.jpg,-1
167268.jpg,-1
167269.jpg,-1
167274.jpg,-1
167275.jpg,-1
167276.jpg,-1
167284.jpg,-1
167290.jpg,-1
167297.jpg,-1
167301.jpg,-1
167305.jpg,-1
167306.jpg,-1
167308.jpg,-1
167310.jpg,-1
167314.jpg,-1
167316.jpg,-1
167321.jpg,-1
167324.jpg,-1
167326.jpg,-1
167330.jpg,-1
167331.jpg,-1
167334.jpg,-1
167335.jpg,-1
167336.jpg,-1
167338.jpg,-1
167348.jpg,-1
167353.jpg,-1
167357.jpg,-1
167364.jpg,-1
167366.jpg,-1
167374.jpg,-1
167375.jpg,-1
167377.jpg,-1
167378.jpg,-1
167380.jpg,-1
167382.jpg,-1
167397.jpg,-1
167401.jpg,-1
167402.jpg,-1
167406.jpg,-1
167408.jpg,-1
167409.jpg,-1
167414.jpg,-1
167416.jpg,-1
167419.jpg,-1
167423.jpg,-1
167424.jpg,-1
167431.jpg,-1
167442.jpg,-1
167448.jpg,-1
167453.jpg,-1
167454.jpg,-1
167456.jpg,-1
167458.jpg,-1
167462.jpg,-1
167469.jpg,-1
167470.jpg,-1
167473.jpg,-1
167475.jpg,-1
167477.jpg,-1
167479.jpg,-1
167480.jpg,-1
167490.jpg,-1
167494.jpg,-1
167495.jpg,-1
167499.jpg,-1
167502.jpg,-1
167507.jpg,-1
167510.jpg,-1
167512.jpg,-1
167521.jpg,-1
167527.jpg,-1
167529.jpg,-1
167533.jpg,-1
167541.jpg,-1
167542.jpg,-1
167548.jpg,-1
167553.jpg,-1
167560.jpg,-1
167572.jpg,-1
167576.jpg,-1
167580.jpg,-1
167581.jpg,-1
167583.jpg,-1
167589.jpg,-1
167590.jpg,-1
167593.jpg,-1
167595.jpg,-1
167596.jpg,-1
167601.jpg,-1
167602.jpg,-1
167603.jpg,-1
167607.jpg,-1
167616.jpg,-1
167617.jpg,-1
167619.jpg,-1
167626.jpg,-1
167639.jpg,-1
167641.jpg,-1
167645.jpg,-1
167646.jpg,-1
167661.jpg,-1
167662.jpg,-1
167663.jpg,-1
167666.jpg,-1
167674.jpg,-1
167677.jpg,-1
167680.jpg,-1
167684.jpg,-1
167691.jpg,-1
167700.jpg,-1
167706.jpg,-1
167709.jpg,-1
167717.jpg,-1
167721.jpg,-1
167734.jpg,-1
167735.jpg,-1
167736.jpg,-1
167738.jpg,-1
167743.jpg,-1
167744.jpg,-1
167748.jpg,-1
167758.jpg,-1
167769.jpg,-1
167770.jpg,-1
167772.jpg,-1
167780.jpg,-1
167783.jpg,-1
167786.jpg,-1
167788.jpg,-1
167797.jpg,-1
167803.jpg,-1
167807.jpg,-1
167813.jpg,-1
167819.jpg,-1
167827.jpg,-1
167830.jpg,-1
167834.jpg,-1
167838.jpg,-1
167841.jpg,-1
167843.jpg,-1
167844.jpg,-1
167847.jpg,-1
167848.jpg,-1
167850.jpg,-1
167851.jpg,-1
167854.jpg,-1
167856.jpg,-1
167861.jpg,-1
167862.jpg,-1
167863.jpg,-1
167865.jpg,-1
167867.jpg,-1
167871.jpg,-1
167874.jpg,-1
167877.jpg,-1
167886.jpg,-1
167888.jpg,-1
167891.jpg,-1
167895.jpg,-1
167896.jpg,-1
167904.jpg,-1
167905.jpg,-1
167909.jpg,-1
167915.jpg,-1
167916.jpg,-1
167919.jpg,-1
167920.jpg,-1
167921.jpg,-1
167923.jpg,-1
167927.jpg,-1
167929.jpg,-1
167937.jpg,-1
167945.jpg,-1
167954.jpg,-1
167958.jpg,-1
167959.jpg,-1
167960.jpg,-1
167961.jpg,-1
167966.jpg,-1
167969.jpg,-1
167972.jpg,-1
167974.jpg,-1
167976.jpg,-1
167978.jpg,-1
167987.jpg,-1
167990.jpg,-1
167994.jpg,-1
167995.jpg,-1
167996.jpg,-1
167998.jpg,-1
167999.jpg,-1
168000.jpg,-1
168002.jpg,-1
168003.jpg,-1
168004.jpg,-1
168010.jpg,-1
168016.jpg,-1
168020.jpg,-1
168021.jpg,-1
168030.jpg,-1
168034.jpg,-1
168037.jpg,-1
168039.jpg,-1
168041.jpg,-1
168060.jpg,-1
168069.jpg,-1
168070.jpg,-1
168073.jpg,-1
168077.jpg,-1
168099.jpg,-1
168106.jpg,-1
168110.jpg,-1
168111.jpg,-1
168113.jpg,-1
168114.jpg,-1
168116.jpg,-1
168125.jpg,-1
168133.jpg,-1
168139.jpg,-1
168150.jpg,-1
168155.jpg,-1
168159.jpg,-1
168161.jpg,-1
168164.jpg,-1
168165.jpg,-1
168170.jpg,-1
168172.jpg,-1
168173.jpg,-1
168189.jpg,-1
168191.jpg,-1
168192.jpg,-1
168193.jpg,-1
168196.jpg,-1
168199.jpg,-1
168200.jpg,-1
168203.jpg,-1
168204.jpg,-1
168206.jpg,-1
168219.jpg,-1
168228.jpg,-1
168229.jpg,-1
168234.jpg,-1
168237.jpg,-1
168242.jpg,-1
168249.jpg,-1
168250.jpg,-1
168253.jpg,-1
168256.jpg,-1
168258.jpg,-1
168267.jpg,-1
168268.jpg,-1
168269.jpg,-1
168271.jpg,-1
168275.jpg,-1
168277.jpg,-1
168281.jpg,-1
168283.jpg,-1
168284.jpg,-1
168285.jpg,-1
168287.jpg,-1
168290.jpg,-1
168293.jpg,-1
168305.jpg,-1
168306.jpg,-1
168313.jpg,-1
168317.jpg,-1
168319.jpg,-1
168329.jpg,-1
168330.jpg,-1
168339.jpg,-1
168342.jpg,-1
168346.jpg,-1
168348.jpg,-1
168352.jpg,-1
168355.jpg,-1
168357.jpg,-1
168367.jpg,-1
168375.jpg,-1
168376.jpg,-1
168378.jpg,-1
168381.jpg,-1
168392.jpg,-1
168394.jpg,-1
168396.jpg,-1
168398.jpg,-1
168405.jpg,-1
168412.jpg,-1
168416.jpg,-1
168420.jpg,-1
168422.jpg,-1
168430.jpg,-1
168433.jpg,-1
168436.jpg,-1
168437.jpg,-1
168440.jpg,-1
168445.jpg,-1
168446.jpg,-1
168447.jpg,-1
168450.jpg,-1
168453.jpg,-1
168455.jpg,-1
168458.jpg,-1
168459.jpg,-1
168460.jpg,-1
168464.jpg,-1
168465.jpg,-1
168469.jpg,-1
168477.jpg,-1
168483.jpg,-1
168490.jpg,-1
168492.jpg,-1
168495.jpg,-1
168500.jpg,-1
168502.jpg,-1
168504.jpg,-1
168512.jpg,-1
168515.jpg,-1
168517.jpg,-1
168522.jpg,-1
168526.jpg,-1
168533.jpg,-1
168534.jpg,-1
168535.jpg,-1
168538.jpg,-1
168543.jpg,-1
168554.jpg,-1
168558.jpg,-1
168564.jpg,-1
168566.jpg,-1
168580.jpg,-1
168582.jpg,-1
168585.jpg,-1
168586.jpg,-1
168589.jpg,-1
168591.jpg,-1
168592.jpg,-1
168597.jpg,-1
168599.jpg,-1
168601.jpg,-1
168605.jpg,-1
168606.jpg,-1
168607.jpg,-1
168608.jpg,-1
168612.jpg,-1
168613.jpg,-1
168616.jpg,-1
168617.jpg,-1
168622.jpg,-1
168628.jpg,-1
168629.jpg,-1
168633.jpg,-1
168637.jpg,-1
168638.jpg,-1
168648.jpg,-1
168650.jpg,-1
168653.jpg,-1
168657.jpg,-1
168669.jpg,-1
168670.jpg,-1
168671.jpg,-1
168672.jpg,-1
168675.jpg,-1
168684.jpg,-1
168693.jpg,-1
168700.jpg,-1
168707.jpg,-1
168708.jpg,-1
168709.jpg,-1
168710.jpg,-1
168720.jpg,-1
168725.jpg,-1
168728.jpg,-1
168730.jpg,-1
168733.jpg,-1
168737.jpg,-1
168738.jpg,-1
168743.jpg,-1
168745.jpg,-1
168746.jpg,-1
168763.jpg,-1
168770.jpg,-1
168774.jpg,-1
168776.jpg,-1
168780.jpg,-1
168781.jpg,-1
168783.jpg,-1
168786.jpg,-1
168799.jpg,-1
168803.jpg,-1
168810.jpg,-1
168817.jpg,-1
168822.jpg,-1
168828.jpg,-1
168834.jpg,-1
168840.jpg,-1
168841.jpg,-1
168842.jpg,-1
168845.jpg,-1
168848.jpg,-1
168852.jpg,-1
168853.jpg,-1
168860.jpg,-1
168862.jpg,-1
168866.jpg,-1
168869.jpg,-1
168870.jpg,-1
168873.jpg,-1
168885.jpg,-1
168888.jpg,-1
168890.jpg,-1
168891.jpg,-1
168892.jpg,-1
168893.jpg,-1
168898.jpg,-1
168899.jpg,-1
168902.jpg,-1
168907.jpg,-1
168915.jpg,-1
168916.jpg,-1
168920.jpg,-1
168928.jpg,-1
168940.jpg,-1
168948.jpg,-1
168951.jpg,-1
168957.jpg,-1
168958.jpg,-1
168960.jpg,-1
168963.jpg,-1
168968.jpg,-1
168969.jpg,-1
168973.jpg,-1
168974.jpg,-1
168975.jpg,-1
168976.jpg,-1
168986.jpg,-1
168987.jpg,-1
168997.jpg,-1
168999.jpg,-1
169001.jpg,-1
169006.jpg,-1
169010.jpg,-1
169015.jpg,-1
169018.jpg,-1
169025.jpg,-1
169029.jpg,-1
169035.jpg,-1
169037.jpg,-1
169039.jpg,-1
169044.jpg,-1
169045.jpg,-1
169047.jpg,-1
169056.jpg,-1
169067.jpg,-1
169072.jpg,-1
169075.jpg,-1
169083.jpg,-1
169089.jpg,-1
169092.jpg,-1
169097.jpg,-1
169099.jpg,-1
169108.jpg,-1
169111.jpg,-1
169113.jpg,-1
169115.jpg,-1
169116.jpg,-1
169118.jpg,-1
169120.jpg,-1
169129.jpg,-1
169132.jpg,-1
169137.jpg,-1
169143.jpg,-1
169145.jpg,-1
169147.jpg,-1
169148.jpg,-1
169156.jpg,-1
169163.jpg,-1
169165.jpg,-1
169170.jpg,-1
169173.jpg,-1
169174.jpg,-1
169175.jpg,-1
169177.jpg,-1
169178.jpg,-1
169179.jpg,-1
169180.jpg,-1
169181.jpg,-1
169185.jpg,-1
169186.jpg,-1
169187.jpg,-1
169188.jpg,-1
169189.jpg,-1
169195.jpg,-1
169197.jpg,-1
169207.jpg,-1
169212.jpg,-1
169214.jpg,-1
169222.jpg,-1
169224.jpg,-1
169228.jpg,-1
169231.jpg,-1
169232.jpg,-1
169233.jpg,-1
169235.jpg,-1
169236.jpg,-1
169237.jpg,-1
169239.jpg,-1
169240.jpg,-1
169243.jpg,-1
169244.jpg,-1
169248.jpg,-1
169249.jpg,-1
169256.jpg,-1
169257.jpg,-1
169258.jpg,-1
169260.jpg,-1
169267.jpg,-1
169269.jpg,-1
169288.jpg,-1
169300.jpg,-1
169301.jpg,-1
169303.jpg,-1
169307.jpg,-1
169309.jpg,-1
169322.jpg,-1
169327.jpg,-1
169331.jpg,-1
169333.jpg,-1
169345.jpg,-1
169347.jpg,-1
169348.jpg,-1
169350.jpg,-1
169353.jpg,-1
169356.jpg,-1
169357.jpg,-1
169361.jpg,-1
169366.jpg,-1
169368.jpg,-1
169373.jpg,-1
169375.jpg,-1
169379.jpg,-1
169382.jpg,-1
169384.jpg,-1
169385.jpg,-1
169388.jpg,-1
169396.jpg,-1
169397.jpg,-1
169398.jpg,-1
169401.jpg,-1
169406.jpg,-1
169416.jpg,-1
169419.jpg,-1
169439.jpg,-1
169447.jpg,-1
169452.jpg,-1
169455.jpg,-1
169456.jpg,-1
169459.jpg,-1
169461.jpg,-1
169463.jpg,-1
169465.jpg,-1
169487.jpg,-1
169489.jpg,-1
169490.jpg,-1
169493.jpg,-1
169497.jpg,-1
169510.jpg,-1
169517.jpg,-1
169520.jpg,-1
169523.jpg,-1
169525.jpg,-1
169527.jpg,-1
169528.jpg,-1
169538.jpg,-1
169539.jpg,-1
169548.jpg,-1
169554.jpg,-1
169556.jpg,-1
169558.jpg,-1
169563.jpg,-1
169569.jpg,-1
169571.jpg,-1
169575.jpg,-1
169582.jpg,-1
169591.jpg,-1
169601.jpg,-1
169604.jpg,-1
169605.jpg,-1
169607.jpg,-1
169608.jpg,-1
169612.jpg,-1
169613.jpg,-1
169619.jpg,-1
169622.jpg,-1
169637.jpg,-1
169639.jpg,-1
169644.jpg,-1
169647.jpg,-1
169658.jpg,-1
169664.jpg,-1
169670.jpg,-1
169671.jpg,-1
169672.jpg,-1
169674.jpg,-1
169675.jpg,-1
169677.jpg,-1
169686.jpg,-1
169690.jpg,-1
169695.jpg,-1
169698.jpg,-1
169704.jpg,-1
169705.jpg,-1
169709.jpg,-1
169713.jpg,-1
169715.jpg,-1
169717.jpg,-1
169718.jpg,-1
169720.jpg,-1
169727.jpg,-1
169729.jpg,-1
169732.jpg,-1
169734.jpg,-1
169735.jpg,-1
169738.jpg,-1
169742.jpg,-1
169746.jpg,-1
169747.jpg,-1
169757.jpg,-1
169763.jpg,-1
169773.jpg,-1
169777.jpg,-1
169780.jpg,-1
169782.jpg,-1
169784.jpg,-1
169787.jpg,-1
169789.jpg,-1
169790.jpg,-1
169794.jpg,-1
169796.jpg,-1
169803.jpg,-1
169808.jpg,-1
169811.jpg,-1
169812.jpg,-1
169814.jpg,-1
169815.jpg,-1
169819.jpg,-1
169824.jpg,-1
169827.jpg,-1
169838.jpg,-1
169846.jpg,-1
169847.jpg,-1
169848.jpg,-1
169854.jpg,-1
169855.jpg,-1
169858.jpg,-1
169862.jpg,-1
169863.jpg,-1
169867.jpg,-1
169870.jpg,-1
169877.jpg,-1
169901.jpg,-1
169903.jpg,-1
169909.jpg,-1
169910.jpg,-1
169920.jpg,-1
169921.jpg,-1
169923.jpg,-1
169928.jpg,-1
169931.jpg,-1
169932.jpg,-1
169933.jpg,-1
169942.jpg,-1
169943.jpg,-1
169947.jpg,-1
169948.jpg,-1
169958.jpg,-1
169973.jpg,-1
169974.jpg,-1
169979.jpg,-1
169981.jpg,-1
169983.jpg,-1
169992.jpg,-1
169997.jpg,-1
170001.jpg,-1
170010.jpg,-1
170012.jpg,-1
170014.jpg,-1
170017.jpg,-1
170018.jpg,-1
170021.jpg,-1
170025.jpg,-1
170029.jpg,-1
170033.jpg,-1
170037.jpg,-1
170038.jpg,-1
170043.jpg,-1
170045.jpg,-1
170048.jpg,-1
170050.jpg,-1
170055.jpg,-1
170057.jpg,-1
170062.jpg,-1
170067.jpg,-1
170068.jpg,-1
170070.jpg,-1
170073.jpg,-1
170083.jpg,-1
170085.jpg,-1
170088.jpg,-1
170095.jpg,-1
170096.jpg,-1
170109.jpg,-1
170110.jpg,-1
170111.jpg,-1
170112.jpg,-1
170115.jpg,-1
170119.jpg,-1
170121.jpg,-1
170124.jpg,-1
170125.jpg,-1
170134.jpg,-1
170138.jpg,-1
170143.jpg,-1
170163.jpg,-1
170169.jpg,-1
170181.jpg,-1
170182.jpg,-1
170186.jpg,-1
170188.jpg,-1
170191.jpg,-1
170194.jpg,-1
170202.jpg,-1
170204.jpg,-1
170206.jpg,-1
170208.jpg,-1
170209.jpg,-1
170213.jpg,-1
170215.jpg,-1
170220.jpg,-1
170230.jpg,-1
170231.jpg,-1
170239.jpg,-1
170246.jpg,-1
170251.jpg,-1
170252.jpg,-1
170254.jpg,-1
170260.jpg,-1
170261.jpg,-1
170262.jpg,-1
170268.jpg,-1
170269.jpg,-1
170279.jpg,-1
170281.jpg,-1
170282.jpg,-1
170288.jpg,-1
170290.jpg,-1
170292.jpg,-1
170295.jpg,-1
170296.jpg,-1
170310.jpg,-1
170311.jpg,-1
170317.jpg,-1
170326.jpg,-1
170328.jpg,-1
170329.jpg,-1
170334.jpg,-1
170336.jpg,-1
170342.jpg,-1
170354.jpg,-1
170359.jpg,-1
170367.jpg,-1
170368.jpg,-1
170372.jpg,-1
170374.jpg,-1
170375.jpg,-1
170379.jpg,-1
170380.jpg,-1
170383.jpg,-1
170384.jpg,-1
170385.jpg,-1
170387.jpg,-1
170388.jpg,-1
170392.jpg,-1
170395.jpg,-1
170396.jpg,-1
170398.jpg,-1
170403.jpg,-1
170406.jpg,-1
170410.jpg,-1
170414.jpg,-1
170437.jpg,-1
170441.jpg,-1
170445.jpg,-1
170446.jpg,-1
170448.jpg,-1
170452.jpg,-1
170455.jpg,-1
170464.jpg,-1
170476.jpg,-1
170480.jpg,-1
170492.jpg,-1
170495.jpg,-1
170497.jpg,-1
170502.jpg,-1
170504.jpg,-1
170505.jpg,-1
170509.jpg,-1
170517.jpg,-1
170519.jpg,-1
170523.jpg,-1
170527.jpg,-1
170530.jpg,-1
170532.jpg,-1
170536.jpg,-1
170540.jpg,-1
170542.jpg,-1
170548.jpg,-1
170549.jpg,-1
170552.jpg,-1
170553.jpg,-1
170558.jpg,-1
170560.jpg,-1
170562.jpg,-1
170563.jpg,-1
170564.jpg,-1
170566.jpg,-1
170568.jpg,-1
170575.jpg,-1
170582.jpg,-1
170591.jpg,-1
170592.jpg,-1
170596.jpg,-1
170607.jpg,-1
170612.jpg,-1
170615.jpg,-1
170617.jpg,-1
170618.jpg,-1
170619.jpg,-1
170620.jpg,-1
170625.jpg,-1
170629.jpg,-1
170633.jpg,-1
170637.jpg,-1
170654.jpg,-1
170658.jpg,-1
170659.jpg,-1
170674.jpg,-1
170680.jpg,-1
170682.jpg,-1
170687.jpg,-1
170692.jpg,-1
170694.jpg,-1
170695.jpg,-1
170698.jpg,-1
170701.jpg,-1
170705.jpg,-1
170706.jpg,-1
170708.jpg,-1
170709.jpg,-1
170710.jpg,-1
170711.jpg,-1
170716.jpg,-1
170719.jpg,-1
170723.jpg,-1
170729.jpg,-1
170732.jpg,-1
170735.jpg,-1
170738.jpg,-1
170739.jpg,-1
170741.jpg,-1
170742.jpg,-1
170744.jpg,-1
170746.jpg,-1
170749.jpg,-1
170760.jpg,-1
170768.jpg,-1
170772.jpg,-1
170777.jpg,-1
170779.jpg,-1
170783.jpg,-1
170784.jpg,-1
170791.jpg,-1
170792.jpg,-1
170793.jpg,-1
170794.jpg,-1
170796.jpg,-1
170799.jpg,-1
170801.jpg,-1
170803.jpg,-1
170805.jpg,-1
170807.jpg,-1
170811.jpg,-1
170812.jpg,-1
170815.jpg,-1
170817.jpg,-1
170818.jpg,-1
170827.jpg,-1
170830.jpg,-1
170838.jpg,-1
170839.jpg,-1
170841.jpg,-1
170845.jpg,-1
170848.jpg,-1
170855.jpg,-1
170864.jpg,-1
170868.jpg,-1
170870.jpg,-1
170881.jpg,-1
170885.jpg,-1
170887.jpg,-1
170888.jpg,-1
170892.jpg,-1
170897.jpg,-1
170899.jpg,-1
170906.jpg,-1
170911.jpg,-1
170923.jpg,-1
170932.jpg,-1
170933.jpg,-1
170934.jpg,-1
170935.jpg,-1
170936.jpg,-1
170937.jpg,-1
170942.jpg,-1
170943.jpg,-1
170946.jpg,-1
170959.jpg,-1
170961.jpg,-1
170965.jpg,-1
170971.jpg,-1
170975.jpg,-1
170979.jpg,-1
170981.jpg,-1
170986.jpg,-1
170987.jpg,-1
170989.jpg,-1
171000.jpg,-1
171001.jpg,-1
171002.jpg,-1
171004.jpg,-1
171005.jpg,-1
171006.jpg,-1
171008.jpg,-1
171011.jpg,-1
171014.jpg,-1
171016.jpg,-1
171020.jpg,-1
171022.jpg,-1
171023.jpg,-1
171027.jpg,-1
171030.jpg,-1
171031.jpg,-1
171032.jpg,-1
171035.jpg,-1
171039.jpg,-1
171047.jpg,-1
171050.jpg,-1
171052.jpg,-1
171058.jpg,-1
171065.jpg,-1
171069.jpg,-1
171070.jpg,-1
171073.jpg,-1
171076.jpg,-1
171080.jpg,-1
171085.jpg,-1
171086.jpg,-1
171090.jpg,-1
171093.jpg,-1
171097.jpg,-1
171099.jpg,-1
171103.jpg,-1
171109.jpg,-1
171112.jpg,-1
171114.jpg,-1
171115.jpg,-1
171119.jpg,-1
171146.jpg,-1
171147.jpg,-1
171152.jpg,-1
171159.jpg,-1
171167.jpg,-1
171170.jpg,-1
171181.jpg,-1
171188.jpg,-1
171193.jpg,-1
171200.jpg,-1
171205.jpg,-1
171206.jpg,-1
171207.jpg,-1
171216.jpg,-1
171218.jpg,-1
171222.jpg,-1
171223.jpg,-1
171228.jpg,-1
171230.jpg,-1
171231.jpg,-1
171234.jpg,-1
171235.jpg,-1
171238.jpg,-1
171243.jpg,-1
171257.jpg,-1
171259.jpg,-1
171264.jpg,-1
171265.jpg,-1
171267.jpg,-1
171281.jpg,-1
171285.jpg,-1
171288.jpg,-1
171289.jpg,-1
171292.jpg,-1
171293.jpg,-1
171298.jpg,-1
171299.jpg,-1
171302.jpg,-1
171304.jpg,-1
171307.jpg,-1
171309.jpg,-1
171311.jpg,-1
171314.jpg,-1
171317.jpg,-1
171320.jpg,-1
171322.jpg,-1
171323.jpg,-1
171324.jpg,-1
171326.jpg,-1
171328.jpg,-1
171333.jpg,-1
171337.jpg,-1
171340.jpg,-1
171349.jpg,-1
171358.jpg,-1
171361.jpg,-1
171367.jpg,-1
171375.jpg,-1
171376.jpg,-1
171377.jpg,-1
171378.jpg,-1
171390.jpg,-1
171392.jpg,-1
171401.jpg,-1
171403.jpg,-1
171409.jpg,-1
171413.jpg,-1
171416.jpg,-1
171417.jpg,-1
171418.jpg,-1
171419.jpg,-1
171420.jpg,-1
171422.jpg,-1
171426.jpg,-1
171428.jpg,-1
171429.jpg,-1
171431.jpg,-1
171438.jpg,-1
171444.jpg,-1
171447.jpg,-1
171456.jpg,-1
171462.jpg,-1
171470.jpg,-1
171482.jpg,-1
171484.jpg,-1
171491.jpg,-1
171492.jpg,-1
171495.jpg,-1
171498.jpg,-1
171504.jpg,-1
171505.jpg,-1
171507.jpg,-1
171510.jpg,-1
171519.jpg,-1
171522.jpg,-1
171525.jpg,-1
171529.jpg,-1
171538.jpg,-1
171542.jpg,-1
171544.jpg,-1
171545.jpg,-1
171552.jpg,-1
171553.jpg,-1
171564.jpg,-1
171565.jpg,-1
171568.jpg,-1
171569.jpg,-1
171571.jpg,-1
171589.jpg,-1
171591.jpg,-1
171593.jpg,-1
171594.jpg,-1
171606.jpg,-1
171608.jpg,-1
171612.jpg,-1
171613.jpg,-1
171615.jpg,-1
171616.jpg,-1
171620.jpg,-1
171624.jpg,-1
171627.jpg,-1
171632.jpg,-1
171633.jpg,-1
171634.jpg,-1
171636.jpg,-1
171641.jpg,-1
171643.jpg,-1
171644.jpg,-1
171646.jpg,-1
171661.jpg,-1
171662.jpg,-1
171664.jpg,-1
171667.jpg,-1
171670.jpg,-1
171673.jpg,-1
171678.jpg,-1
171694.jpg,-1
171696.jpg,-1
171697.jpg,-1
171700.jpg,-1
171707.jpg,-1
171708.jpg,-1
171710.jpg,-1
171714.jpg,-1
171718.jpg,-1
171724.jpg,-1
171726.jpg,-1
171727.jpg,-1
171729.jpg,-1
171739.jpg,-1
171742.jpg,-1
171745.jpg,-1
171746.jpg,-1
171747.jpg,-1
171757.jpg,-1
171760.jpg,-1
171761.jpg,-1
171763.jpg,-1
171765.jpg,-1
171773.jpg,-1
171776.jpg,-1
171781.jpg,-1
171787.jpg,-1
171804.jpg,-1
171805.jpg,-1
171807.jpg,-1
171811.jpg,-1
171814.jpg,-1
171815.jpg,-1
171817.jpg,-1
171820.jpg,-1
171825.jpg,-1
171834.jpg,-1
171835.jpg,-1
171836.jpg,-1
171837.jpg,-1
171839.jpg,-1
171843.jpg,-1
171846.jpg,-1
171847.jpg,-1
171851.jpg,-1
171859.jpg,-1
171866.jpg,-1
171871.jpg,-1
171873.jpg,-1
171879.jpg,-1
171880.jpg,-1
171881.jpg,-1
171884.jpg,-1
171886.jpg,-1
171887.jpg,-1
171890.jpg,-1
171891.jpg,-1
171897.jpg,-1
171898.jpg,-1
171905.jpg,-1
171913.jpg,-1
171915.jpg,-1
171918.jpg,-1
171919.jpg,-1
171924.jpg,-1
171935.jpg,-1
171941.jpg,-1
171952.jpg,-1
171954.jpg,-1
171955.jpg,-1
171958.jpg,-1
171966.jpg,-1
171975.jpg,-1
171978.jpg,-1
171979.jpg,-1
171984.jpg,-1
171986.jpg,-1
171987.jpg,-1
171990.jpg,-1
171998.jpg,-1
172001.jpg,-1
172002.jpg,-1
172008.jpg,-1
172012.jpg,-1
172018.jpg,-1
172024.jpg,-1
172025.jpg,-1
172030.jpg,-1
172031.jpg,-1
172033.jpg,-1
172034.jpg,-1
172035.jpg,-1
172038.jpg,-1
172041.jpg,-1
172042.jpg,-1
172046.jpg,-1
172050.jpg,-1
172054.jpg,-1
172068.jpg,-1
172070.jpg,-1
172079.jpg,-1
172082.jpg,-1
172083.jpg,-1
172088.jpg,-1
172090.jpg,-1
172092.jpg,-1
172093.jpg,-1
172097.jpg,-1
172098.jpg,-1
172101.jpg,-1
172102.jpg,-1
172110.jpg,-1
172112.jpg,-1
172119.jpg,-1
172125.jpg,-1
172128.jpg,-1
172133.jpg,-1
172134.jpg,-1
172135.jpg,-1
172136.jpg,-1
172140.jpg,-1
172143.jpg,-1
172146.jpg,-1
172154.jpg,-1
172155.jpg,-1
172157.jpg,-1
172161.jpg,-1
172162.jpg,-1
172165.jpg,-1
172166.jpg,-1
172167.jpg,-1
172173.jpg,-1
172174.jpg,-1
172178.jpg,-1
172179.jpg,-1
172183.jpg,-1
172185.jpg,-1
172188.jpg,-1
172189.jpg,-1
172192.jpg,-1
172194.jpg,-1
172199.jpg,-1
172204.jpg,-1
172206.jpg,-1
172208.jpg,-1
172210.jpg,-1
172217.jpg,-1
172222.jpg,-1
172225.jpg,-1
172226.jpg,-1
172228.jpg,-1
172229.jpg,-1
172230.jpg,-1
172232.jpg,-1
172234.jpg,-1
172238.jpg,-1
172239.jpg,-1
172241.jpg,-1
172246.jpg,-1
172249.jpg,-1
172255.jpg,-1
172265.jpg,-1
172266.jpg,-1
172269.jpg,-1
172271.jpg,-1
172275.jpg,-1
172279.jpg,-1
172283.jpg,-1
172287.jpg,-1
172290.jpg,-1
172297.jpg,-1
172299.jpg,-1
172303.jpg,-1
172315.jpg,-1
172319.jpg,-1
172320.jpg,-1
172322.jpg,-1
172324.jpg,-1
172325.jpg,-1
172326.jpg,-1
172330.jpg,-1
172332.jpg,-1
172334.jpg,-1
172341.jpg,-1
172342.jpg,-1
172344.jpg,-1
172345.jpg,-1
172347.jpg,-1
172348.jpg,-1
172369.jpg,-1
172376.jpg,-1
172378.jpg,-1
172379.jpg,-1
172384.jpg,-1
172387.jpg,-1
172389.jpg,-1
172390.jpg,-1
172396.jpg,-1
172397.jpg,-1
172398.jpg,-1
172401.jpg,-1
172403.jpg,-1
172417.jpg,-1
172418.jpg,-1
172423.jpg,-1
172429.jpg,-1
172431.jpg,-1
172438.jpg,-1
172441.jpg,-1
172444.jpg,-1
172453.jpg,-1
172454.jpg,-1
172455.jpg,-1
172459.jpg,-1
172460.jpg,-1
172468.jpg,-1
172471.jpg,-1
172487.jpg,-1
172490.jpg,-1
172496.jpg,-1
172510.jpg,-1
172512.jpg,-1
172513.jpg,-1
172527.jpg,-1
172528.jpg,-1
172532.jpg,-1
172534.jpg,-1
172536.jpg,-1
172538.jpg,-1
172543.jpg,-1
172545.jpg,-1
172554.jpg,-1
172558.jpg,-1
172560.jpg,-1
172561.jpg,-1
172562.jpg,-1
172569.jpg,-1
172575.jpg,-1
172588.jpg,-1
172593.jpg,-1
172594.jpg,-1
172595.jpg,-1
172596.jpg,-1
172602.jpg,-1
172608.jpg,-1
172613.jpg,-1
172619.jpg,-1
172627.jpg,-1
172628.jpg,-1
172629.jpg,-1
172630.jpg,-1
172631.jpg,-1
172637.jpg,-1
172640.jpg,-1
172641.jpg,-1
172644.jpg,-1
172648.jpg,-1
172650.jpg,-1
172651.jpg,-1
172653.jpg,-1
172656.jpg,-1
172658.jpg,-1
172660.jpg,-1
172661.jpg,-1
172663.jpg,-1
172667.jpg,-1
172671.jpg,-1
172673.jpg,-1
172677.jpg,-1
172679.jpg,-1
172685.jpg,-1
172690.jpg,-1
172696.jpg,-1
172698.jpg,-1
172701.jpg,-1
172707.jpg,-1
172708.jpg,-1
172712.jpg,-1
172713.jpg,-1
172722.jpg,-1
172724.jpg,-1
172742.jpg,-1
172743.jpg,-1
172753.jpg,-1
172757.jpg,-1
172760.jpg,-1
172763.jpg,-1
172765.jpg,-1
172766.jpg,-1
172768.jpg,-1
172771.jpg,-1
172775.jpg,-1
172776.jpg,-1
172779.jpg,-1
172783.jpg,-1
172793.jpg,-1
172795.jpg,-1
172802.jpg,-1
172805.jpg,-1
172806.jpg,-1
172807.jpg,-1
172812.jpg,-1
172815.jpg,-1
172827.jpg,-1
172829.jpg,-1
172833.jpg,-1
172834.jpg,-1
172842.jpg,-1
172847.jpg,-1
172851.jpg,-1
172863.jpg,-1
172866.jpg,-1
172868.jpg,-1
172869.jpg,-1
172873.jpg,-1
172879.jpg,-1
172887.jpg,-1
172890.jpg,-1
172891.jpg,-1
172893.jpg,-1
172894.jpg,-1
172901.jpg,-1
172903.jpg,-1
172904.jpg,-1
172917.jpg,-1
172918.jpg,-1
172920.jpg,-1
172922.jpg,-1
172926.jpg,-1
172939.jpg,-1
172946.jpg,-1
172950.jpg,-1
172958.jpg,-1
172960.jpg,-1
172962.jpg,-1
172965.jpg,-1
172969.jpg,-1
172971.jpg,-1
172972.jpg,-1
172977.jpg,-1
172981.jpg,-1
172983.jpg,-1
172987.jpg,-1
172992.jpg,-1
173001.jpg,-1
173003.jpg,-1
173004.jpg,-1
173005.jpg,-1
173007.jpg,-1
173008.jpg,-1
173010.jpg,-1
173011.jpg,-1
173013.jpg,-1
173015.jpg,-1
173023.jpg,-1
173027.jpg,-1
173028.jpg,-1
173032.jpg,-1
173034.jpg,-1
173037.jpg,-1
173039.jpg,-1
173049.jpg,-1
173051.jpg,-1
173057.jpg,-1
173060.jpg,-1
173061.jpg,-1
173062.jpg,-1
173063.jpg,-1
173070.jpg,-1
173072.jpg,-1
173079.jpg,-1
173080.jpg,-1
173081.jpg,-1
173085.jpg,-1
173087.jpg,-1
173096.jpg,-1
173100.jpg,-1
173101.jpg,-1
173111.jpg,-1
173116.jpg,-1
173120.jpg,-1
173121.jpg,-1
173127.jpg,-1
173129.jpg,-1
173132.jpg,-1
173134.jpg,-1
173137.jpg,-1
173139.jpg,-1
173146.jpg,-1
173148.jpg,-1
173149.jpg,-1
173151.jpg,-1
173153.jpg,-1
173156.jpg,-1
173158.jpg,-1
173159.jpg,-1
173171.jpg,-1
173174.jpg,-1
173176.jpg,-1
173181.jpg,-1
173185.jpg,-1
173187.jpg,-1
173195.jpg,-1
173197.jpg,-1
173198.jpg,-1
173206.jpg,-1
173210.jpg,-1
173211.jpg,-1
173214.jpg,-1
173215.jpg,-1
173226.jpg,-1
173227.jpg,-1
173233.jpg,-1
173238.jpg,-1
173240.jpg,-1
173248.jpg,-1
173255.jpg,-1
173264.jpg,-1
173267.jpg,-1
173268.jpg,-1
173269.jpg,-1
173271.jpg,-1
173273.jpg,-1
173275.jpg,-1
173276.jpg,-1
173278.jpg,-1
173279.jpg,-1
173282.jpg,-1
173287.jpg,-1
173293.jpg,-1
173296.jpg,-1
173302.jpg,-1
173309.jpg,-1
173322.jpg,-1
173326.jpg,-1
173333.jpg,-1
173338.jpg,-1
173340.jpg,-1
173344.jpg,-1
173346.jpg,-1
173347.jpg,-1
173353.jpg,-1
173357.jpg,-1
173359.jpg,-1
173362.jpg,-1
173364.jpg,-1
173368.jpg,-1
173370.jpg,-1
173373.jpg,-1
173374.jpg,-1
173382.jpg,-1
173392.jpg,-1
173393.jpg,-1
173399.jpg,-1
173407.jpg,-1
173408.jpg,-1
173417.jpg,-1
173418.jpg,-1
173419.jpg,-1
173420.jpg,-1
173423.jpg,-1
173426.jpg,-1
173427.jpg,-1
173428.jpg,-1
173430.jpg,-1
173433.jpg,-1
173435.jpg,-1
173437.jpg,-1
173439.jpg,-1
173441.jpg,-1
173446.jpg,-1
173449.jpg,-1
173454.jpg,-1
173456.jpg,-1
173457.jpg,-1
173478.jpg,-1
173479.jpg,-1
173481.jpg,-1
173482.jpg,-1
173483.jpg,-1
173484.jpg,-1
173488.jpg,-1
173494.jpg,-1
173513.jpg,-1
173520.jpg,-1
173522.jpg,-1
173524.jpg,-1
173527.jpg,-1
173529.jpg,-1
173532.jpg,-1
173545.jpg,-1
173548.jpg,-1
173551.jpg,-1
173560.jpg,-1
173567.jpg,-1
173568.jpg,-1
173581.jpg,-1
173583.jpg,-1
173605.jpg,-1
173612.jpg,-1
173613.jpg,-1
173614.jpg,-1
173619.jpg,-1
173622.jpg,-1
173624.jpg,-1
173631.jpg,-1
173646.jpg,-1
173653.jpg,-1
173658.jpg,-1
173661.jpg,-1
173668.jpg,-1
173669.jpg,-1
173675.jpg,-1
173680.jpg,-1
173684.jpg,-1
173687.jpg,-1
173694.jpg,-1
173696.jpg,-1
173702.jpg,-1
173703.jpg,-1
173710.jpg,-1
173715.jpg,-1
173719.jpg,-1
173723.jpg,-1
173727.jpg,-1
173730.jpg,-1
173733.jpg,-1
173734.jpg,-1
173738.jpg,-1
173740.jpg,-1
173753.jpg,-1
173755.jpg,-1
173758.jpg,-1
173768.jpg,-1
173769.jpg,-1
173774.jpg,-1
173780.jpg,-1
173784.jpg,-1
173787.jpg,-1
173788.jpg,-1
173791.jpg,-1
173795.jpg,-1
173800.jpg,-1
173803.jpg,-1
173805.jpg,-1
173817.jpg,-1
173819.jpg,-1
173820.jpg,-1
173828.jpg,-1
173830.jpg,-1
173836.jpg,-1
173838.jpg,-1
173848.jpg,-1
173852.jpg,-1
173854.jpg,-1
173861.jpg,-1
173865.jpg,-1
173867.jpg,-1
173874.jpg,-1
173885.jpg,-1
173894.jpg,-1
173898.jpg,-1
173900.jpg,-1
173901.jpg,-1
173906.jpg,-1
173909.jpg,-1
173912.jpg,-1
173916.jpg,-1
173917.jpg,-1
173924.jpg,-1
173929.jpg,-1
173933.jpg,-1
173935.jpg,-1
173943.jpg,-1
173948.jpg,-1
173958.jpg,-1
173970.jpg,-1
173971.jpg,-1
173972.jpg,-1
173973.jpg,-1
173977.jpg,-1
173978.jpg,-1
173979.jpg,-1
173989.jpg,-1
173999.jpg,-1
174004.jpg,-1
174015.jpg,-1
174021.jpg,-1
174027.jpg,-1
174028.jpg,-1
174029.jpg,-1
174048.jpg,-1
174050.jpg,-1
174051.jpg,-1
174052.jpg,-1
174071.jpg,-1
174074.jpg,-1
174076.jpg,-1
174077.jpg,-1
174082.jpg,-1
174083.jpg,-1
174085.jpg,-1
174093.jpg,-1
174099.jpg,-1
174103.jpg,-1
174104.jpg,-1
174107.jpg,-1
174108.jpg,-1
174116.jpg,-1
174118.jpg,-1
174125.jpg,-1
174127.jpg,-1
174128.jpg,-1
174129.jpg,-1
174130.jpg,-1
174139.jpg,-1
174142.jpg,-1
174143.jpg,-1
174149.jpg,-1
174152.jpg,-1
174153.jpg,-1
174155.jpg,-1
174157.jpg,-1
174172.jpg,-1
174174.jpg,-1
174177.jpg,-1
174179.jpg,-1
174180.jpg,-1
174181.jpg,-1
174186.jpg,-1
174193.jpg,-1
174197.jpg,-1
174198.jpg,-1
174200.jpg,-1
174208.jpg,-1
174212.jpg,-1
174213.jpg,-1
174219.jpg,-1
174221.jpg,-1
174222.jpg,-1
174224.jpg,-1
174227.jpg,-1
174228.jpg,-1
174230.jpg,-1
174231.jpg,-1
174234.jpg,-1
174235.jpg,-1
174241.jpg,-1
174246.jpg,-1
174251.jpg,-1
174252.jpg,-1
174260.jpg,-1
174262.jpg,-1
174264.jpg,-1
174273.jpg,-1
174275.jpg,-1
174280.jpg,-1
174281.jpg,-1
174285.jpg,-1
174291.jpg,-1
174292.jpg,-1
174297.jpg,-1
174299.jpg,-1
174309.jpg,-1
174310.jpg,-1
174311.jpg,-1
174312.jpg,-1
174318.jpg,-1
174319.jpg,-1
174321.jpg,-1
174332.jpg,-1
174335.jpg,-1
174336.jpg,-1
174338.jpg,-1
174339.jpg,-1
174340.jpg,-1
174341.jpg,-1
174345.jpg,-1
174347.jpg,-1
174348.jpg,-1
174352.jpg,-1
174353.jpg,-1
174359.jpg,-1
174365.jpg,-1
174376.jpg,-1
174378.jpg,-1
174379.jpg,-1
174382.jpg,-1
174386.jpg,-1
174387.jpg,-1
174391.jpg,-1
174394.jpg,-1
174395.jpg,-1
174398.jpg,-1
174406.jpg,-1
174417.jpg,-1
174420.jpg,-1
174422.jpg,-1
174423.jpg,-1
174431.jpg,-1
174435.jpg,-1
174436.jpg,-1
174442.jpg,-1
174443.jpg,-1
174446.jpg,-1
174449.jpg,-1
174452.jpg,-1
174454.jpg,-1
174460.jpg,-1
174461.jpg,-1
174462.jpg,-1
174463.jpg,-1
174464.jpg,-1
174465.jpg,-1
174466.jpg,-1
174473.jpg,-1
174480.jpg,-1
174487.jpg,-1
174490.jpg,-1
174491.jpg,-1
174492.jpg,-1
174499.jpg,-1
174507.jpg,-1
174512.jpg,-1
174514.jpg,-1
174523.jpg,-1
174525.jpg,-1
174526.jpg,-1
174529.jpg,-1
174531.jpg,-1
174532.jpg,-1
174535.jpg,-1
174538.jpg,-1
174542.jpg,-1
174544.jpg,-1
174547.jpg,-1
174550.jpg,-1
174556.jpg,-1
174559.jpg,-1
174565.jpg,-1
174567.jpg,-1
174568.jpg,-1
174570.jpg,-1
174573.jpg,-1
174578.jpg,-1
174584.jpg,-1
174587.jpg,-1
174588.jpg,-1
174590.jpg,-1
174601.jpg,-1
174605.jpg,-1
174608.jpg,-1
174610.jpg,-1
174611.jpg,-1
174612.jpg,-1
174615.jpg,-1
174618.jpg,-1
174630.jpg,-1
174632.jpg,-1
174634.jpg,-1
174641.jpg,-1
174643.jpg,-1
174646.jpg,-1
174649.jpg,-1
174656.jpg,-1
174657.jpg,-1
174661.jpg,-1
174663.jpg,-1
174665.jpg,-1
174666.jpg,-1
174675.jpg,-1
174677.jpg,-1
174681.jpg,-1
174687.jpg,-1
174689.jpg,-1
174693.jpg,-1
174699.jpg,-1
174701.jpg,-1
174702.jpg,-1
174703.jpg,-1
174704.jpg,-1
174706.jpg,-1
174708.jpg,-1
174717.jpg,-1
174718.jpg,-1
174720.jpg,-1
174721.jpg,-1
174722.jpg,-1
174725.jpg,-1
174726.jpg,-1
174731.jpg,-1
174734.jpg,-1
174738.jpg,-1
174739.jpg,-1
174740.jpg,-1
174748.jpg,-1
174752.jpg,-1
174753.jpg,-1
174758.jpg,-1
174760.jpg,-1
174763.jpg,-1
174764.jpg,-1
174770.jpg,-1
174772.jpg,-1
174775.jpg,-1
174782.jpg,-1
174790.jpg,-1
174794.jpg,-1
174795.jpg,-1
174809.jpg,-1
174811.jpg,-1
174816.jpg,-1
174822.jpg,-1
174823.jpg,-1
174832.jpg,-1
174835.jpg,-1
174840.jpg,-1
174841.jpg,-1
174842.jpg,-1
174844.jpg,-1
174845.jpg,-1
174847.jpg,-1
174852.jpg,-1
174854.jpg,-1
174857.jpg,-1
174865.jpg,-1
174870.jpg,-1
174873.jpg,-1
174875.jpg,-1
174876.jpg,-1
174880.jpg,-1
174882.jpg,-1
174884.jpg,-1
174893.jpg,-1
174896.jpg,-1
174898.jpg,-1
174901.jpg,-1
174920.jpg,-1
174921.jpg,-1
174923.jpg,-1
174925.jpg,-1
174930.jpg,-1
174932.jpg,-1
174933.jpg,-1
174934.jpg,-1
174938.jpg,-1
174947.jpg,-1
174950.jpg,-1
174952.jpg,-1
174955.jpg,-1
174956.jpg,-1
174959.jpg,-1
174963.jpg,-1
174979.jpg,-1
174980.jpg,-1
174981.jpg,-1
174990.jpg,-1
174991.jpg,-1
174995.jpg,-1
175002.jpg,-1
175004.jpg,-1
175010.jpg,-1
175013.jpg,-1
175022.jpg,-1
175024.jpg,-1
175026.jpg,-1
175035.jpg,-1
175036.jpg,-1
175038.jpg,-1
175041.jpg,-1
175043.jpg,-1
175045.jpg,-1
175047.jpg,-1
175050.jpg,-1
175056.jpg,-1
175058.jpg,-1
175062.jpg,-1
175069.jpg,-1
175073.jpg,-1
175075.jpg,-1
175084.jpg,-1
175085.jpg,-1
175086.jpg,-1
175088.jpg,-1
175091.jpg,-1
175092.jpg,-1
175096.jpg,-1
175099.jpg,-1
175103.jpg,-1
175106.jpg,-1
175108.jpg,-1
175109.jpg,-1
175111.jpg,-1
175113.jpg,-1
175118.jpg,-1
175128.jpg,-1
175131.jpg,-1
175133.jpg,-1
175134.jpg,-1
175138.jpg,-1
175143.jpg,-1
175145.jpg,-1
175151.jpg,-1
175157.jpg,-1
175161.jpg,-1
175163.jpg,-1
175164.jpg,-1
175165.jpg,-1
175166.jpg,-1
175171.jpg,-1
175174.jpg,-1
175182.jpg,-1
175183.jpg,-1
175187.jpg,-1
175190.jpg,-1
175193.jpg,-1
175196.jpg,-1
175203.jpg,-1
175204.jpg,-1
175208.jpg,-1
175211.jpg,-1
175212.jpg,-1
175213.jpg,-1
175215.jpg,-1
175219.jpg,-1
175223.jpg,-1
175226.jpg,-1
175231.jpg,-1
175232.jpg,-1
175234.jpg,-1
175236.jpg,-1
175254.jpg,-1
175255.jpg,-1
175258.jpg,-1
175268.jpg,-1
175270.jpg,-1
175274.jpg,-1
175280.jpg,-1
175282.jpg,-1
175285.jpg,-1
175287.jpg,-1
175299.jpg,-1
175306.jpg,-1
175309.jpg,-1
175310.jpg,-1
175314.jpg,-1
175315.jpg,-1
175317.jpg,-1
175318.jpg,-1
175320.jpg,-1
175333.jpg,-1
175344.jpg,-1
175345.jpg,-1
175348.jpg,-1
175354.jpg,-1
175355.jpg,-1
175357.jpg,-1
175365.jpg,-1
175368.jpg,-1
175369.jpg,-1
175372.jpg,-1
175380.jpg,-1
175382.jpg,-1
175391.jpg,-1
175394.jpg,-1
175400.jpg,-1
175403.jpg,-1
175407.jpg,-1
175411.jpg,-1
175412.jpg,-1
175414.jpg,-1
175418.jpg,-1
175419.jpg,-1
175420.jpg,-1
175425.jpg,-1
175426.jpg,-1
175429.jpg,-1
175435.jpg,-1
175441.jpg,-1
175443.jpg,-1
175444.jpg,-1
175446.jpg,-1
175456.jpg,-1
175459.jpg,-1
175460.jpg,-1
175461.jpg,-1
175464.jpg,-1
175468.jpg,-1
175469.jpg,-1
175473.jpg,-1
175474.jpg,-1
175475.jpg,-1
175477.jpg,-1
175490.jpg,-1
175492.jpg,-1
175499.jpg,-1
175509.jpg,-1
175520.jpg,-1
175521.jpg,-1
175525.jpg,-1
175534.jpg,-1
175536.jpg,-1
175538.jpg,-1
175539.jpg,-1
175540.jpg,-1
175542.jpg,-1
175553.jpg,-1
175557.jpg,-1
175559.jpg,-1
175562.jpg,-1
175567.jpg,-1
175570.jpg,-1
175583.jpg,-1
175584.jpg,-1
175586.jpg,-1
175590.jpg,-1
175592.jpg,-1
175601.jpg,-1
175608.jpg,-1
175612.jpg,-1
175613.jpg,-1
175614.jpg,-1
175621.jpg,-1
175622.jpg,-1
175623.jpg,-1
175625.jpg,-1
175631.jpg,-1
175635.jpg,-1
175638.jpg,-1
175640.jpg,-1
175647.jpg,-1
175653.jpg,-1
175658.jpg,-1
175659.jpg,-1
175662.jpg,-1
175668.jpg,-1
175669.jpg,-1
175672.jpg,-1
175673.jpg,-1
175681.jpg,-1
175682.jpg,-1
175685.jpg,-1
175694.jpg,-1
175695.jpg,-1
175699.jpg,-1
175704.jpg,-1
175705.jpg,-1
175706.jpg,-1
175709.jpg,-1
175716.jpg,-1
175724.jpg,-1
175727.jpg,-1
175737.jpg,-1
175738.jpg,-1
175739.jpg,-1
175741.jpg,-1
175748.jpg,-1
175752.jpg,-1
175755.jpg,-1
175764.jpg,-1
175769.jpg,-1
175773.jpg,-1
175774.jpg,-1
175775.jpg,-1
175776.jpg,-1
175777.jpg,-1
175778.jpg,-1
175790.jpg,-1
175793.jpg,-1
175803.jpg,-1
175804.jpg,-1
175807.jpg,-1
175810.jpg,-1
175812.jpg,-1
175815.jpg,-1
175823.jpg,-1
175825.jpg,-1
175827.jpg,-1
175832.jpg,-1
175837.jpg,-1
175838.jpg,-1
175839.jpg,-1
175842.jpg,-1
175852.jpg,-1
175854.jpg,-1
175857.jpg,-1
175865.jpg,-1
175868.jpg,-1
175869.jpg,-1
175874.jpg,-1
175875.jpg,-1
175877.jpg,-1
175878.jpg,-1
175879.jpg,-1
175880.jpg,-1
175881.jpg,-1
175882.jpg,-1
175885.jpg,-1
175886.jpg,-1
175887.jpg,-1
175889.jpg,-1
175894.jpg,-1
175905.jpg,-1
175908.jpg,-1
175910.jpg,-1
175911.jpg,-1
175912.jpg,-1
175920.jpg,-1
175921.jpg,-1
175928.jpg,-1
175929.jpg,-1
175931.jpg,-1
175932.jpg,-1
175936.jpg,-1
175944.jpg,-1
175946.jpg,-1
175959.jpg,-1
175982.jpg,-1
175983.jpg,-1
175984.jpg,-1
176000.jpg,-1
176004.jpg,-1
176005.jpg,-1
176007.jpg,-1
176008.jpg,-1
176009.jpg,-1
176010.jpg,-1
176015.jpg,-1
176020.jpg,-1
176021.jpg,-1
176023.jpg,-1
176026.jpg,-1
176028.jpg,-1
176037.jpg,-1
176039.jpg,-1
176049.jpg,-1
176083.jpg,-1
176084.jpg,-1
176094.jpg,-1
176100.jpg,-1
176106.jpg,-1
176108.jpg,-1
176121.jpg,-1
176127.jpg,-1
176132.jpg,-1
176135.jpg,-1
176136.jpg,-1
176139.jpg,-1
176147.jpg,-1
176148.jpg,-1
176149.jpg,-1
176150.jpg,-1
176151.jpg,-1
176156.jpg,-1
176165.jpg,-1
176166.jpg,-1
176170.jpg,-1
176172.jpg,-1
176180.jpg,-1
176188.jpg,-1
176192.jpg,-1
176196.jpg,-1
176197.jpg,-1
176201.jpg,-1
176202.jpg,-1
176203.jpg,-1
176205.jpg,-1
176206.jpg,-1
176214.jpg,-1
176215.jpg,-1
176222.jpg,-1
176227.jpg,-1
176231.jpg,-1
176233.jpg,-1
176234.jpg,-1
176238.jpg,-1
176244.jpg,-1
176247.jpg,-1
176250.jpg,-1
176255.jpg,-1
176259.jpg,-1
176262.jpg,-1
176265.jpg,-1
176266.jpg,-1
176269.jpg,-1
176270.jpg,-1
176272.jpg,-1
176273.jpg,-1
176274.jpg,-1
176284.jpg,-1
176286.jpg,-1
176292.jpg,-1
176296.jpg,-1
176300.jpg,-1
176303.jpg,-1
176307.jpg,-1
176311.jpg,-1
176317.jpg,-1
176318.jpg,-1
176334.jpg,-1
176345.jpg,-1
176347.jpg,-1
176351.jpg,-1
176355.jpg,-1
176361.jpg,-1
176366.jpg,-1
176380.jpg,-1
176383.jpg,-1
176384.jpg,-1
176385.jpg,-1
176389.jpg,-1
176395.jpg,-1
176397.jpg,-1
176406.jpg,-1
176407.jpg,-1
176408.jpg,-1
176423.jpg,-1
176425.jpg,-1
176432.jpg,-1
176434.jpg,-1
176439.jpg,-1
176446.jpg,-1
176447.jpg,-1
176458.jpg,-1
176461.jpg,-1
176462.jpg,-1
176464.jpg,-1
176476.jpg,-1
176484.jpg,-1
176485.jpg,-1
176487.jpg,-1
176497.jpg,-1
176500.jpg,-1
176506.jpg,-1
176507.jpg,-1
176509.jpg,-1
176511.jpg,-1
176512.jpg,-1
176513.jpg,-1
176514.jpg,-1
176524.jpg,-1
176529.jpg,-1
176530.jpg,-1
176531.jpg,-1
176532.jpg,-1
176534.jpg,-1
176536.jpg,-1
176539.jpg,-1
176548.jpg,-1
176558.jpg,-1
176559.jpg,-1
176562.jpg,-1
176565.jpg,-1
176567.jpg,-1
176570.jpg,-1
176579.jpg,-1
176583.jpg,-1
176586.jpg,-1
176587.jpg,-1
176594.jpg,-1
176597.jpg,-1
176599.jpg,-1
176602.jpg,-1
176612.jpg,-1
176619.jpg,-1
176623.jpg,-1
176632.jpg,-1
176636.jpg,-1
176637.jpg,-1
176639.jpg,-1
176644.jpg,-1
176646.jpg,-1
176649.jpg,-1
176669.jpg,-1
176677.jpg,-1
176679.jpg,-1
176682.jpg,-1
176694.jpg,-1
176697.jpg,-1
176698.jpg,-1
176703.jpg,-1
176713.jpg,-1
176715.jpg,-1
176718.jpg,-1
176721.jpg,-1
176722.jpg,-1
176730.jpg,-1
176733.jpg,-1
176738.jpg,-1
176747.jpg,-1
176750.jpg,-1
176751.jpg,-1
176759.jpg,-1
176769.jpg,-1
176772.jpg,-1
176773.jpg,-1
176776.jpg,-1
176783.jpg,-1
176790.jpg,-1
176797.jpg,-1
176800.jpg,-1
176805.jpg,-1
176809.jpg,-1
176811.jpg,-1
176814.jpg,-1
176819.jpg,-1
176825.jpg,-1
176831.jpg,-1
176832.jpg,-1
176837.jpg,-1
176841.jpg,-1
176843.jpg,-1
176846.jpg,-1
176861.jpg,-1
176871.jpg,-1
176872.jpg,-1
176875.jpg,-1
176876.jpg,-1
176878.jpg,-1
176881.jpg,-1
176885.jpg,-1
176890.jpg,-1
176892.jpg,-1
176893.jpg,-1
176898.jpg,-1
176901.jpg,-1
176907.jpg,-1
176910.jpg,-1
176915.jpg,-1
176917.jpg,-1
176918.jpg,-1
176921.jpg,-1
176925.jpg,-1
176934.jpg,-1
176937.jpg,-1
176938.jpg,-1
176939.jpg,-1
176941.jpg,-1
176947.jpg,-1
176948.jpg,-1
176949.jpg,-1
176951.jpg,-1
176955.jpg,-1
176956.jpg,-1
176958.jpg,-1
176960.jpg,-1
176961.jpg,-1
176966.jpg,-1
176968.jpg,-1
176984.jpg,-1
176985.jpg,-1
176988.jpg,-1
176991.jpg,-1
176993.jpg,-1
176994.jpg,-1
177002.jpg,-1
177003.jpg,-1
177006.jpg,-1
177008.jpg,-1
177012.jpg,-1
177015.jpg,-1
177020.jpg,-1
177021.jpg,-1
177024.jpg,-1
177025.jpg,-1
177031.jpg,-1
177032.jpg,-1
177035.jpg,-1
177037.jpg,-1
177041.jpg,-1
177045.jpg,-1
177046.jpg,-1
177050.jpg,-1
177055.jpg,-1
177062.jpg,-1
177063.jpg,-1
177064.jpg,-1
177067.jpg,-1
177071.jpg,-1
177075.jpg,-1
177078.jpg,-1
177079.jpg,-1
177082.jpg,-1
177083.jpg,-1
177088.jpg,-1
177089.jpg,-1
177090.jpg,-1
177094.jpg,-1
177099.jpg,-1
177100.jpg,-1
177101.jpg,-1
177106.jpg,-1
177109.jpg,-1
177112.jpg,-1
177126.jpg,-1
177127.jpg,-1
177130.jpg,-1
177133.jpg,-1
177139.jpg,-1
177144.jpg,-1
177149.jpg,-1
177151.jpg,-1
177154.jpg,-1
177158.jpg,-1
177164.jpg,-1
177165.jpg,-1
177170.jpg,-1
177173.jpg,-1
177174.jpg,-1
177182.jpg,-1
177184.jpg,-1
177190.jpg,-1
177192.jpg,-1
177200.jpg,-1
177202.jpg,-1
177203.jpg,-1
177208.jpg,-1
177215.jpg,-1
177219.jpg,-1
177222.jpg,-1
177223.jpg,-1
177225.jpg,-1
177227.jpg,-1
177229.jpg,-1
177232.jpg,-1
177243.jpg,-1
177247.jpg,-1
177250.jpg,-1
177261.jpg,-1
177263.jpg,-1
177265.jpg,-1
177269.jpg,-1
177273.jpg,-1
177274.jpg,-1
177276.jpg,-1
177277.jpg,-1
177281.jpg,-1
177282.jpg,-1
177290.jpg,-1
177294.jpg,-1
177295.jpg,-1
177296.jpg,-1
177297.jpg,-1
177298.jpg,-1
177306.jpg,-1
177313.jpg,-1
177329.jpg,-1
177334.jpg,-1
177335.jpg,-1
177336.jpg,-1
177338.jpg,-1
177340.jpg,-1
177341.jpg,-1
177343.jpg,-1
177348.jpg,-1
177349.jpg,-1
177354.jpg,-1
177356.jpg,-1
177360.jpg,-1
177362.jpg,-1
177368.jpg,-1
177371.jpg,-1
177372.jpg,-1
177380.jpg,-1
177381.jpg,-1
177383.jpg,-1
177393.jpg,-1
177397.jpg,-1
177399.jpg,-1
177400.jpg,-1
177406.jpg,-1
177407.jpg,-1
177416.jpg,-1
177427.jpg,-1
177429.jpg,-1
177430.jpg,-1
177433.jpg,-1
177434.jpg,-1
177435.jpg,-1
177441.jpg,-1
177442.jpg,-1
177445.jpg,-1
177456.jpg,-1
177461.jpg,-1
177466.jpg,-1
177472.jpg,-1
177475.jpg,-1
177476.jpg,-1
177479.jpg,-1
177481.jpg,-1
177486.jpg,-1
177490.jpg,-1
177499.jpg,-1
177507.jpg,-1
177513.jpg,-1
177515.jpg,-1
177518.jpg,-1
177520.jpg,-1
177532.jpg,-1
177534.jpg,-1
177535.jpg,-1
177536.jpg,-1
177537.jpg,-1
177538.jpg,-1
177539.jpg,-1
177544.jpg,-1
177546.jpg,-1
177547.jpg,-1
177548.jpg,-1
177551.jpg,-1
177552.jpg,-1
177556.jpg,-1
177565.jpg,-1
177566.jpg,-1
177570.jpg,-1
177576.jpg,-1
177586.jpg,-1
177589.jpg,-1
177593.jpg,-1
177595.jpg,-1
177596.jpg,-1
177597.jpg,-1
177601.jpg,-1
177604.jpg,-1
177610.jpg,-1
177612.jpg,-1
177615.jpg,-1
177620.jpg,-1
177623.jpg,-1
177625.jpg,-1
177627.jpg,-1
177631.jpg,-1
177632.jpg,-1
177635.jpg,-1
177639.jpg,-1
177640.jpg,-1
177645.jpg,-1
177646.jpg,-1
177652.jpg,-1
177655.jpg,-1
177661.jpg,-1
177662.jpg,-1
177664.jpg,-1
177666.jpg,-1
177669.jpg,-1
177672.jpg,-1
177685.jpg,-1
177686.jpg,-1
177689.jpg,-1
177694.jpg,-1
177695.jpg,-1
177702.jpg,-1
177713.jpg,-1
177727.jpg,-1
177731.jpg,-1
177738.jpg,-1
177759.jpg,-1
177761.jpg,-1
177762.jpg,-1
177771.jpg,-1
177774.jpg,-1
177776.jpg,-1
177780.jpg,-1
177785.jpg,-1
177787.jpg,-1
177789.jpg,-1
177790.jpg,-1
177791.jpg,-1
177794.jpg,-1
177796.jpg,-1
177804.jpg,-1
177808.jpg,-1
177809.jpg,-1
177811.jpg,-1
177813.jpg,-1
177817.jpg,-1
177820.jpg,-1
177829.jpg,-1
177832.jpg,-1
177836.jpg,-1
177838.jpg,-1
177840.jpg,-1
177841.jpg,-1
177843.jpg,-1
177847.jpg,-1
177850.jpg,-1
177851.jpg,-1
177856.jpg,-1
177859.jpg,-1
177862.jpg,-1
177868.jpg,-1
177869.jpg,-1
177871.jpg,-1
177872.jpg,-1
177878.jpg,-1
177883.jpg,-1
177887.jpg,-1
177890.jpg,-1
177892.jpg,-1
177893.jpg,-1
177898.jpg,-1
177899.jpg,-1
177900.jpg,-1
177901.jpg,-1
177902.jpg,-1
177904.jpg,-1
177906.jpg,-1
177907.jpg,-1
177910.jpg,-1
177911.jpg,-1
177913.jpg,-1
177914.jpg,-1
177915.jpg,-1
177916.jpg,-1
177919.jpg,-1
177926.jpg,-1
177927.jpg,-1
177929.jpg,-1
177932.jpg,-1
177934.jpg,-1
177941.jpg,-1
177942.jpg,-1
177945.jpg,-1
177948.jpg,-1
177951.jpg,-1
177953.jpg,-1
177956.jpg,-1
177957.jpg,-1
177961.jpg,-1
177962.jpg,-1
177968.jpg,-1
177971.jpg,-1
177975.jpg,-1
177981.jpg,-1
177989.jpg,-1
177999.jpg,-1
178002.jpg,-1
178005.jpg,-1
178010.jpg,-1
178012.jpg,-1
178015.jpg,-1
178016.jpg,-1
178020.jpg,-1
178023.jpg,-1
178025.jpg,-1
178030.jpg,-1
178031.jpg,-1
178039.jpg,-1
178040.jpg,-1
178045.jpg,-1
178050.jpg,-1
178054.jpg,-1
178055.jpg,-1
178060.jpg,-1
178072.jpg,-1
178073.jpg,-1
178076.jpg,-1
178085.jpg,-1
178089.jpg,-1
178091.jpg,-1
178108.jpg,-1
178112.jpg,-1
178125.jpg,-1
178126.jpg,-1
178129.jpg,-1
178131.jpg,-1
178135.jpg,-1
178140.jpg,-1
178141.jpg,-1
178144.jpg,-1
178145.jpg,-1
178146.jpg,-1
178150.jpg,-1
178152.jpg,-1
178154.jpg,-1
178155.jpg,-1
178156.jpg,-1
178158.jpg,-1
178159.jpg,-1
178173.jpg,-1
178190.jpg,-1
178192.jpg,-1
178193.jpg,-1
178200.jpg,-1
178208.jpg,-1
178214.jpg,-1
178217.jpg,-1
178218.jpg,-1
178221.jpg,-1
178227.jpg,-1
178229.jpg,-1
178231.jpg,-1
178234.jpg,-1
178236.jpg,-1
178242.jpg,-1
178245.jpg,-1
178254.jpg,-1
178258.jpg,-1
178261.jpg,-1
178262.jpg,-1
178268.jpg,-1
178274.jpg,-1
178278.jpg,-1
178284.jpg,-1
178287.jpg,-1
178290.jpg,-1
178291.jpg,-1
178292.jpg,-1
178295.jpg,-1
178300.jpg,-1
178301.jpg,-1
178323.jpg,-1
178326.jpg,-1
178336.jpg,-1
178338.jpg,-1
178348.jpg,-1
178351.jpg,-1
178353.jpg,-1
178354.jpg,-1
178355.jpg,-1
178357.jpg,-1
178359.jpg,-1
178361.jpg,-1
178366.jpg,-1
178367.jpg,-1
178374.jpg,-1
178375.jpg,-1
178377.jpg,-1
178380.jpg,-1
178382.jpg,-1
178389.jpg,-1
178391.jpg,-1
178392.jpg,-1
178398.jpg,-1
178400.jpg,-1
178407.jpg,-1
178408.jpg,-1
178412.jpg,-1
178414.jpg,-1
178424.jpg,-1
178425.jpg,-1
178427.jpg,-1
178440.jpg,-1
178447.jpg,-1
178449.jpg,-1
178451.jpg,-1
178455.jpg,-1
178456.jpg,-1
178464.jpg,-1
178465.jpg,-1
178466.jpg,-1
178468.jpg,-1
178469.jpg,-1
178470.jpg,-1
178471.jpg,-1
178485.jpg,-1
178494.jpg,-1
178501.jpg,-1
178505.jpg,-1
178506.jpg,-1
178507.jpg,-1
178515.jpg,-1
178517.jpg,-1
178520.jpg,-1
178522.jpg,-1
178524.jpg,-1
178530.jpg,-1
178535.jpg,-1
178539.jpg,-1
178542.jpg,-1
178545.jpg,-1
178546.jpg,-1
178550.jpg,-1
178555.jpg,-1
178557.jpg,-1
178558.jpg,-1
178566.jpg,-1
178569.jpg,-1
178573.jpg,-1
178580.jpg,-1
178582.jpg,-1
178584.jpg,-1
178585.jpg,-1
178591.jpg,-1
178592.jpg,-1
178605.jpg,-1
178616.jpg,-1
178620.jpg,-1
178622.jpg,-1
178625.jpg,-1
178626.jpg,-1
178628.jpg,-1
178637.jpg,-1
178646.jpg,-1
178648.jpg,-1
178649.jpg,-1
178651.jpg,-1
178656.jpg,-1
178662.jpg,-1
178667.jpg,-1
178668.jpg,-1
178673.jpg,-1
178675.jpg,-1
178684.jpg,-1
178693.jpg,-1
178695.jpg,-1
178699.jpg,-1
178701.jpg,-1
178702.jpg,-1
178706.jpg,-1
178709.jpg,-1
178710.jpg,-1
178722.jpg,-1
178724.jpg,-1
178727.jpg,-1
178731.jpg,-1
178734.jpg,-1
178735.jpg,-1
178747.jpg,-1
178749.jpg,-1
178754.jpg,-1
178755.jpg,-1
178759.jpg,-1
178762.jpg,-1
178763.jpg,-1
178768.jpg,-1
178772.jpg,-1
178773.jpg,-1
178778.jpg,-1
178783.jpg,-1
178784.jpg,-1
178785.jpg,-1
178798.jpg,-1
178802.jpg,-1
178807.jpg,-1
178809.jpg,-1
178813.jpg,-1
178814.jpg,-1
178820.jpg,-1
178821.jpg,-1
178829.jpg,-1
178832.jpg,-1
178838.jpg,-1
178845.jpg,-1
178852.jpg,-1
178854.jpg,-1
178859.jpg,-1
178864.jpg,-1
178869.jpg,-1
178870.jpg,-1
178874.jpg,-1
178876.jpg,-1
178885.jpg,-1
178886.jpg,-1
178887.jpg,-1
178890.jpg,-1
178898.jpg,-1
178901.jpg,-1
178904.jpg,-1
178910.jpg,-1
178912.jpg,-1
178914.jpg,-1
178919.jpg,-1
178933.jpg,-1
178935.jpg,-1
178938.jpg,-1
178944.jpg,-1
178945.jpg,-1
178946.jpg,-1
178950.jpg,-1
178951.jpg,-1
178955.jpg,-1
178959.jpg,-1
178963.jpg,-1
178964.jpg,-1
178965.jpg,-1
178971.jpg,-1
178973.jpg,-1
178974.jpg,-1
178978.jpg,-1
178980.jpg,-1
178991.jpg,-1
178995.jpg,-1
178998.jpg,-1
179004.jpg,-1
179009.jpg,-1
179015.jpg,-1
179020.jpg,-1
179021.jpg,-1
179024.jpg,-1
179026.jpg,-1
179027.jpg,-1
179033.jpg,-1
179036.jpg,-1
179038.jpg,-1
179040.jpg,-1
179077.jpg,-1
179080.jpg,-1
179083.jpg,-1
179084.jpg,-1
179087.jpg,-1
179099.jpg,-1
179101.jpg,-1
179102.jpg,-1
179103.jpg,-1
179104.jpg,-1
179105.jpg,-1
179107.jpg,-1
179109.jpg,-1
179113.jpg,-1
179119.jpg,-1
179120.jpg,-1
179121.jpg,-1
179125.jpg,-1
179126.jpg,-1
179132.jpg,-1
179133.jpg,-1
179137.jpg,-1
179141.jpg,-1
179157.jpg,-1
179158.jpg,-1
179163.jpg,-1
179164.jpg,-1
179166.jpg,-1
179167.jpg,-1
179169.jpg,-1
179175.jpg,-1
179181.jpg,-1
179184.jpg,-1
179186.jpg,-1
179200.jpg,-1
179202.jpg,-1
179206.jpg,-1
179208.jpg,-1
179215.jpg,-1
179217.jpg,-1
179223.jpg,-1
179226.jpg,-1
179230.jpg,-1
179232.jpg,-1
179235.jpg,-1
179244.jpg,-1
179249.jpg,-1
179250.jpg,-1
179251.jpg,-1
179252.jpg,-1
179257.jpg,-1
179258.jpg,-1
179263.jpg,-1
179273.jpg,-1
179274.jpg,-1
179279.jpg,-1
179281.jpg,-1
179285.jpg,-1
179287.jpg,-1
179290.jpg,-1
179293.jpg,-1
179300.jpg,-1
179302.jpg,-1
179308.jpg,-1
179310.jpg,-1
179316.jpg,-1
179319.jpg,-1
179320.jpg,-1
179324.jpg,-1
179328.jpg,-1
179330.jpg,-1
179331.jpg,-1
179334.jpg,-1
179335.jpg,-1
179347.jpg,-1
179349.jpg,-1
179358.jpg,-1
179363.jpg,-1
179367.jpg,-1
179380.jpg,-1
179383.jpg,-1
179388.jpg,-1
179397.jpg,-1
179400.jpg,-1
179409.jpg,-1
179420.jpg,-1
179422.jpg,-1
179424.jpg,-1
179430.jpg,-1
179434.jpg,-1
179436.jpg,-1
179442.jpg,-1
179444.jpg,-1
179447.jpg,-1
179455.jpg,-1
179458.jpg,-1
179463.jpg,-1
179470.jpg,-1
179472.jpg,-1
179475.jpg,-1
179476.jpg,-1
179482.jpg,-1
179483.jpg,-1
179484.jpg,-1
179487.jpg,-1
179491.jpg,-1
179494.jpg,-1
179495.jpg,-1
179503.jpg,-1
179504.jpg,-1
179509.jpg,-1
179511.jpg,-1
179514.jpg,-1
179519.jpg,-1
179524.jpg,-1
179527.jpg,-1
179531.jpg,-1
179535.jpg,-1
179545.jpg,-1
179546.jpg,-1
179548.jpg,-1
179550.jpg,-1
179552.jpg,-1
179555.jpg,-1
179556.jpg,-1
179557.jpg,-1
179559.jpg,-1
179561.jpg,-1
179565.jpg,-1
179571.jpg,-1
179574.jpg,-1
179577.jpg,-1
179584.jpg,-1
179593.jpg,-1
179597.jpg,-1
179600.jpg,-1
179604.jpg,-1
179612.jpg,-1
179619.jpg,-1
179623.jpg,-1
179631.jpg,-1
179639.jpg,-1
179642.jpg,-1
179645.jpg,-1
179646.jpg,-1
179648.jpg,-1
179654.jpg,-1
179655.jpg,-1
179658.jpg,-1
179660.jpg,-1
179672.jpg,-1
179680.jpg,-1
179685.jpg,-1
179688.jpg,-1
179690.jpg,-1
179691.jpg,-1
179693.jpg,-1
179696.jpg,-1
179699.jpg,-1
179704.jpg,-1
179707.jpg,-1
179711.jpg,-1
179713.jpg,-1
179715.jpg,-1
179726.jpg,-1
179733.jpg,-1
179736.jpg,-1
179738.jpg,-1
179740.jpg,-1
179741.jpg,-1
179743.jpg,-1
179745.jpg,-1
179746.jpg,-1
179748.jpg,-1
179758.jpg,-1
179761.jpg,-1
179768.jpg,-1
179778.jpg,-1
179780.jpg,-1
179782.jpg,-1
179786.jpg,-1
179787.jpg,-1
179791.jpg,-1
179792.jpg,-1
179799.jpg,-1
179800.jpg,-1
179802.jpg,-1
179803.jpg,-1
179807.jpg,-1
179811.jpg,-1
179812.jpg,-1
179813.jpg,-1
179814.jpg,-1
179822.jpg,-1
179831.jpg,-1
179832.jpg,-1
179835.jpg,-1
179837.jpg,-1
179839.jpg,-1
179847.jpg,-1
179850.jpg,-1
179852.jpg,-1
179866.jpg,-1
179867.jpg,-1
179883.jpg,-1
179884.jpg,-1
179888.jpg,-1
179890.jpg,-1
179897.jpg,-1
179901.jpg,-1
179908.jpg,-1
179909.jpg,-1
179910.jpg,-1
179916.jpg,-1
179917.jpg,-1
179918.jpg,-1
179929.jpg,-1
179933.jpg,-1
179934.jpg,-1
179939.jpg,-1
179942.jpg,-1
179945.jpg,-1
179949.jpg,-1
179951.jpg,-1
179955.jpg,-1
179957.jpg,-1
179959.jpg,-1
179960.jpg,-1
179967.jpg,-1
179970.jpg,-1
179973.jpg,-1
179975.jpg,-1
179976.jpg,-1
179977.jpg,-1
179981.jpg,-1
179984.jpg,-1
179986.jpg,-1
179991.jpg,-1
179994.jpg,-1
179995.jpg,-1
179996.jpg,-1
180002.jpg,-1
180004.jpg,-1
180009.jpg,-1
180012.jpg,-1
180017.jpg,-1
180020.jpg,-1
180023.jpg,-1
180027.jpg,-1
180031.jpg,-1
180032.jpg,-1
180038.jpg,-1
180039.jpg,-1
180042.jpg,-1
180043.jpg,-1
180047.jpg,-1
180048.jpg,-1
180050.jpg,-1
180054.jpg,-1
180057.jpg,-1
180058.jpg,-1
180059.jpg,-1
180064.jpg,-1
180065.jpg,-1
180066.jpg,-1
180068.jpg,-1
180070.jpg,-1
180072.jpg,-1
180073.jpg,-1
180084.jpg,-1
180087.jpg,-1
180098.jpg,-1
180101.jpg,-1
180104.jpg,-1
180113.jpg,-1
180115.jpg,-1
180118.jpg,-1
180124.jpg,-1
180131.jpg,-1
180133.jpg,-1
180137.jpg,-1
180144.jpg,-1
180147.jpg,-1
180151.jpg,-1
180152.jpg,-1
180155.jpg,-1
180157.jpg,-1
180168.jpg,-1
180176.jpg,-1
180177.jpg,-1
180181.jpg,-1
180186.jpg,-1
180189.jpg,-1
180192.jpg,-1
180194.jpg,-1
180196.jpg,-1
180197.jpg,-1
180212.jpg,-1
180224.jpg,-1
180234.jpg,-1
180237.jpg,-1
180239.jpg,-1
180242.jpg,-1
180244.jpg,-1
180246.jpg,-1
180249.jpg,-1
180266.jpg,-1
180274.jpg,-1
180286.jpg,-1
180287.jpg,-1
180292.jpg,-1
180298.jpg,-1
180313.jpg,-1
180318.jpg,-1
180320.jpg,-1
180321.jpg,-1
180323.jpg,-1
180329.jpg,-1
180337.jpg,-1
180339.jpg,-1
180340.jpg,-1
180344.jpg,-1
180345.jpg,-1
180348.jpg,-1
180356.jpg,-1
180365.jpg,-1
180373.jpg,-1
180374.jpg,-1
180375.jpg,-1
180387.jpg,-1
180394.jpg,-1
180396.jpg,-1
180403.jpg,-1
180408.jpg,-1
180409.jpg,-1
180411.jpg,-1
180413.jpg,-1
180419.jpg,-1
180425.jpg,-1
180426.jpg,-1
180427.jpg,-1
180434.jpg,-1
180446.jpg,-1
180448.jpg,-1
180458.jpg,-1
180467.jpg,-1
180468.jpg,-1
180488.jpg,-1
180489.jpg,-1
180491.jpg,-1
180497.jpg,-1
180502.jpg,-1
180504.jpg,-1
180507.jpg,-1
180510.jpg,-1
180518.jpg,-1
180519.jpg,-1
180524.jpg,-1
180526.jpg,-1
180528.jpg,-1
180530.jpg,-1
180534.jpg,-1
180537.jpg,-1
180539.jpg,-1
180541.jpg,-1
180553.jpg,-1
180554.jpg,-1
180563.jpg,-1
180568.jpg,-1
180569.jpg,-1
180572.jpg,-1
180576.jpg,-1
180578.jpg,-1
180582.jpg,-1
180589.jpg,-1
180593.jpg,-1
180596.jpg,-1
180603.jpg,-1
180608.jpg,-1
180614.jpg,-1
180631.jpg,-1
180633.jpg,-1
180635.jpg,-1
180636.jpg,-1
180639.jpg,-1
180640.jpg,-1
180643.jpg,-1
180649.jpg,-1
180653.jpg,-1
180662.jpg,-1
180663.jpg,-1
180664.jpg,-1
180672.jpg,-1
180673.jpg,-1
180675.jpg,-1
180679.jpg,-1
180681.jpg,-1
180688.jpg,-1
180690.jpg,-1
180693.jpg,-1
180697.jpg,-1
180701.jpg,-1
180708.jpg,-1
180710.jpg,-1
180711.jpg,-1
180713.jpg,-1
180714.jpg,-1
180721.jpg,-1
180723.jpg,-1
180724.jpg,-1
180726.jpg,-1
180730.jpg,-1
180735.jpg,-1
180739.jpg,-1
180742.jpg,-1
180747.jpg,-1
180758.jpg,-1
180762.jpg,-1
180763.jpg,-1
180771.jpg,-1
180772.jpg,-1
180775.jpg,-1
180777.jpg,-1
180782.jpg,-1
180784.jpg,-1
180786.jpg,-1
180792.jpg,-1
180793.jpg,-1
180797.jpg,-1
180800.jpg,-1
180805.jpg,-1
180820.jpg,-1
180821.jpg,-1
180830.jpg,-1
180831.jpg,-1
180832.jpg,-1
180833.jpg,-1
180839.jpg,-1
180843.jpg,-1
180846.jpg,-1
180855.jpg,-1
180858.jpg,-1
180859.jpg,-1
180865.jpg,-1
180866.jpg,-1
180869.jpg,-1
180871.jpg,-1
180873.jpg,-1
180887.jpg,-1
180892.jpg,-1
180894.jpg,-1
180898.jpg,-1
180902.jpg,-1
180905.jpg,-1
180911.jpg,-1
180923.jpg,-1
180925.jpg,-1
180927.jpg,-1
180928.jpg,-1
180935.jpg,-1
180937.jpg,-1
180952.jpg,-1
180959.jpg,-1
180965.jpg,-1
180982.jpg,-1
180984.jpg,-1
180986.jpg,-1
180988.jpg,-1
181004.jpg,-1
181008.jpg,-1
181010.jpg,-1
181020.jpg,-1
181021.jpg,-1
181030.jpg,-1
181031.jpg,-1
181036.jpg,-1
181040.jpg,-1
181042.jpg,-1
181044.jpg,-1
181049.jpg,-1
181057.jpg,-1
181069.jpg,-1
181070.jpg,-1
181071.jpg,-1
181075.jpg,-1
181080.jpg,-1
181081.jpg,-1
181085.jpg,-1
181089.jpg,-1
181090.jpg,-1
181093.jpg,-1
181096.jpg,-1
181097.jpg,-1
181101.jpg,-1
181105.jpg,-1
181108.jpg,-1
181113.jpg,-1
181115.jpg,-1
181119.jpg,-1
181120.jpg,-1
181126.jpg,-1
181127.jpg,-1
181128.jpg,-1
181129.jpg,-1
181130.jpg,-1
181135.jpg,-1
181139.jpg,-1
181143.jpg,-1
181149.jpg,-1
181153.jpg,-1
181156.jpg,-1
181161.jpg,-1
181166.jpg,-1
181171.jpg,-1
181184.jpg,-1
181186.jpg,-1
181187.jpg,-1
181191.jpg,-1
181196.jpg,-1
181198.jpg,-1
181201.jpg,-1
181208.jpg,-1
181209.jpg,-1
181210.jpg,-1
181215.jpg,-1
181216.jpg,-1
181217.jpg,-1
181232.jpg,-1
181233.jpg,-1
181234.jpg,-1
181235.jpg,-1
181245.jpg,-1
181247.jpg,-1
181248.jpg,-1
181251.jpg,-1
181263.jpg,-1
181272.jpg,-1
181276.jpg,-1
181285.jpg,-1
181287.jpg,-1
181289.jpg,-1
181291.jpg,-1
181294.jpg,-1
181307.jpg,-1
181312.jpg,-1
181314.jpg,-1
181315.jpg,-1
181321.jpg,-1
181324.jpg,-1
181328.jpg,-1
181330.jpg,-1
181332.jpg,-1
181336.jpg,-1
181337.jpg,-1
181341.jpg,-1
181344.jpg,-1
181349.jpg,-1
181352.jpg,-1
181358.jpg,-1
181367.jpg,-1
181370.jpg,-1
181379.jpg,-1
181384.jpg,-1
181386.jpg,-1
181389.jpg,-1
181391.jpg,-1
181394.jpg,-1
181398.jpg,-1
181402.jpg,-1
181406.jpg,-1
181411.jpg,-1
181415.jpg,-1
181420.jpg,-1
181423.jpg,-1
181426.jpg,-1
181434.jpg,-1
181445.jpg,-1
181446.jpg,-1
181447.jpg,-1
181455.jpg,-1
181456.jpg,-1
181464.jpg,-1
181465.jpg,-1
181466.jpg,-1
181468.jpg,-1
181469.jpg,-1
181471.jpg,-1
181475.jpg,-1
181479.jpg,-1
181480.jpg,-1
181482.jpg,-1
181486.jpg,-1
181503.jpg,-1
181504.jpg,-1
181505.jpg,-1
181507.jpg,-1
181508.jpg,-1
181511.jpg,-1
181514.jpg,-1
181515.jpg,-1
181525.jpg,-1
181528.jpg,-1
181530.jpg,-1
181531.jpg,-1
181537.jpg,-1
181550.jpg,-1
181555.jpg,-1
181559.jpg,-1
181560.jpg,-1
181561.jpg,-1
181567.jpg,-1
181568.jpg,-1
181569.jpg,-1
181571.jpg,-1
181572.jpg,-1
181578.jpg,-1
181583.jpg,-1
181584.jpg,-1
181588.jpg,-1
181589.jpg,-1
181592.jpg,-1
181595.jpg,-1
181600.jpg,-1
181603.jpg,-1
181604.jpg,-1
181610.jpg,-1
181616.jpg,-1
181623.jpg,-1
181624.jpg,-1
181625.jpg,-1
181626.jpg,-1
181627.jpg,-1
181631.jpg,-1
181635.jpg,-1
181637.jpg,-1
181639.jpg,-1
181644.jpg,-1
181645.jpg,-1
181646.jpg,-1
181648.jpg,-1
181655.jpg,-1
181656.jpg,-1
181658.jpg,-1
181662.jpg,-1
181672.jpg,-1
181676.jpg,-1
181687.jpg,-1
181690.jpg,-1
181694.jpg,-1
181699.jpg,-1
181702.jpg,-1
181706.jpg,-1
181711.jpg,-1
181718.jpg,-1
181723.jpg,-1
181725.jpg,-1
181727.jpg,-1
181728.jpg,-1
181729.jpg,-1
181730.jpg,-1
181738.jpg,-1
181741.jpg,-1
181748.jpg,-1
181760.jpg,-1
181761.jpg,-1
181762.jpg,-1
181769.jpg,-1
181771.jpg,-1
181775.jpg,-1
181776.jpg,-1
181778.jpg,-1
181779.jpg,-1
181781.jpg,-1
181788.jpg,-1
181794.jpg,-1
181800.jpg,-1
181807.jpg,-1
181821.jpg,-1
181822.jpg,-1
181826.jpg,-1
181827.jpg,-1
181831.jpg,-1
181837.jpg,-1
181838.jpg,-1
181839.jpg,-1
181840.jpg,-1
181841.jpg,-1
181846.jpg,-1
181847.jpg,-1
181850.jpg,-1
181853.jpg,-1
181854.jpg,-1
181864.jpg,-1
181869.jpg,-1
181874.jpg,-1
181883.jpg,-1
181886.jpg,-1
181889.jpg,-1
181891.jpg,-1
181893.jpg,-1
181896.jpg,-1
181901.jpg,-1
181902.jpg,-1
181903.jpg,-1
181912.jpg,-1
181916.jpg,-1
181924.jpg,-1
181925.jpg,-1
181926.jpg,-1
181934.jpg,-1
181936.jpg,-1
181940.jpg,-1
181941.jpg,-1
181944.jpg,-1
181950.jpg,-1
181953.jpg,-1
181957.jpg,-1
181958.jpg,-1
181961.jpg,-1
181966.jpg,-1
181968.jpg,-1
181971.jpg,-1
181976.jpg,-1
181980.jpg,-1
181981.jpg,-1
181987.jpg,-1
181994.jpg,-1
181997.jpg,-1
181998.jpg,-1
182003.jpg,-1
182005.jpg,-1
182007.jpg,-1
182011.jpg,-1
182012.jpg,-1
182020.jpg,-1
182021.jpg,-1
182025.jpg,-1
182031.jpg,-1
182033.jpg,-1
182034.jpg,-1
182036.jpg,-1
182048.jpg,-1
182060.jpg,-1
182061.jpg,-1
182063.jpg,-1
182066.jpg,-1
182069.jpg,-1
182072.jpg,-1
182080.jpg,-1
182083.jpg,-1
182085.jpg,-1
182096.jpg,-1
182103.jpg,-1
182104.jpg,-1
182106.jpg,-1
182108.jpg,-1
182112.jpg,-1
182118.jpg,-1
182122.jpg,-1
182128.jpg,-1
182129.jpg,-1
182131.jpg,-1
182134.jpg,-1
182138.jpg,-1
182142.jpg,-1
182147.jpg,-1
182148.jpg,-1
182150.jpg,-1
182158.jpg,-1
182161.jpg,-1
182165.jpg,-1
182168.jpg,-1
182170.jpg,-1
182174.jpg,-1
182177.jpg,-1
182182.jpg,-1
182183.jpg,-1
182188.jpg,-1
182193.jpg,-1
182198.jpg,-1
182202.jpg,-1
182205.jpg,-1
182206.jpg,-1
182207.jpg,-1
182212.jpg,-1
182214.jpg,-1
182216.jpg,-1
182233.jpg,-1
182234.jpg,-1
182237.jpg,-1
182238.jpg,-1
182239.jpg,-1
182246.jpg,-1
182251.jpg,-1
182262.jpg,-1
182267.jpg,-1
182273.jpg,-1
182276.jpg,-1
182278.jpg,-1
182280.jpg,-1
182284.jpg,-1
182294.jpg,-1
182297.jpg,-1
182299.jpg,-1
182300.jpg,-1
182308.jpg,-1
182313.jpg,-1
182321.jpg,-1
182325.jpg,-1
182328.jpg,-1
182333.jpg,-1
182337.jpg,-1
182343.jpg,-1
182355.jpg,-1
182356.jpg,-1
182362.jpg,-1
182370.jpg,-1
182373.jpg,-1
182375.jpg,-1
182378.jpg,-1
182383.jpg,-1
182385.jpg,-1
182391.jpg,-1
182397.jpg,-1
182400.jpg,-1
182405.jpg,-1
182406.jpg,-1
182407.jpg,-1
182409.jpg,-1
182421.jpg,-1
182423.jpg,-1
182428.jpg,-1
182442.jpg,-1
182447.jpg,-1
182448.jpg,-1
182463.jpg,-1
182464.jpg,-1
182466.jpg,-1
182471.jpg,-1
182474.jpg,-1
182476.jpg,-1
182479.jpg,-1
182481.jpg,-1
182483.jpg,-1
182488.jpg,-1
182489.jpg,-1
182490.jpg,-1
182491.jpg,-1
182492.jpg,-1
182495.jpg,-1
182506.jpg,-1
182508.jpg,-1
182510.jpg,-1
182511.jpg,-1
182516.jpg,-1
182517.jpg,-1
182520.jpg,-1
182523.jpg,-1
182528.jpg,-1
182529.jpg,-1
182531.jpg,-1
182535.jpg,-1
182537.jpg,-1
182544.jpg,-1
182546.jpg,-1
182551.jpg,-1
182553.jpg,-1
182554.jpg,-1
182555.jpg,-1
182563.jpg,-1
182565.jpg,-1
182571.jpg,-1
182572.jpg,-1
182578.jpg,-1
182580.jpg,-1
182585.jpg,-1
182596.jpg,-1
182599.jpg,-1
182601.jpg,-1
182604.jpg,-1
182610.jpg,-1
182611.jpg,-1
182614.jpg,-1
182630.jpg,-1
182631.jpg,-1
182638.jpg,-1
