image_id,Male,Wearing_Lipstick
182642.jpg,-1,-1
182645.jpg,-1,-1
182650.jpg,-1,-1
182658.jpg,-1,-1
182671.jpg,-1,-1
182678.jpg,-1,-1
182680.jpg,-1,-1
182691.jpg,-1,-1
182698.jpg,-1,-1
182700.jpg,-1,-1
182702.jpg,-1,-1
182725.jpg,-1,-1
182740.jpg,-1,-1
182759.jpg,-1,-1
182769.jpg,-1,-1
182774.jpg,-1,-1
182779.jpg,-1,-1
182787.jpg,-1,-1
182789.jpg,-1,-1
182796.jpg,-1,-1
182799.jpg,-1,-1
182821.jpg,-1,-1
182822.jpg,-1,-1
182844.jpg,-1,-1
182845.jpg,-1,-1
182859.jpg,-1,-1
182877.jpg,-1,-1
182884.jpg,-1,-1
182906.jpg,-1,-1
182933.jpg,-1,-1
182944.jpg,-1,-1
182953.jpg,-1,-1
182956.jpg,-1,-1
182969.jpg,-1,-1
182971.jpg,-1,-1
182980.jpg,-1,-1
182983.jpg,-1,-1
182993.jpg,-1,-1
182994.jpg,-1,-1
183018.jpg,-1,-1
183019.jpg,-1,-1
183022.jpg,-1,-1
183026.jpg,-1,-1
183030.jpg,-1,-1
183043.jpg,-1,-1
183046.jpg,-1,-1
183048.jpg,-1,-1
183050.jpg,-1,-1
183074.jpg,-1,-1
183075.jpg,-1,-1
183087.jpg,-1,-1
183093.jpg,-1,-1
183111.jpg,-1,-1
183115.jpg,-1,-1
183117.jpg,-1,-1
183133.jpg,-1,-1
183147.jpg,-1,-1
183149.jpg,-1,-1
183150.jpg,-1,-1
183162.jpg,-1,-1
183166.jpg,-1,-1
183176.jpg,-1,-1
183177.jpg,-1,-1
183181.jpg,-1,-1
183201.jpg,-1,-1
183216.jpg,-1,-1
183220.jpg,-1,-1
183231.jpg,-1,-1
183257.jpg,-1,-1
183333.jpg,-1,-1
183340.jpg,-1,-1
183341.jpg,-1,-1
183351.jpg,-1,-1
183383.jpg,-1,-1
183386.jpg,-1,-1
183391.jpg,-1,-1
183402.jpg,-1,-1
183436.jpg,-1,-1
183441.jpg,-1,-1
183442.jpg,-1,-1
183452.jpg,-1,-1
183458.jpg,-1,-1
183459.jpg,-1,-1
183467.jpg,-1,-1
183473.jpg,-1,-1
183476.jpg,-1,-1
183477.jpg,-1,-1
183485.jpg,-1,-1
183487.jpg,-1,-1
183501.jpg,-1,-1
183502.jpg,-1,-1
183516.jpg,-1,-1
183518.jpg,-1,-1
183523.jpg,-1,-1
183544.jpg,-1,-1
183550.jpg,-1,-1
183572.jpg,-1,-1
183576.jpg,-1,-1
183580.jpg,-1,-1
183594.jpg,-1,-1
183598.jpg,-1,-1
183608.jpg,-1,-1
183609.jpg,-1,-1
183611.jpg,-1,-1
183612.jpg,-1,-1
183617.jpg,-1,-1
183633.jpg,-1,-1
183649.jpg,-1,-1
183652.jpg,-1,-1
183665.jpg,-1,-1
183669.jpg,-1,-1
183671.jpg,-1,-1
183676.jpg,-1,-1
183681.jpg,-1,-1
183695.jpg,-1,-1
183701.jpg,-1,-1
183710.jpg,-1,-1
183711.jpg,-1,-1
183712.jpg,-1,-1
183716.jpg,-1,-1
183718.jpg,-1,-1
183734.jpg,-1,-1
183735.jpg,-1,-1
183740.jpg,-1,-1
183751.jpg,-1,-1
183772.jpg,-1,-1
183783.jpg,-1,-1
183790.jpg,-1,-1
183792.jpg,-1,-1
183836.jpg,-1,-1
183859.jpg,-1,-1
183873.jpg,-1,-1
183883.jpg,-1,-1
183886.jpg,-1,-1
183906.jpg,-1,-1
183917.jpg,-1,-1
183938.jpg,-1,-1
183953.jpg,-1,-1
183981.jpg,-1,-1
184019.jpg,-1,-1
184021.jpg,-1,-1
184044.jpg,-1,-1
184069.jpg,-1,-1
184083.jpg,-1,-1
184085.jpg,-1,-1
184086.jpg,-1,-1
184103.jpg,-1,-1
184128.jpg,-1,-1
184135.jpg,-1,-1
184157.jpg,-1,-1
184162.jpg,-1,-1
184185.jpg,-1,-1
184191.jpg,-1,-1
184195.jpg,-1,-1
184204.jpg,-1,-1
184240.jpg,-1,-1
184271.jpg,-1,-1
184278.jpg,-1,-1
184281.jpg,-1,-1
184288.jpg,-1,-1
184290.jpg,-1,-1
184296.jpg,-1,-1
184311.jpg,-1,-1
184317.jpg,-1,-1
184346.jpg,-1,-1
184352.jpg,-1,-1
184366.jpg,-1,-1
184374.jpg,-1,-1
184403.jpg,-1,-1
184418.jpg,-1,-1
184422.jpg,-1,-1
184432.jpg,-1,-1
184438.jpg,-1,-1
184443.jpg,-1,-1
184452.jpg,-1,-1
184453.jpg,-1,-1
184456.jpg,-1,-1
184462.jpg,-1,-1
184484.jpg,-1,-1
184514.jpg,-1,-1
184519.jpg,-1,-1
184533.jpg,-1,-1
184538.jpg,-1,-1
184543.jpg,-1,-1
184546.jpg,-1,-1
184602.jpg,-1,-1
184604.jpg,-1,-1
184614.jpg,-1,-1
184618.jpg,-1,-1
184627.jpg,-1,-1
184646.jpg,-1,-1
184688.jpg,-1,-1
184689.jpg,-1,-1
184690.jpg,-1,-1
184701.jpg,-1,-1
184714.jpg,-1,-1
184725.jpg,-1,-1
184739.jpg,-1,-1
184742.jpg,-1,-1
184777.jpg,-1,-1
184825.jpg,-1,-1
184834.jpg,-1,-1
184840.jpg,-1,-1
184845.jpg,-1,-1
184846.jpg,-1,-1
184847.jpg,-1,-1
184851.jpg,-1,-1
184870.jpg,-1,-1
184883.jpg,-1,-1
184887.jpg,-1,-1
184894.jpg,-1,-1
184896.jpg,-1,-1
184898.jpg,-1,-1
184902.jpg,-1,-1
184903.jpg,-1,-1
184920.jpg,-1,-1
184922.jpg,-1,-1
184931.jpg,-1,-1
184936.jpg,-1,-1
184943.jpg,-1,-1
184944.jpg,-1,-1
184945.jpg,-1,-1
184984.jpg,-1,-1
184999.jpg,-1,-1
185004.jpg,-1,-1
185009.jpg,-1,-1
185015.jpg,-1,-1
185020.jpg,-1,-1
185021.jpg,-1,-1
185026.jpg,-1,-1
185035.jpg,-1,-1
185046.jpg,-1,-1
185049.jpg,-1,-1
185050.jpg,-1,-1
185054.jpg,-1,-1
185065.jpg,-1,-1
185086.jpg,-1,-1
185091.jpg,-1,-1
185118.jpg,-1,-1
185137.jpg,-1,-1
185156.jpg,-1,-1
185158.jpg,-1,-1
185173.jpg,-1,-1
185174.jpg,-1,-1
185175.jpg,-1,-1
185186.jpg,-1,-1
185187.jpg,-1,-1
185202.jpg,-1,-1
185205.jpg,-1,-1
185226.jpg,-1,-1
185236.jpg,-1,-1
185249.jpg,-1,-1
185268.jpg,-1,-1
185270.jpg,-1,-1
185272.jpg,-1,-1
185278.jpg,-1,-1
185279.jpg,-1,-1
185289.jpg,-1,-1
185299.jpg,-1,-1
185300.jpg,-1,-1
185301.jpg,-1,-1
185305.jpg,-1,-1
185306.jpg,-1,-1
185324.jpg,-1,-1
185333.jpg,-1,-1
185363.jpg,-1,-1
185386.jpg,-1,-1
185389.jpg,-1,-1
185409.jpg,-1,-1
185483.jpg,-1,-1
185484.jpg,-1,-1
185486.jpg,-1,-1
185488.jpg,-1,-1
185511.jpg,-1,-1
185530.jpg,-1,-1
185532.jpg,-1,-1
185535.jpg,-1,-1
185555.jpg,-1,-1
185571.jpg,-1,-1
185576.jpg,-1,-1
185580.jpg,-1,-1
185603.jpg,-1,-1
185605.jpg,-1,-1
185606.jpg,-1,-1
185611.jpg,-1,-1
185616.jpg,-1,-1
185621.jpg,-1,-1
185642.jpg,-1,-1
185650.jpg,-1,-1
185656.jpg,-1,-1
185662.jpg,-1,-1
185672.jpg,-1,-1
185674.jpg,-1,-1
185676.jpg,-1,-1
185688.jpg,-1,-1
185709.jpg,-1,-1
185723.jpg,-1,-1
185732.jpg,-1,-1
185735.jpg,-1,-1
185737.jpg,-1,-1
185745.jpg,-1,-1
185756.jpg,-1,-1
185772.jpg,-1,-1
185780.jpg,-1,-1
185805.jpg,-1,-1
185816.jpg,-1,-1
185845.jpg,-1,-1
185847.jpg,-1,-1
185859.jpg,-1,-1
185882.jpg,-1,-1
185900.jpg,-1,-1
185902.jpg,-1,-1
185908.jpg,-1,-1
185928.jpg,-1,-1
185937.jpg,-1,-1
185940.jpg,-1,-1
185942.jpg,-1,-1
185969.jpg,-1,-1
185994.jpg,-1,-1
186000.jpg,-1,-1
186001.jpg,-1,-1
186008.jpg,-1,-1
186012.jpg,-1,-1
186018.jpg,-1,-1
186057.jpg,-1,-1
186069.jpg,-1,-1
186072.jpg,-1,-1
186115.jpg,-1,-1
186121.jpg,-1,-1
186126.jpg,-1,-1
186129.jpg,-1,-1
186135.jpg,-1,-1
186143.jpg,-1,-1
186164.jpg,-1,-1
186172.jpg,-1,-1
186177.jpg,-1,-1
186187.jpg,-1,-1
186212.jpg,-1,-1
186226.jpg,-1,-1
186227.jpg,-1,-1
186238.jpg,-1,-1
186244.jpg,-1,-1
186251.jpg,-1,-1
186255.jpg,-1,-1
186261.jpg,-1,-1
186262.jpg,-1,-1
186270.jpg,-1,-1
186282.jpg,-1,-1
186307.jpg,-1,-1
186318.jpg,-1,-1
186347.jpg,-1,-1
186354.jpg,-1,-1
186376.jpg,-1,-1
186381.jpg,-1,-1
186385.jpg,-1,-1
186387.jpg,-1,-1
186392.jpg,-1,-1
186394.jpg,-1,-1
186404.jpg,-1,-1
186419.jpg,-1,-1
186454.jpg,-1,-1
186492.jpg,-1,-1
186505.jpg,-1,-1
186513.jpg,-1,-1
186517.jpg,-1,-1
186534.jpg,-1,-1
186548.jpg,-1,-1
186557.jpg,-1,-1
186561.jpg,-1,-1
186593.jpg,-1,-1
186611.jpg,-1,-1
186615.jpg,-1,-1
186621.jpg,-1,-1
186631.jpg,-1,-1
186667.jpg,-1,-1
186674.jpg,-1,-1
186690.jpg,-1,-1
186705.jpg,-1,-1
186712.jpg,-1,-1
186726.jpg,-1,-1
186732.jpg,-1,-1
186733.jpg,-1,-1
186765.jpg,-1,-1
186778.jpg,-1,-1
186789.jpg,-1,-1
186805.jpg,-1,-1
186808.jpg,-1,-1
186811.jpg,-1,-1
186816.jpg,-1,-1
186820.jpg,-1,-1
186821.jpg,-1,-1
186847.jpg,-1,-1
186848.jpg,-1,-1
186854.jpg,-1,-1
186855.jpg,-1,-1
186864.jpg,-1,-1
186867.jpg,-1,-1
186886.jpg,-1,-1
186893.jpg,-1,-1
186900.jpg,-1,-1
186906.jpg,-1,-1
186932.jpg,-1,-1
186943.jpg,-1,-1
186957.jpg,-1,-1
186977.jpg,-1,-1
186993.jpg,-1,-1
187021.jpg,-1,-1
187030.jpg,-1,-1
187043.jpg,-1,-1
187050.jpg,-1,-1
187119.jpg,-1,-1
187154.jpg,-1,-1
187168.jpg,-1,-1
187169.jpg,-1,-1
187170.jpg,-1,-1
187175.jpg,-1,-1
187181.jpg,-1,-1
187185.jpg,-1,-1
187209.jpg,-1,-1
187213.jpg,-1,-1
187237.jpg,-1,-1
187255.jpg,-1,-1
187264.jpg,-1,-1
187269.jpg,-1,-1
187270.jpg,-1,-1
187277.jpg,-1,-1
187303.jpg,-1,-1
187317.jpg,-1,-1
187322.jpg,-1,-1
187347.jpg,-1,-1
187352.jpg,-1,-1
187361.jpg,-1,-1
187367.jpg,-1,-1
187369.jpg,-1,-1
187385.jpg,-1,-1
187405.jpg,-1,-1
187416.jpg,-1,-1
187453.jpg,-1,-1
187463.jpg,-1,-1
187492.jpg,-1,-1
187495.jpg,-1,-1
187496.jpg,-1,-1
187513.jpg,-1,-1
187515.jpg,-1,-1
187520.jpg,-1,-1
187526.jpg,-1,-1
187535.jpg,-1,-1
187546.jpg,-1,-1
187554.jpg,-1,-1
187569.jpg,-1,-1
187572.jpg,-1,-1
187576.jpg,-1,-1
187577.jpg,-1,-1
187579.jpg,-1,-1
187587.jpg,-1,-1
187605.jpg,-1,-1
187610.jpg,-1,-1
187612.jpg,-1,-1
187628.jpg,-1,-1
187649.jpg,-1,-1
187659.jpg,-1,-1
187666.jpg,-1,-1
187670.jpg,-1,-1
187671.jpg,-1,-1
187703.jpg,-1,-1
187713.jpg,-1,-1
187715.jpg,-1,-1
187724.jpg,-1,-1
187744.jpg,-1,-1
187757.jpg,-1,-1
187758.jpg,-1,-1
187760.jpg,-1,-1
187771.jpg,-1,-1
187803.jpg,-1,-1
187843.jpg,-1,-1
187872.jpg,-1,-1
187880.jpg,-1,-1
187884.jpg,-1,-1
187901.jpg,-1,-1
187924.jpg,-1,-1
187948.jpg,-1,-1
187953.jpg,-1,-1
187966.jpg,-1,-1
187975.jpg,-1,-1
187982.jpg,-1,-1
187999.jpg,-1,-1
188009.jpg,-1,-1
188013.jpg,-1,-1
188038.jpg,-1,-1
188039.jpg,-1,-1
188040.jpg,-1,-1
188044.jpg,-1,-1
188069.jpg,-1,-1
188080.jpg,-1,-1
188104.jpg,-1,-1
188110.jpg,-1,-1
188119.jpg,-1,-1
188123.jpg,-1,-1
188129.jpg,-1,-1
188145.jpg,-1,-1
188146.jpg,-1,-1
188158.jpg,-1,-1
188169.jpg,-1,-1
188173.jpg,-1,-1
188201.jpg,-1,-1
188210.jpg,-1,-1
188217.jpg,-1,-1
188231.jpg,-1,-1
188257.jpg,-1,-1
188265.jpg,-1,-1
188270.jpg,-1,-1
188273.jpg,-1,-1
188275.jpg,-1,-1
188288.jpg,-1,-1
188289.jpg,-1,-1
188308.jpg,-1,-1
188339.jpg,-1,-1
188344.jpg,-1,-1
188347.jpg,-1,-1
188349.jpg,-1,-1
188362.jpg,-1,-1
188366.jpg,-1,-1
188372.jpg,-1,-1
188377.jpg,-1,-1
188385.jpg,-1,-1
188419.jpg,-1,-1
188448.jpg,-1,-1
188457.jpg,-1,-1
188459.jpg,-1,-1
188476.jpg,-1,-1
188479.jpg,-1,-1
188482.jpg,-1,-1
188485.jpg,-1,-1
188503.jpg,-1,-1
188512.jpg,-1,-1
188514.jpg,-1,-1
188520.jpg,-1,-1
188538.jpg,-1,-1
188546.jpg,-1,-1
188590.jpg,-1,-1
188609.jpg,-1,-1
188616.jpg,-1,-1
188619.jpg,-1,-1
188663.jpg,-1,-1
188703.jpg,-1,-1
188704.jpg,-1,-1
188717.jpg,-1,-1
188721.jpg,-1,-1
188725.jpg,-1,-1
188728.jpg,-1,-1
188761.jpg,-1,-1
188763.jpg,-1,-1
188767.jpg,-1,-1
188769.jpg,-1,-1
188782.jpg,-1,-1
188793.jpg,-1,-1
188798.jpg,-1,-1
188800.jpg,-1,-1
188811.jpg,-1,-1
188815.jpg,-1,-1
188820.jpg,-1,-1
188834.jpg,-1,-1
188865.jpg,-1,-1
188877.jpg,-1,-1
188885.jpg,-1,-1
188886.jpg,-1,-1
188887.jpg,-1,-1
188898.jpg,-1,-1
188906.jpg,-1,-1
188936.jpg,-1,-1
188953.jpg,-1,-1
188957.jpg,-1,-1
188969.jpg,-1,-1
188979.jpg,-1,-1
188983.jpg,-1,-1
188988.jpg,-1,-1
188995.jpg,-1,-1
188997.jpg,-1,-1
189001.jpg,-1,-1
189002.jpg,-1,-1
189017.jpg,-1,-1
189028.jpg,-1,-1
189049.jpg,-1,-1
189061.jpg,-1,-1
189080.jpg,-1,-1
189099.jpg,-1,-1
189112.jpg,-1,-1
189116.jpg,-1,-1
189130.jpg,-1,-1
189136.jpg,-1,-1
189144.jpg,-1,-1
189169.jpg,-1,-1
189173.jpg,-1,-1
189183.jpg,-1,-1
189188.jpg,-1,-1
189196.jpg,-1,-1
189230.jpg,-1,-1
189249.jpg,-1,-1
189258.jpg,-1,-1
189268.jpg,-1,-1
189277.jpg,-1,-1
189279.jpg,-1,-1
189292.jpg,-1,-1
189312.jpg,-1,-1
189316.jpg,-1,-1
189318.jpg,-1,-1
189320.jpg,-1,-1
189340.jpg,-1,-1
189348.jpg,-1,-1
189354.jpg,-1,-1
189359.jpg,-1,-1
189371.jpg,-1,-1
189378.jpg,-1,-1
189385.jpg,-1,-1
189398.jpg,-1,-1
189422.jpg,-1,-1
189437.jpg,-1,-1
189438.jpg,-1,-1
189441.jpg,-1,-1
189453.jpg,-1,-1
189454.jpg,-1,-1
189459.jpg,-1,-1
189468.jpg,-1,-1
189484.jpg,-1,-1
189492.jpg,-1,-1
189511.jpg,-1,-1
189520.jpg,-1,-1
189528.jpg,-1,-1
189544.jpg,-1,-1
189567.jpg,-1,-1
189573.jpg,-1,-1
189574.jpg,-1,-1
189576.jpg,-1,-1
189590.jpg,-1,-1
189601.jpg,-1,-1
189604.jpg,-1,-1
189613.jpg,-1,-1
189630.jpg,-1,-1
189640.jpg,-1,-1
189656.jpg,-1,-1
189661.jpg,-1,-1
189672.jpg,-1,-1
189678.jpg,-1,-1
189703.jpg,-1,-1
189707.jpg,-1,-1
189711.jpg,-1,-1
189714.jpg,-1,-1
189723.jpg,-1,-1
189741.jpg,-1,-1
189780.jpg,-1,-1
189786.jpg,-1,-1
189788.jpg,-1,-1
189794.jpg,-1,-1
189797.jpg,-1,-1
189800.jpg,-1,-1
189810.jpg,-1,-1
189814.jpg,-1,-1
189822.jpg,-1,-1
189833.jpg,-1,-1
189834.jpg,-1,-1
189838.jpg,-1,-1
189843.jpg,-1,-1
189854.jpg,-1,-1
189857.jpg,-1,-1
189875.jpg,-1,-1
189886.jpg,-1,-1
189895.jpg,-1,-1
189899.jpg,-1,-1
189907.jpg,-1,-1
189917.jpg,-1,-1
189918.jpg,-1,-1
189929.jpg,-1,-1
189932.jpg,-1,-1
189964.jpg,-1,-1
189969.jpg,-1,-1
190001.jpg,-1,-1
190007.jpg,-1,-1
190042.jpg,-1,-1
190047.jpg,-1,-1
190053.jpg,-1,-1
190063.jpg,-1,-1
190070.jpg,-1,-1
190083.jpg,-1,-1
190096.jpg,-1,-1
190107.jpg,-1,-1
190117.jpg,-1,-1
190120.jpg,-1,-1
190127.jpg,-1,-1
190141.jpg,-1,-1
190143.jpg,-1,-1
190144.jpg,-1,-1
190164.jpg,-1,-1
190167.jpg,-1,-1
190168.jpg,-1,-1
190174.jpg,-1,-1
190175.jpg,-1,-1
190183.jpg,-1,-1
190203.jpg,-1,-1
190215.jpg,-1,-1
190216.jpg,-1,-1
190225.jpg,-1,-1
190238.jpg,-1,-1
190251.jpg,-1,-1
190264.jpg,-1,-1
190274.jpg,-1,-1
190275.jpg,-1,-1
190280.jpg,-1,-1
190283.jpg,-1,-1
190295.jpg,-1,-1
190307.jpg,-1,-1
190318.jpg,-1,-1
190326.jpg,-1,-1
190336.jpg,-1,-1
190340.jpg,-1,-1
190348.jpg,-1,-1
190349.jpg,-1,-1
190354.jpg,-1,-1
190357.jpg,-1,-1
190358.jpg,-1,-1
190372.jpg,-1,-1
190382.jpg,-1,-1
190384.jpg,-1,-1
190399.jpg,-1,-1
190406.jpg,-1,-1
190465.jpg,-1,-1
190469.jpg,-1,-1
190470.jpg,-1,-1
190486.jpg,-1,-1
190495.jpg,-1,-1
190521.jpg,-1,-1
190524.jpg,-1,-1
190531.jpg,-1,-1
190548.jpg,-1,-1
190550.jpg,-1,-1
190589.jpg,-1,-1
190598.jpg,-1,-1
190628.jpg,-1,-1
190659.jpg,-1,-1
190663.jpg,-1,-1
190666.jpg,-1,-1
190675.jpg,-1,-1
190700.jpg,-1,-1
190705.jpg,-1,-1
190710.jpg,-1,-1
190712.jpg,-1,-1
190721.jpg,-1,-1
190741.jpg,-1,-1
190745.jpg,-1,-1
190747.jpg,-1,-1
190750.jpg,-1,-1
190769.jpg,-1,-1
190791.jpg,-1,-1
190806.jpg,-1,-1
190811.jpg,-1,-1
190828.jpg,-1,-1
190842.jpg,-1,-1
190858.jpg,-1,-1
190865.jpg,-1,-1
190866.jpg,-1,-1
190889.jpg,-1,-1
190895.jpg,-1,-1
190908.jpg,-1,-1
190917.jpg,-1,-1
190923.jpg,-1,-1
190935.jpg,-1,-1
190963.jpg,-1,-1
190987.jpg,-1,-1
190995.jpg,-1,-1
191013.jpg,-1,-1
191021.jpg,-1,-1
191022.jpg,-1,-1
191025.jpg,-1,-1
191035.jpg,-1,-1
191038.jpg,-1,-1
191042.jpg,-1,-1
191049.jpg,-1,-1
191054.jpg,-1,-1
191068.jpg,-1,-1
191074.jpg,-1,-1
191082.jpg,-1,-1
191086.jpg,-1,-1
191095.jpg,-1,-1
191100.jpg,-1,-1
191124.jpg,-1,-1
191126.jpg,-1,-1
191128.jpg,-1,-1
191130.jpg,-1,-1
191135.jpg,-1,-1
191140.jpg,-1,-1
191149.jpg,-1,-1
191187.jpg,-1,-1
191193.jpg,-1,-1
191196.jpg,-1,-1
191197.jpg,-1,-1
191207.jpg,-1,-1
191209.jpg,-1,-1
191216.jpg,-1,-1
191226.jpg,-1,-1
191241.jpg,-1,-1
191244.jpg,-1,-1
191248.jpg,-1,-1
191274.jpg,-1,-1
191288.jpg,-1,-1
191309.jpg,-1,-1
191315.jpg,-1,-1
191322.jpg,-1,-1
191336.jpg,-1,-1
191344.jpg,-1,-1
191352.jpg,-1,-1
191366.jpg,-1,-1
191368.jpg,-1,-1
191369.jpg,-1,-1
191370.jpg,-1,-1
191375.jpg,-1,-1
191381.jpg,-1,-1
191387.jpg,-1,-1
191395.jpg,-1,-1
191397.jpg,-1,-1
191433.jpg,-1,-1
191457.jpg,-1,-1
191478.jpg,-1,-1
191487.jpg,-1,-1
191505.jpg,-1,-1
191517.jpg,-1,-1
191527.jpg,-1,-1
191528.jpg,-1,-1
191540.jpg,-1,-1
191551.jpg,-1,-1
191561.jpg,-1,-1
191568.jpg,-1,-1
191585.jpg,-1,-1
191591.jpg,-1,-1
191593.jpg,-1,-1
191600.jpg,-1,-1
191605.jpg,-1,-1
191610.jpg,-1,-1
191618.jpg,-1,-1
191626.jpg,-1,-1
191639.jpg,-1,-1
191654.jpg,-1,-1
191659.jpg,-1,-1
191678.jpg,-1,-1
191679.jpg,-1,-1
191684.jpg,-1,-1
191687.jpg,-1,-1
191692.jpg,-1,-1
191701.jpg,-1,-1
191717.jpg,-1,-1
191720.jpg,-1,-1
191732.jpg,-1,-1
191740.jpg,-1,-1
191757.jpg,-1,-1
191760.jpg,-1,-1
191806.jpg,-1,-1
191811.jpg,-1,-1
191814.jpg,-1,-1
191822.jpg,-1,-1
191838.jpg,-1,-1
191839.jpg,-1,-1
191842.jpg,-1,-1
191845.jpg,-1,-1
191851.jpg,-1,-1
191892.jpg,-1,-1
191952.jpg,-1,-1
191973.jpg,-1,-1
191989.jpg,-1,-1
191996.jpg,-1,-1
192002.jpg,-1,-1
192011.jpg,-1,-1
192014.jpg,-1,-1
192032.jpg,-1,-1
192043.jpg,-1,-1
192054.jpg,-1,-1
192066.jpg,-1,-1
192070.jpg,-1,-1
192086.jpg,-1,-1
192091.jpg,-1,-1
192118.jpg,-1,-1
192135.jpg,-1,-1
192159.jpg,-1,-1
192170.jpg,-1,-1
192171.jpg,-1,-1
192185.jpg,-1,-1
192190.jpg,-1,-1
192216.jpg,-1,-1
192220.jpg,-1,-1
192227.jpg,-1,-1
192228.jpg,-1,-1
192229.jpg,-1,-1
192246.jpg,-1,-1
192255.jpg,-1,-1
192256.jpg,-1,-1
192287.jpg,-1,-1
192295.jpg,-1,-1
192317.jpg,-1,-1
192326.jpg,-1,-1
192337.jpg,-1,-1
192345.jpg,-1,-1
192358.jpg,-1,-1
192359.jpg,-1,-1
192367.jpg,-1,-1
192379.jpg,-1,-1
192385.jpg,-1,-1
192397.jpg,-1,-1
192418.jpg,-1,-1
192439.jpg,-1,-1
192454.jpg,-1,-1
192456.jpg,-1,-1
192478.jpg,-1,-1
192484.jpg,-1,-1
192487.jpg,-1,-1
192494.jpg,-1,-1
192585.jpg,-1,-1
192592.jpg,-1,-1
192648.jpg,-1,-1
192651.jpg,-1,-1
192653.jpg,-1,-1
192656.jpg,-1,-1
192666.jpg,-1,-1
192673.jpg,-1,-1
192687.jpg,-1,-1
192689.jpg,-1,-1
192693.jpg,-1,-1
192709.jpg,-1,-1
192728.jpg,-1,-1
192744.jpg,-1,-1
192746.jpg,-1,-1
192751.jpg,-1,-1
192763.jpg,-1,-1
192789.jpg,-1,-1
192794.jpg,-1,-1
192798.jpg,-1,-1
192820.jpg,-1,-1
192864.jpg,-1,-1
192874.jpg,-1,-1
192886.jpg,-1,-1
192896.jpg,-1,-1
192898.jpg,-1,-1
192901.jpg,-1,-1
192909.jpg,-1,-1
192934.jpg,-1,-1
192937.jpg,-1,-1
192940.jpg,-1,-1
192945.jpg,-1,-1
192957.jpg,-1,-1
192963.jpg,-1,-1
192988.jpg,-1,-1
192995.jpg,-1,-1
193020.jpg,-1,-1
193022.jpg,-1,-1
193025.jpg,-1,-1
193029.jpg,-1,-1
193031.jpg,-1,-1
193056.jpg,-1,-1
193059.jpg,-1,-1
193063.jpg,-1,-1
193079.jpg,-1,-1
193084.jpg,-1,-1
193089.jpg,-1,-1
193096.jpg,-1,-1
193101.jpg,-1,-1
193119.jpg,-1,-1
193136.jpg,-1,-1
193176.jpg,-1,-1
193179.jpg,-1,-1
193185.jpg,-1,-1
193195.jpg,-1,-1
193206.jpg,-1,-1
193213.jpg,-1,-1
193225.jpg,-1,-1
193236.jpg,-1,-1
193256.jpg,-1,-1
193267.jpg,-1,-1
193268.jpg,-1,-1
193291.jpg,-1,-1
193307.jpg,-1,-1
193308.jpg,-1,-1
193310.jpg,-1,-1
193329.jpg,-1,-1
193332.jpg,-1,-1
193350.jpg,-1,-1
193366.jpg,-1,-1
193383.jpg,-1,-1
193401.jpg,-1,-1
193431.jpg,-1,-1
193435.jpg,-1,-1
193447.jpg,-1,-1
193462.jpg,-1,-1
193474.jpg,-1,-1
193479.jpg,-1,-1
193494.jpg,-1,-1
193546.jpg,-1,-1
193548.jpg,-1,-1
193549.jpg,-1,-1
193552.jpg,-1,-1
193589.jpg,-1,-1
193590.jpg,-1,-1
193594.jpg,-1,-1
193599.jpg,-1,-1
193603.jpg,-1,-1
193609.jpg,-1,-1
193614.jpg,-1,-1
193625.jpg,-1,-1
193645.jpg,-1,-1
193648.jpg,-1,-1
193651.jpg,-1,-1
193653.jpg,-1,-1
193669.jpg,-1,-1
193670.jpg,-1,-1
193671.jpg,-1,-1
193679.jpg,-1,-1
193681.jpg,-1,-1
193687.jpg,-1,-1
193695.jpg,-1,-1
193704.jpg,-1,-1
193707.jpg,-1,-1
193709.jpg,-1,-1
193720.jpg,-1,-1
193733.jpg,-1,-1
193742.jpg,-1,-1
193744.jpg,-1,-1
193771.jpg,-1,-1
193795.jpg,-1,-1
193814.jpg,-1,-1
193816.jpg,-1,-1
193818.jpg,-1,-1
193827.jpg,-1,-1
193830.jpg,-1,-1
193835.jpg,-1,-1
193849.jpg,-1,-1
193862.jpg,-1,-1
193878.jpg,-1,-1
193884.jpg,-1,-1
193895.jpg,-1,-1
193909.jpg,-1,-1
193925.jpg,-1,-1
193932.jpg,-1,-1
193935.jpg,-1,-1
193937.jpg,-1,-1
193945.jpg,-1,-1
193956.jpg,-1,-1
193959.jpg,-1,-1
193967.jpg,-1,-1
193972.jpg,-1,-1
193976.jpg,-1,-1
193982.jpg,-1,-1
193985.jpg,-1,-1
194007.jpg,-1,-1
194010.jpg,-1,-1
194036.jpg,-1,-1
194037.jpg,-1,-1
194075.jpg,-1,-1
194079.jpg,-1,-1
194082.jpg,-1,-1
194094.jpg,-1,-1
194098.jpg,-1,-1
194123.jpg,-1,-1
194134.jpg,-1,-1
194150.jpg,-1,-1
194160.jpg,-1,-1
194177.jpg,-1,-1
194179.jpg,-1,-1
194192.jpg,-1,-1
194201.jpg,-1,-1
194204.jpg,-1,-1
194214.jpg,-1,-1
194235.jpg,-1,-1
194237.jpg,-1,-1
194301.jpg,-1,-1
194323.jpg,-1,-1
194332.jpg,-1,-1
194333.jpg,-1,-1
194351.jpg,-1,-1
194352.jpg,-1,-1
194365.jpg,-1,-1
194371.jpg,-1,-1
194374.jpg,-1,-1
194380.jpg,-1,-1
194386.jpg,-1,-1
194394.jpg,-1,-1
194417.jpg,-1,-1
194435.jpg,-1,-1
194472.jpg,-1,-1
194497.jpg,-1,-1
194505.jpg,-1,-1
194507.jpg,-1,-1
194513.jpg,-1,-1
194519.jpg,-1,-1
194522.jpg,-1,-1
194542.jpg,-1,-1
194543.jpg,-1,-1
194557.jpg,-1,-1
194563.jpg,-1,-1
194578.jpg,-1,-1
194580.jpg,-1,-1
194594.jpg,-1,-1
194595.jpg,-1,-1
194597.jpg,-1,-1
194598.jpg,-1,-1
194609.jpg,-1,-1
194619.jpg,-1,-1
194622.jpg,-1,-1
194637.jpg,-1,-1
194657.jpg,-1,-1
194678.jpg,-1,-1
194685.jpg,-1,-1
194693.jpg,-1,-1
194696.jpg,-1,-1
194709.jpg,-1,-1
194732.jpg,-1,-1
194755.jpg,-1,-1
194770.jpg,-1,-1
194791.jpg,-1,-1
194803.jpg,-1,-1
194806.jpg,-1,-1
194808.jpg,-1,-1
194810.jpg,-1,-1
194837.jpg,-1,-1
194842.jpg,-1,-1
194843.jpg,-1,-1
194853.jpg,-1,-1
194854.jpg,-1,-1
194855.jpg,-1,-1
194858.jpg,-1,-1
194887.jpg,-1,-1
194902.jpg,-1,-1
194906.jpg,-1,-1
194911.jpg,-1,-1
194913.jpg,-1,-1
194922.jpg,-1,-1
194932.jpg,-1,-1
194940.jpg,-1,-1
194952.jpg,-1,-1
194953.jpg,-1,-1
194955.jpg,-1,-1
194957.jpg,-1,-1
194966.jpg,-1,-1
194968.jpg,-1,-1
194993.jpg,-1,-1
195000.jpg,-1,-1
195007.jpg,-1,-1
195017.jpg,-1,-1
195020.jpg,-1,-1
195029.jpg,-1,-1
195062.jpg,-1,-1
195078.jpg,-1,-1
195085.jpg,-1,-1
195088.jpg,-1,-1
195089.jpg,-1,-1
195090.jpg,-1,-1
195091.jpg,-1,-1
195107.jpg,-1,-1
195126.jpg,-1,-1
195134.jpg,-1,-1
195141.jpg,-1,-1
195159.jpg,-1,-1
195164.jpg,-1,-1
195166.jpg,-1,-1
195168.jpg,-1,-1
195181.jpg,-1,-1
195218.jpg,-1,-1
195226.jpg,-1,-1
195229.jpg,-1,-1
195243.jpg,-1,-1
195251.jpg,-1,-1
195252.jpg,-1,-1
195271.jpg,-1,-1
195272.jpg,-1,-1
195287.jpg,-1,-1
195291.jpg,-1,-1
195295.jpg,-1,-1
195296.jpg,-1,-1
195308.jpg,-1,-1
195322.jpg,-1,-1
195327.jpg,-1,-1
195328.jpg,-1,-1
195329.jpg,-1,-1
195330.jpg,-1,-1
195335.jpg,-1,-1
195355.jpg,-1,-1
195362.jpg,-1,-1
195369.jpg,-1,-1
195373.jpg,-1,-1
195378.jpg,-1,-1
195379.jpg,-1,-1
195394.jpg,-1,-1
195403.jpg,-1,-1
195413.jpg,-1,-1
195419.jpg,-1,-1
195420.jpg,-1,-1
195423.jpg,-1,-1
195438.jpg,-1,-1
195449.jpg,-1,-1
195457.jpg,-1,-1
195459.jpg,-1,-1
195474.jpg,-1,-1
195478.jpg,-1,-1
195487.jpg,-1,-1
195510.jpg,-1,-1
195519.jpg,-1,-1
195520.jpg,-1,-1
195531.jpg,-1,-1
195552.jpg,-1,-1
195559.jpg,-1,-1
195570.jpg,-1,-1
195576.jpg,-1,-1
195578.jpg,-1,-1
195588.jpg,-1,-1
195590.jpg,-1,-1
195632.jpg,-1,-1
195644.jpg,-1,-1
195652.jpg,-1,-1
195676.jpg,-1,-1
195677.jpg,-1,-1
195713.jpg,-1,-1
195722.jpg,-1,-1
195729.jpg,-1,-1
195743.jpg,-1,-1
195744.jpg,-1,-1
195759.jpg,-1,-1
195776.jpg,-1,-1
195786.jpg,-1,-1
195787.jpg,-1,-1
195795.jpg,-1,-1
195807.jpg,-1,-1
195812.jpg,-1,-1
195834.jpg,-1,-1
195836.jpg,-1,-1
195848.jpg,-1,-1
195849.jpg,-1,-1
195861.jpg,-1,-1
195875.jpg,-1,-1
195888.jpg,-1,-1
195899.jpg,-1,-1
195935.jpg,-1,-1
195940.jpg,-1,-1
195963.jpg,-1,-1
195971.jpg,-1,-1
195995.jpg,-1,-1
196004.jpg,-1,-1
196009.jpg,-1,-1
196011.jpg,-1,-1
196028.jpg,-1,-1
196029.jpg,-1,-1
196038.jpg,-1,-1
196103.jpg,-1,-1
196107.jpg,-1,-1
196111.jpg,-1,-1
196117.jpg,-1,-1
196127.jpg,-1,-1
196133.jpg,-1,-1
196136.jpg,-1,-1
196144.jpg,-1,-1
196149.jpg,-1,-1
196158.jpg,-1,-1
196177.jpg,-1,-1
196182.jpg,-1,-1
196185.jpg,-1,-1
196209.jpg,-1,-1
196227.jpg,-1,-1
196244.jpg,-1,-1
196245.jpg,-1,-1
196258.jpg,-1,-1
196277.jpg,-1,-1
196289.jpg,-1,-1
196292.jpg,-1,-1
196302.jpg,-1,-1
196308.jpg,-1,-1
196327.jpg,-1,-1
196337.jpg,-1,-1
196356.jpg,-1,-1
196359.jpg,-1,-1
196367.jpg,-1,-1
196383.jpg,-1,-1
196387.jpg,-1,-1
196424.jpg,-1,-1
196432.jpg,-1,-1
196433.jpg,-1,-1
196450.jpg,-1,-1
196461.jpg,-1,-1
196478.jpg,-1,-1
196494.jpg,-1,-1
196510.jpg,-1,-1
196524.jpg,-1,-1
196525.jpg,-1,-1
196541.jpg,-1,-1
196543.jpg,-1,-1
196581.jpg,-1,-1
196609.jpg,-1,-1
196614.jpg,-1,-1
196615.jpg,-1,-1
196623.jpg,-1,-1
196669.jpg,-1,-1
196679.jpg,-1,-1
196681.jpg,-1,-1
196694.jpg,-1,-1
196708.jpg,-1,-1
196731.jpg,-1,-1
196737.jpg,-1,-1
196746.jpg,-1,-1
196752.jpg,-1,-1
196761.jpg,-1,-1
196768.jpg,-1,-1
196770.jpg,-1,-1
196781.jpg,-1,-1
196784.jpg,-1,-1
196798.jpg,-1,-1
196803.jpg,-1,-1
196807.jpg,-1,-1
196825.jpg,-1,-1
196855.jpg,-1,-1
196864.jpg,-1,-1
196878.jpg,-1,-1
196881.jpg,-1,-1
196889.jpg,-1,-1
196890.jpg,-1,-1
196900.jpg,-1,-1
196915.jpg,-1,-1
196918.jpg,-1,-1
196920.jpg,-1,-1
196923.jpg,-1,-1
196924.jpg,-1,-1
196949.jpg,-1,-1
196970.jpg,-1,-1
196972.jpg,-1,-1
196982.jpg,-1,-1
196989.jpg,-1,-1
197011.jpg,-1,-1
197013.jpg,-1,-1
197043.jpg,-1,-1
197080.jpg,-1,-1
197084.jpg,-1,-1
197087.jpg,-1,-1
197091.jpg,-1,-1
197092.jpg,-1,-1
197100.jpg,-1,-1
197101.jpg,-1,-1
197134.jpg,-1,-1
197146.jpg,-1,-1
197157.jpg,-1,-1
197160.jpg,-1,-1
197183.jpg,-1,-1
197190.jpg,-1,-1
197195.jpg,-1,-1
197199.jpg,-1,-1
197200.jpg,-1,-1
197209.jpg,-1,-1
197216.jpg,-1,-1
197225.jpg,-1,-1
197237.jpg,-1,-1
197244.jpg,-1,-1
197249.jpg,-1,-1
197252.jpg,-1,-1
197258.jpg,-1,-1
197280.jpg,-1,-1
197285.jpg,-1,-1
197290.jpg,-1,-1
197293.jpg,-1,-1
197300.jpg,-1,-1
197303.jpg,-1,-1
197314.jpg,-1,-1
197322.jpg,-1,-1
197323.jpg,-1,-1
197343.jpg,-1,-1
197347.jpg,-1,-1
197366.jpg,-1,-1
197367.jpg,-1,-1
197375.jpg,-1,-1
197384.jpg,-1,-1
197387.jpg,-1,-1
197400.jpg,-1,-1
197404.jpg,-1,-1
197405.jpg,-1,-1
197421.jpg,-1,-1
197455.jpg,-1,-1
197464.jpg,-1,-1
197490.jpg,-1,-1
197491.jpg,-1,-1
197494.jpg,-1,-1
197496.jpg,-1,-1
197502.jpg,-1,-1
197510.jpg,-1,-1
197558.jpg,-1,-1
197564.jpg,-1,-1
197575.jpg,-1,-1
197577.jpg,-1,-1
197585.jpg,-1,-1
197597.jpg,-1,-1
197606.jpg,-1,-1
197608.jpg,-1,-1
197622.jpg,-1,-1
197627.jpg,-1,-1
197645.jpg,-1,-1
197666.jpg,-1,-1
197688.jpg,-1,-1
197689.jpg,-1,-1
197697.jpg,-1,-1
197700.jpg,-1,-1
197718.jpg,-1,-1
197722.jpg,-1,-1
197737.jpg,-1,-1
197748.jpg,-1,-1
197751.jpg,-1,-1
197752.jpg,-1,-1
197755.jpg,-1,-1
197765.jpg,-1,-1
197766.jpg,-1,-1
197767.jpg,-1,-1
197797.jpg,-1,-1
197818.jpg,-1,-1
197819.jpg,-1,-1
197831.jpg,-1,-1
197834.jpg,-1,-1
197842.jpg,-1,-1
197848.jpg,-1,-1
197873.jpg,-1,-1
197884.jpg,-1,-1
197887.jpg,-1,-1
197893.jpg,-1,-1
197909.jpg,-1,-1
197914.jpg,-1,-1
197920.jpg,-1,-1
197922.jpg,-1,-1
197939.jpg,-1,-1
197941.jpg,-1,-1
197954.jpg,-1,-1
197960.jpg,-1,-1
197964.jpg,-1,-1
197967.jpg,-1,-1
197974.jpg,-1,-1
197977.jpg,-1,-1
197986.jpg,-1,-1
197992.jpg,-1,-1
197995.jpg,-1,-1
198019.jpg,-1,-1
198025.jpg,-1,-1
198056.jpg,-1,-1
198064.jpg,-1,-1
198072.jpg,-1,-1
198080.jpg,-1,-1
198083.jpg,-1,-1
198094.jpg,-1,-1
198101.jpg,-1,-1
198127.jpg,-1,-1
198129.jpg,-1,-1
198138.jpg,-1,-1
198145.jpg,-1,-1
198151.jpg,-1,-1
198168.jpg,-1,-1
198186.jpg,-1,-1
198218.jpg,-1,-1
198225.jpg,-1,-1
198226.jpg,-1,-1
198227.jpg,-1,-1
198230.jpg,-1,-1
198240.jpg,-1,-1
198250.jpg,-1,-1
198260.jpg,-1,-1
198276.jpg,-1,-1
198287.jpg,-1,-1
198288.jpg,-1,-1
198289.jpg,-1,-1
198293.jpg,-1,-1
198294.jpg,-1,-1
198305.jpg,-1,-1
198309.jpg,-1,-1
198313.jpg,-1,-1
198339.jpg,-1,-1
198344.jpg,-1,-1
198357.jpg,-1,-1
198363.jpg,-1,-1
198365.jpg,-1,-1
198366.jpg,-1,-1
198367.jpg,-1,-1
198369.jpg,-1,-1
198370.jpg,-1,-1
198384.jpg,-1,-1
198447.jpg,-1,-1
198477.jpg,-1,-1
198480.jpg,-1,-1
198493.jpg,-1,-1
198520.jpg,-1,-1
198534.jpg,-1,-1
198538.jpg,-1,-1
198549.jpg,-1,-1
198552.jpg,-1,-1
198587.jpg,-1,-1
198596.jpg,-1,-1
198603.jpg,-1,-1
198621.jpg,-1,-1
198630.jpg,-1,-1
198648.jpg,-1,-1
198654.jpg,-1,-1
198661.jpg,-1,-1
198664.jpg,-1,-1
198672.jpg,-1,-1
198675.jpg,-1,-1
198676.jpg,-1,-1
198685.jpg,-1,-1
198709.jpg,-1,-1
198713.jpg,-1,-1
198721.jpg,-1,-1
198740.jpg,-1,-1
198742.jpg,-1,-1
198743.jpg,-1,-1
198752.jpg,-1,-1
198762.jpg,-1,-1
198782.jpg,-1,-1
198793.jpg,-1,-1
198798.jpg,-1,-1
198801.jpg,-1,-1
198824.jpg,-1,-1
198840.jpg,-1,-1
198845.jpg,-1,-1
198859.jpg,-1,-1
198868.jpg,-1,-1
198877.jpg,-1,-1
198878.jpg,-1,-1
198899.jpg,-1,-1
198919.jpg,-1,-1
198939.jpg,-1,-1
198951.jpg,-1,-1
198987.jpg,-1,-1
198991.jpg,-1,-1
199018.jpg,-1,-1
199026.jpg,-1,-1
199037.jpg,-1,-1
199048.jpg,-1,-1
199062.jpg,-1,-1
199075.jpg,-1,-1
199080.jpg,-1,-1
199104.jpg,-1,-1
199123.jpg,-1,-1
199125.jpg,-1,-1
199132.jpg,-1,-1
199141.jpg,-1,-1
199145.jpg,-1,-1
199149.jpg,-1,-1
199159.jpg,-1,-1
199160.jpg,-1,-1
199173.jpg,-1,-1
199180.jpg,-1,-1
199191.jpg,-1,-1
199201.jpg,-1,-1
199209.jpg,-1,-1
199227.jpg,-1,-1
199232.jpg,-1,-1
199252.jpg,-1,-1
199260.jpg,-1,-1
199276.jpg,-1,-1
199299.jpg,-1,-1
199302.jpg,-1,-1
199340.jpg,-1,-1
199358.jpg,-1,-1
199373.jpg,-1,-1
199389.jpg,-1,-1
199405.jpg,-1,-1
199406.jpg,-1,-1
199409.jpg,-1,-1
199410.jpg,-1,-1
199412.jpg,-1,-1
199414.jpg,-1,-1
199417.jpg,-1,-1
199439.jpg,-1,-1
199443.jpg,-1,-1
199450.jpg,-1,-1
199455.jpg,-1,-1
199472.jpg,-1,-1
199476.jpg,-1,-1
199485.jpg,-1,-1
199495.jpg,-1,-1
199513.jpg,-1,-1
199517.jpg,-1,-1
199531.jpg,-1,-1
199553.jpg,-1,-1
199556.jpg,-1,-1
199561.jpg,-1,-1
199566.jpg,-1,-1
199569.jpg,-1,-1
199580.jpg,-1,-1
199595.jpg,-1,-1
199603.jpg,-1,-1
199606.jpg,-1,-1
199608.jpg,-1,-1
199623.jpg,-1,-1
199649.jpg,-1,-1
199658.jpg,-1,-1
199668.jpg,-1,-1
199670.jpg,-1,-1
199672.jpg,-1,-1
199673.jpg,-1,-1
199708.jpg,-1,-1
199714.jpg,-1,-1
199716.jpg,-1,-1
199720.jpg,-1,-1
199721.jpg,-1,-1
199735.jpg,-1,-1
199749.jpg,-1,-1
199753.jpg,-1,-1
199767.jpg,-1,-1
199772.jpg,-1,-1
199805.jpg,-1,-1
199808.jpg,-1,-1
199810.jpg,-1,-1
199819.jpg,-1,-1
199831.jpg,-1,-1
199832.jpg,-1,-1
199862.jpg,-1,-1
199886.jpg,-1,-1
199888.jpg,-1,-1
199889.jpg,-1,-1
199917.jpg,-1,-1
199935.jpg,-1,-1
199938.jpg,-1,-1
199941.jpg,-1,-1
199946.jpg,-1,-1
199947.jpg,-1,-1
199958.jpg,-1,-1
199962.jpg,-1,-1
199964.jpg,-1,-1
199984.jpg,-1,-1
200024.jpg,-1,-1
200037.jpg,-1,-1
200047.jpg,-1,-1
200051.jpg,-1,-1
200053.jpg,-1,-1
200055.jpg,-1,-1
200059.jpg,-1,-1
200073.jpg,-1,-1
200081.jpg,-1,-1
200083.jpg,-1,-1
200099.jpg,-1,-1
200111.jpg,-1,-1
200113.jpg,-1,-1
200136.jpg,-1,-1
200138.jpg,-1,-1
200154.jpg,-1,-1
200165.jpg,-1,-1
200193.jpg,-1,-1
200207.jpg,-1,-1
200221.jpg,-1,-1
200246.jpg,-1,-1
200252.jpg,-1,-1
200269.jpg,-1,-1
200289.jpg,-1,-1
200295.jpg,-1,-1
200306.jpg,-1,-1
200321.jpg,-1,-1
200362.jpg,-1,-1
200363.jpg,-1,-1
200371.jpg,-1,-1
200377.jpg,-1,-1
200412.jpg,-1,-1
200417.jpg,-1,-1
200433.jpg,-1,-1
200472.jpg,-1,-1
200476.jpg,-1,-1
200512.jpg,-1,-1
200517.jpg,-1,-1
200519.jpg,-1,-1
200535.jpg,-1,-1
200546.jpg,-1,-1
200552.jpg,-1,-1
200556.jpg,-1,-1
200562.jpg,-1,-1
200563.jpg,-1,-1
200574.jpg,-1,-1
200587.jpg,-1,-1
200621.jpg,-1,-1
200626.jpg,-1,-1
200637.jpg,-1,-1
200650.jpg,-1,-1
200651.jpg,-1,-1
200653.jpg,-1,-1
200668.jpg,-1,-1
200675.jpg,-1,-1
200678.jpg,-1,-1
200698.jpg,-1,-1
200723.jpg,-1,-1
200726.jpg,-1,-1
200770.jpg,-1,-1
200775.jpg,-1,-1
200778.jpg,-1,-1
200787.jpg,-1,-1
200811.jpg,-1,-1
200812.jpg,-1,-1
200826.jpg,-1,-1
200846.jpg,-1,-1
200852.jpg,-1,-1
200860.jpg,-1,-1
200868.jpg,-1,-1
200887.jpg,-1,-1
200908.jpg,-1,-1
200913.jpg,-1,-1
200920.jpg,-1,-1
200946.jpg,-1,-1
200972.jpg,-1,-1
200975.jpg,-1,-1
200983.jpg,-1,-1
200989.jpg,-1,-1
200990.jpg,-1,-1
201002.jpg,-1,-1
201008.jpg,-1,-1
201009.jpg,-1,-1
201024.jpg,-1,-1
201030.jpg,-1,-1
201039.jpg,-1,-1
201047.jpg,-1,-1
201050.jpg,-1,-1
201054.jpg,-1,-1
201079.jpg,-1,-1
201102.jpg,-1,-1
201107.jpg,-1,-1
201116.jpg,-1,-1
201121.jpg,-1,-1
201125.jpg,-1,-1
201134.jpg,-1,-1
201155.jpg,-1,-1
201188.jpg,-1,-1
201191.jpg,-1,-1
201194.jpg,-1,-1
201200.jpg,-1,-1
201204.jpg,-1,-1
201207.jpg,-1,-1
201210.jpg,-1,-1
201216.jpg,-1,-1
201220.jpg,-1,-1
201229.jpg,-1,-1
201231.jpg,-1,-1
201233.jpg,-1,-1
201261.jpg,-1,-1
201267.jpg,-1,-1
201281.jpg,-1,-1
201318.jpg,-1,-1
201349.jpg,-1,-1
201351.jpg,-1,-1
201352.jpg,-1,-1
201358.jpg,-1,-1
201373.jpg,-1,-1
201375.jpg,-1,-1
201377.jpg,-1,-1
201382.jpg,-1,-1
201384.jpg,-1,-1
201390.jpg,-1,-1
201408.jpg,-1,-1
201414.jpg,-1,-1
201438.jpg,-1,-1
201441.jpg,-1,-1
201443.jpg,-1,-1
201444.jpg,-1,-1
201451.jpg,-1,-1
201460.jpg,-1,-1
201463.jpg,-1,-1
201500.jpg,-1,-1
201501.jpg,-1,-1
201505.jpg,-1,-1
201514.jpg,-1,-1
201535.jpg,-1,-1
201538.jpg,-1,-1
201560.jpg,-1,-1
201561.jpg,-1,-1
201567.jpg,-1,-1
201568.jpg,-1,-1
201576.jpg,-1,-1
201580.jpg,-1,-1
201591.jpg,-1,-1
201602.jpg,-1,-1
201612.jpg,-1,-1
201624.jpg,-1,-1
201626.jpg,-1,-1
201628.jpg,-1,-1
201634.jpg,-1,-1
201639.jpg,-1,-1
201698.jpg,-1,-1
201705.jpg,-1,-1
201714.jpg,-1,-1
201732.jpg,-1,-1
201749.jpg,-1,-1
201755.jpg,-1,-1
201761.jpg,-1,-1
201763.jpg,-1,-1
201778.jpg,-1,-1
201782.jpg,-1,-1
201789.jpg,-1,-1
201804.jpg,-1,-1
201816.jpg,-1,-1
201819.jpg,-1,-1
201831.jpg,-1,-1
201839.jpg,-1,-1
201840.jpg,-1,-1
201855.jpg,-1,-1
201861.jpg,-1,-1
201867.jpg,-1,-1
201874.jpg,-1,-1
201888.jpg,-1,-1
201900.jpg,-1,-1
201904.jpg,-1,-1
201913.jpg,-1,-1
201918.jpg,-1,-1
201922.jpg,-1,-1
201924.jpg,-1,-1
201934.jpg,-1,-1
201951.jpg,-1,-1
201955.jpg,-1,-1
201986.jpg,-1,-1
201995.jpg,-1,-1
202000.jpg,-1,-1
202009.jpg,-1,-1
202041.jpg,-1,-1
202045.jpg,-1,-1
202046.jpg,-1,-1
202064.jpg,-1,-1
202072.jpg,-1,-1
202074.jpg,-1,-1
202075.jpg,-1,-1
202081.jpg,-1,-1
202088.jpg,-1,-1
202093.jpg,-1,-1
202094.jpg,-1,-1
202095.jpg,-1,-1
202096.jpg,-1,-1
202125.jpg,-1,-1
202128.jpg,-1,-1
202129.jpg,-1,-1
202138.jpg,-1,-1
202139.jpg,-1,-1
202140.jpg,-1,-1
202146.jpg,-1,-1
202176.jpg,-1,-1
202184.jpg,-1,-1
202185.jpg,-1,-1
202195.jpg,-1,-1
202207.jpg,-1,-1
202220.jpg,-1,-1
202227.jpg,-1,-1
202228.jpg,-1,-1
202230.jpg,-1,-1
202241.jpg,-1,-1
202253.jpg,-1,-1
202257.jpg,-1,-1
202261.jpg,-1,-1
202302.jpg,-1,-1
202314.jpg,-1,-1
202321.jpg,-1,-1
202324.jpg,-1,-1
202325.jpg,-1,-1
202333.jpg,-1,-1
202335.jpg,-1,-1
202339.jpg,-1,-1
202349.jpg,-1,-1
202356.jpg,-1,-1
202358.jpg,-1,-1
202365.jpg,-1,-1
202377.jpg,-1,-1
202407.jpg,-1,-1
202422.jpg,-1,-1
202464.jpg,-1,-1
202465.jpg,-1,-1
202470.jpg,-1,-1
202483.jpg,-1,-1
202491.jpg,-1,-1
202503.jpg,-1,-1
202511.jpg,-1,-1
202528.jpg,-1,-1
202532.jpg,-1,-1
202535.jpg,-1,-1
202540.jpg,-1,-1
202545.jpg,-1,-1
202551.jpg,-1,-1
202553.jpg,-1,-1
202563.jpg,-1,-1
202573.jpg,-1,-1
202575.jpg,-1,-1
202583.jpg,-1,-1
202584.jpg,-1,-1
